{
  "entities": [
    {
      "otherSectionsData": {},
      "contextData": {
        "campaignId": "5a0180a406ff1e00156af3b3",
        "companyId": "5addd7f776b3df6ed921e1f9",
        "orgSize": null,
        "companyName": "ABC",
        "ctryCode": "US",
        "sectionId": "EMP_DATA",
        "grpCode": "",
        "cpyCode": "",
        "uniqueIdColumnCode": "YOUR_EEID",
        "industry": {
          "superSector": "FS",
          "sector": "163",
          "subSector": "1770"
        }
      },
      "sectionStructure": {
        "columns": [
          {
            "code": "EXP_GRP_CODE",
            "dataType": "string",
            "questionType": "text",
            "hidden": true,
            "validations": [],
            "mappedColumnName": "EXP_GRP_CODE"
          },
          {
            "code": "EXP_CPY_CODE",
            "dataType": "string",
            "questionType": "text",
            "hidden": true,
            "validations": [],
            "mappedColumnName": "EXP_CPY_CODE"
          },
          {
            "code": "EXP_CTRY_CODE",
            "dataType": "string",
            "questionType": "text",
            "hidden": true,
            "validations": [],
            "mappedColumnName": "EXP_CTRY_CODE"
          },
          {
            "code": "EXP_SUPER_SECTOR",
            "dataType": "string",
            "questionType": "text",
            "hidden": true,
            "validations": [],
            "mappedColumnName": "EXP_SUPER_SECTOR"
          },
          {
            "code": "EXP_SECTOR",
            "dataType": "int",
            "questionType": "integer",
            "hidden": true,
            "validations": [],
            "mappedColumnName": "EXP_SECTOR"
          },
          {
            "code": "EXP_SUB_SECTOR",
            "dataType": "int",
            "questionType": "integer",
            "hidden": true,
            "validations": [],
            "mappedColumnName": "EXP_SUB_SECTOR"
          },
          {
            "code": "EXP_FAMILY",
            "dataType": "string",
            "questionType": "text",
            "hidden": true,
            "validations": [],
            "mappedColumnName": "EXP_FAMILY"
          },
          {
            "code": "CAREER_STREAM",
            "dataType": "string",
            "questionType": "text",
            "hidden": true,
            "validations": [],
            "mappedColumnName": "CAREER_STREAM"
          },
          {
            "code": "CAREER_LEVEL",
            "dataType": "int",
            "questionType": "integer",
            "hidden": true,
            "validations": [],
            "mappedColumnName": "CAREER_LEVEL"
          },
          {
            "code": "EXP_DEF_NUM_MONTHS",
            "dataType": "double",
            "questionType": "double",
            "hidden": true,
            "validations": [],
            "mappedColumnName": "EXP_DEF_NUM_MONTHS"
          },
          {
            "code": "EXP_CURR_CONV",
            "dataType": "double",
            "questionType": "double",
            "hidden": true,
            "validations": [],
            "mappedColumnName": "EXP_CURR_CONV"
          },
          {
            "code": "EXP_SALINFLATION",
            "dataType": "double",
            "questionType": "double",
            "hidden": true,
            "validations": [],
            "mappedColumnName": "EXP_SALINFLATION"
          },
          {
            "code": "EXP_AGE",
            "dataType": "int",
            "questionType": "integer",
            "hidden": true,
            "validations": [],
            "mappedColumnName": "EXP_AGE"
          },
          {
            "code": "EXP_ROLE_CH",
            "dataType": "string",
            "questionType": "text",
            "hidden": true,
            "validations": [],
            "mappedColumnName": "EXP_ROLE_CH"
          },
          {
            "code": "EXP_COMP_AU",
            "dataType": "double",
            "questionType": "double",
            "hidden": true,
            "validations": [],
            "mappedColumnName": "EXP_COMP_AU"
          },
          {
            "code": "EXP_COMP1",
            "dataType": "double",
            "questionType": "double",
            "hidden": true,
            "validations": [],
            "mappedColumnName": "EXP_COMP1"
          },
          {
            "code": "EXP_OTH_G_ALLOW",
            "dataType": "double",
            "questionType": "double",
            "hidden": true,
            "validations": [],
            "mappedColumnName": "EXP_OTH_G_ALLOW"
          },
          {
            "code": "EXP_COMP2",
            "dataType": "double",
            "questionType": "double",
            "hidden": true,
            "validations": [],
            "mappedColumnName": "EXP_COMP2"
          },
          {
            "code": "EXP_MIN_CHECK",
            "dataType": "int",
            "questionType": "integer",
            "hidden": true,
            "validations": [],
            "mappedColumnName": "EXP_MIN_CHECK"
          },
          {
            "code": "EXP_BONUS_APER",
            "dataType": "double",
            "questionType": "double",
            "hidden": true,
            "validations": [],
            "mappedColumnName": "EXP_BONUS_APER"
          },
          {
            "code": "EXP_BONUS_APER_AU",
            "dataType": "double",
            "questionType": "double",
            "hidden": true,
            "validations": [],
            "mappedColumnName": "EXP_BONUS_APER_AU"
          },
          {
            "code": "EXP_COMM_APER",
            "dataType": "double",
            "questionType": "double",
            "hidden": true,
            "validations": [],
            "mappedColumnName": "EXP_COMM_APER"
          },
          {
            "code": "EXP_COMM_APER_AU",
            "dataType": "double",
            "questionType": "double",
            "hidden": true,
            "validations": [],
            "mappedColumnName": "EXP_COMM_APER_AU"
          },
          {
            "code": "EXP_OTHBON_TPER_AU",
            "dataType": "double",
            "questionType": "double",
            "hidden": true,
            "validations": [],
            "mappedColumnName": "EXP_OTHBON_TPER_AU"
          },
          {
            "code": "EXP_OTH_APER_AU",
            "dataType": "double",
            "questionType": "double",
            "hidden": true,
            "validations": [],
            "mappedColumnName": "EXP_OTH_APER_AU"
          },
          {
            "code": "EXP_STI_TGT_PRIOR_PERC_AU",
            "dataType": "double",
            "questionType": "double",
            "hidden": true,
            "validations": [],
            "mappedColumnName": "EXP_STI_TGT_PRIOR_PERC_AU"
          },
          {
            "code": "EXP_STI_MAX_CURR_PERC_AU",
            "dataType": "double",
            "questionType": "double",
            "hidden": true,
            "validations": [],
            "mappedColumnName": "EXP_STI_MAX_CURR_PERC_AU"
          },
          {
            "code": "EXP_SALCOM_APER_AU",
            "dataType": "double",
            "questionType": "double",
            "hidden": true,
            "validations": [],
            "mappedColumnName": "EXP_SALCOM_APER_AU"
          },
          {
            "code": "EXP_SALCOM_TPER_AU",
            "dataType": "double",
            "questionType": "double",
            "hidden": true,
            "validations": [],
            "mappedColumnName": "EXP_SALCOM_TPER_AU"
          },
          {
            "code": "EXP_HOL_ALLOW_PERC_AU",
            "dataType": "double",
            "questionType": "double",
            "hidden": true,
            "validations": [],
            "mappedColumnName": "EXP_HOL_ALLOW_PERC_AU"
          },
          {
            "code": "EXP_BONUS_OTH_PERC_AU",
            "dataType": "double",
            "questionType": "double",
            "hidden": true,
            "validations": [],
            "mappedColumnName": "EXP_BONUS_OTH_PERC_AU"
          },
          {
            "code": "EXP_COMP3ACT",
            "dataType": "double",
            "questionType": "double",
            "hidden": true,
            "validations": [],
            "mappedColumnName": "EXP_COMP3ACT"
          },
          {
            "code": "EXP_CAR_MLEASE",
            "dataType": "double",
            "questionType": "double",
            "hidden": true,
            "validations": [],
            "mappedColumnName": "EXP_CAR_MLEASE"
          },
          {
            "code": "EXP_ANN_PACK",
            "dataType": "double",
            "questionType": "double",
            "hidden": true,
            "validations": [],
            "mappedColumnName": "EXP_ANN_PACK"
          },
          {
            "code": "EXP_LTIPLAN1",
            "dataType": "int",
            "questionType": "integer",
            "hidden": true,
            "validations": [],
            "mappedColumnName": "EXP_LTIPLAN1"
          },
          {
            "code": "EXP_LTIPLAN2",
            "dataType": "int",
            "questionType": "integer",
            "hidden": true,
            "validations": [],
            "mappedColumnName": "EXP_LTIPLAN2"
          },
          {
            "code": "EXP_LTIPLAN3",
            "dataType": "int",
            "questionType": "integer",
            "hidden": true,
            "validations": [],
            "mappedColumnName": "EXP_LTIPLAN3"
          },
          {
            "code": "EXP_LTIPLAN4",
            "dataType": "int",
            "questionType": "integer",
            "hidden": true,
            "validations": [],
            "mappedColumnName": "EXP_LTIPLAN4"
          },
          {
            "code": "EXP_LTIPLAN5",
            "dataType": "int",
            "questionType": "integer",
            "hidden": true,
            "validations": [],
            "mappedColumnName": "EXP_LTIPLAN5"
          },
          {
            "code": "EXP_LTI_EXISTS",
            "dataType": "int",
            "questionType": "integer",
            "hidden": true,
            "validations": [],
            "mappedColumnName": "EXP_LTI_EXISTS"
          },
          {
            "code": "EXP_POS_CODE_CS_CL",
            "dataType": "string",
            "questionType": "text",
            "hidden": true,
            "validations": [],
            "mappedColumnName": "EXP_POS_CODE_CS_CL"
          },
          {
            "code": "YOUR_EEID",
            "dataType": "string",
            "questionType": "text",
            "hidden": false,
            "validations": [],
            "mappedColumnName": "PS Number"
          },
          {
            "code": "POS_CODE",
            "dataType": "string",
            "questionType": "text",
            "hidden": false,
            "validations": [
              {
                "_id": "5a8d3016250f150018acd80d",
                "validationType": "expression",
                "errorType": "ERROR",
                "expression": "ISBLANK(this.YOUR_TITLE) AND ISBLANK(this.POS_CODE);",
                "parameter": "",
                "mda": "",
                "category": "file_acceptance",
                "dependentColumns": []
              }
            ],
            "mappedColumnName": "Mercer benchmark code"
          },
          {
            "code": "POS_TITLE",
            "dataType": "string",
            "questionType": "text",
            "hidden": false,
            "validations": [],
            "mappedColumnName": "POS_TITLE"
          },
          {
            "code": "OLD_POSCODE",
            "dataType": "string",
            "questionType": "text",
            "hidden": false,
            "validations": [],
            "mappedColumnName": "OLD_POSCODE"
          },
          {
            "code": "OLD_POSTITLE",
            "dataType": "string",
            "questionType": "text",
            "hidden": false,
            "validations": [],
            "mappedColumnName": "OLD_POSTITLE"
          },
          {
            "code": "LIBSPEC_FLAG1",
            "dataType": "string",
            "questionType": "dropdown",
            "hidden": false,
            "validations": [],
            "options": {
              "items": [
                {
                  "value": "1101",
                  "displayName": "< 4 Branches"
                },
                {
                  "value": "1102",
                  "displayName": "4 to 8 Branches"
                },
                {
                  "value": "1103",
                  "displayName": "9 to 12 Branches"
                },
                {
                  "value": "1104",
                  "displayName": "> 12 Branches"
                },
                {
                  "value": "1201",
                  "displayName": "Academic/Teaching and Learning"
                },
                {
                  "value": "1202",
                  "displayName": "External Engagement"
                },
                {
                  "value": "1203",
                  "displayName": "International"
                },
                {
                  "value": "1204",
                  "displayName": "Research"
                },
                {
                  "value": "1205",
                  "displayName": "Advancement"
                },
                {
                  "value": "1206",
                  "displayName": "Indigenous Education"
                },
                {
                  "value": "1301",
                  "displayName": "Acquisition Finance"
                },
                {
                  "value": "1302",
                  "displayName": "Tax-Driven Financing"
                },
                {
                  "value": "1303",
                  "displayName": "Project Advisory"
                },
                {
                  "value": "1304",
                  "displayName": "Loan Workouts / Recoveries"
                },
                {
                  "value": "1305",
                  "displayName": "Structuring/Advisory"
                },
                {
                  "value": "1401",
                  "displayName": "Bakery"
                },
                {
                  "value": "1402",
                  "displayName": "Dairy/Frozen Food"
                },
                {
                  "value": "1403",
                  "displayName": "Dairy"
                },
                {
                  "value": "1404",
                  "displayName": "Frozen Food"
                },
                {
                  "value": "1405",
                  "displayName": "Deli/Bakery"
                },
                {
                  "value": "1406",
                  "displayName": "Deli"
                },
                {
                  "value": "1407",
                  "displayName": "Floral"
                },
                {
                  "value": "1408",
                  "displayName": "General Merchandise/Health & Beauty Care"
                },
                {
                  "value": "1409",
                  "displayName": "Meat"
                },
                {
                  "value": "1410",
                  "displayName": "Produce"
                },
                {
                  "value": "1411",
                  "displayName": "Seafood"
                },
                {
                  "value": "1501",
                  "displayName": "Biology/Plant"
                },
                {
                  "value": "1502",
                  "displayName": "Chemistry"
                },
                {
                  "value": "1503",
                  "displayName": "Computer"
                },
                {
                  "value": "1504",
                  "displayName": "Earth/Environment"
                },
                {
                  "value": "1803",
                  "displayName": "Private Banking/Private Client"
                },
                {
                  "value": "1902",
                  "displayName": "Residential"
                },
                {
                  "value": "2001",
                  "displayName": "Commission Only"
                },
                {
                  "value": "2002",
                  "displayName": "Pay & Incentive"
                },
                {
                  "value": "2101",
                  "displayName": "Consumer Loan"
                },
                {
                  "value": "2102",
                  "displayName": "Commercial Loan"
                },
                {
                  "value": "2103",
                  "displayName": "Residential Mortgage"
                },
                {
                  "value": "2104",
                  "displayName": "Commercial Mortgage"
                },
                {
                  "value": "2201",
                  "displayName": "Family Office"
                },
                {
                  "value": "2202",
                  "displayName": "Institutional"
                },
                {
                  "value": "2204",
                  "displayName": "Retail"
                },
                {
                  "value": "2301",
                  "displayName": "General"
                },
                {
                  "value": "2302",
                  "displayName": "General - In-Branch"
                },
                {
                  "value": "2303",
                  "displayName": "General - Nonregistered"
                },
                {
                  "value": "2304",
                  "displayName": "General - Out of Branch"
                },
                {
                  "value": "2305",
                  "displayName": "General - Registered"
                },
                {
                  "value": "2306",
                  "displayName": "Equities"
                },
                {
                  "value": "2402",
                  "displayName": "Affinities"
                },
                {
                  "value": "2403",
                  "displayName": "Life"
                },
                {
                  "value": "2404",
                  "displayName": "Health"
                },
                {
                  "value": "2405",
                  "displayName": "Pension/Retirement"
                },
                {
                  "value": "2406",
                  "displayName": "Prime Broker"
                },
                {
                  "value": "2407",
                  "displayName": "Property & Casualty"
                },
                {
                  "value": "2408",
                  "displayName": "Property & Casualty - Low Risk"
                },
                {
                  "value": "2409",
                  "displayName": "Property & Casualty - High Risk"
                },
                {
                  "value": "2410",
                  "displayName": "Reinsurance"
                },
                {
                  "value": "2411",
                  "displayName": "Surety"
                },
                {
                  "value": "2702",
                  "displayName": "Chemical"
                },
                {
                  "value": "2704",
                  "displayName": "Electrical"
                },
                {
                  "value": "2705",
                  "displayName": "Mechanical"
                },
                {
                  "value": "2802",
                  "displayName": "Civil"
                },
                {
                  "value": "2803",
                  "displayName": "Area/Zone"
                },
                {
                  "value": "2804",
                  "displayName": "Region"
                },
                {
                  "value": "2805",
                  "displayName": "State"
                },
                {
                  "value": "2902",
                  "displayName": "Consumer Banking"
                },
                {
                  "value": "2903",
                  "displayName": "Premier Banking"
                },
                {
                  "value": "2905",
                  "displayName": "Corporate Banking"
                },
                {
                  "value": "2906",
                  "displayName": "Enterprise Banking"
                },
                {
                  "value": "2907",
                  "displayName": "Transaction Services"
                },
                {
                  "value": "2908",
                  "displayName": "Global Markets"
                },
                {
                  "value": "2909",
                  "displayName": "Treasury Settlements"
                },
                {
                  "value": "2910",
                  "displayName": "High Net Worth"
                },
                {
                  "value": "2911",
                  "displayName": "Multi-Categories"
                },
                {
                  "value": "3002",
                  "displayName": "Consumer Credit"
                },
                {
                  "value": "3003",
                  "displayName": "Counterparty Credit"
                },
                {
                  "value": "3107",
                  "displayName": "Commodity Finance"
                },
                {
                  "value": "3202",
                  "displayName": "Corporate Credit Risk"
                },
                {
                  "value": "3203",
                  "displayName": "Retail/Credit Risk"
                },
                {
                  "value": "3204",
                  "displayName": "Multi-Disciplines"
                },
                {
                  "value": "3303",
                  "displayName": "Equities - Cash"
                },
                {
                  "value": "3304",
                  "displayName": "Equities - Derivatives"
                },
                {
                  "value": "3305",
                  "displayName": "Fixed Income"
                },
                {
                  "value": "3306",
                  "displayName": "Alternatives"
                },
                {
                  "value": "3307",
                  "displayName": "Externally Managed Funds"
                },
                {
                  "value": "3308",
                  "displayName": "Foreign Exchange"
                },
                {
                  "value": "3309",
                  "displayName": "Index Funds/Passive Investments"
                },
                {
                  "value": "3310",
                  "displayName": "Infrastructure/Project Finance"
                },
                {
                  "value": "3311",
                  "displayName": "Mixed Assets/Asset Allocation"
                },
                {
                  "value": "3312",
                  "displayName": "Money Market"
                },
                {
                  "value": "3313",
                  "displayName": "Mortgages"
                },
                {
                  "value": "3314",
                  "displayName": "Private Debt"
                },
                {
                  "value": "3315",
                  "displayName": "Property"
                },
                {
                  "value": "3316",
                  "displayName": "Private Equity"
                },
                {
                  "value": "3317",
                  "displayName": "Quantitative Investments"
                },
                {
                  "value": "3504",
                  "displayName": "Alternative Investments"
                },
                {
                  "value": "3506",
                  "displayName": "Buy-Side"
                },
                {
                  "value": "3507",
                  "displayName": "Sell-Side"
                },
                {
                  "value": "3605",
                  "displayName": "Investment/Asset Management"
                },
                {
                  "value": "3606",
                  "displayName": "Hedge Fund"
                },
                {
                  "value": "3807",
                  "displayName": "Property & Casualty - Retail"
                },
                {
                  "value": "3808",
                  "displayName": "Property & Casualty - Specialized"
                },
                {
                  "value": "4010",
                  "displayName": "Major Market Corporate Banking"
                },
                {
                  "value": "4011",
                  "displayName": "Middle Market Corporate Banking & Business Banking"
                },
                {
                  "value": "4012",
                  "displayName": "Business Banking"
                },
                {
                  "value": "4018",
                  "displayName": "Cards"
                },
                {
                  "value": "4108",
                  "displayName": "Low Risk"
                },
                {
                  "value": "4109",
                  "displayName": "High Risk"
                },
                {
                  "value": "4402",
                  "displayName": "Multi-Products"
                },
                {
                  "value": "4403",
                  "displayName": "Agency"
                },
                {
                  "value": "4406",
                  "displayName": "Equities Cash - US"
                },
                {
                  "value": "4407",
                  "displayName": "Equities Cash - Canadian"
                },
                {
                  "value": "4408",
                  "displayName": "Equities Cash - Outside Canada"
                },
                {
                  "value": "4409",
                  "displayName": "Equities Cash - International"
                },
                {
                  "value": "4410",
                  "displayName": "Commodities"
                },
                {
                  "value": "4411",
                  "displayName": "Corporates/Credit"
                },
                {
                  "value": "4412",
                  "displayName": "Client/Desk/Sector"
                },
                {
                  "value": "4413",
                  "displayName": "Derivatives"
                },
                {
                  "value": "4414",
                  "displayName": "Emerging Markets"
                },
                {
                  "value": "4417",
                  "displayName": "Futures & Options"
                },
                {
                  "value": "4418",
                  "displayName": "Interest Rates"
                },
                {
                  "value": "4420",
                  "displayName": "Municipals/Sovereigns"
                },
                {
                  "value": "4421",
                  "displayName": "Prime Brokerage"
                },
                {
                  "value": "4422",
                  "displayName": "Repo"
                },
                {
                  "value": "4423",
                  "displayName": "Securitized Products"
                },
                {
                  "value": "4424",
                  "displayName": "Treasury Products"
                },
                {
                  "value": "4522",
                  "displayName": "EQ - Quantitative Investments"
                },
                {
                  "value": "4605",
                  "displayName": "Equities Cash"
                },
                {
                  "value": "4606",
                  "displayName": "Equities Derivatives"
                },
                {
                  "value": "4703",
                  "displayName": "Debt Capital Markets"
                },
                {
                  "value": "4704",
                  "displayName": "Equity Capital Markets"
                },
                {
                  "value": "4705",
                  "displayName": "EQ - Derivatives"
                },
                {
                  "value": "4708",
                  "displayName": "Governments/Sovereigns"
                },
                {
                  "value": "4709",
                  "displayName": "Private Placement"
                },
                {
                  "value": "4711",
                  "displayName": "Syndications"
                },
                {
                  "value": "4905",
                  "displayName": "Middle Market Corporate Banking"
                },
                {
                  "value": "4907",
                  "displayName": "Enterprise Banking - Small Business"
                },
                {
                  "value": "5003",
                  "displayName": "Premier"
                },
                {
                  "value": "5101",
                  "displayName": "Global"
                },
                {
                  "value": "5102",
                  "displayName": "Regional"
                },
                {
                  "value": "5103",
                  "displayName": "Country"
                },
                {
                  "value": "5201",
                  "displayName": "Industrial"
                },
                {
                  "value": "5202",
                  "displayName": "Commercial/Office"
                },
                {
                  "value": "5205",
                  "displayName": "Community/Senior Living"
                },
                {
                  "value": "5206",
                  "displayName": "Diversified"
                },
                {
                  "value": "5301",
                  "displayName": "Liberal Arts"
                },
                {
                  "value": "5302",
                  "displayName": "Economics & Business"
                },
                {
                  "value": "5303",
                  "displayName": "Graduate Business School"
                },
                {
                  "value": "5304",
                  "displayName": "Law"
                },
                {
                  "value": "5305",
                  "displayName": "Education"
                },
                {
                  "value": "5306",
                  "displayName": "Engineering"
                },
                {
                  "value": "5307",
                  "displayName": "Science"
                },
                {
                  "value": "5309",
                  "displayName": "Medicine"
                },
                {
                  "value": "5310",
                  "displayName": "Architecture"
                },
                {
                  "value": "5311",
                  "displayName": "Indigenous Studies"
                },
                {
                  "value": "5312",
                  "displayName": "Sport"
                },
                {
                  "value": "5313",
                  "displayName": "Technology"
                },
                {
                  "value": "5501",
                  "displayName": "M&A"
                },
                {
                  "value": "5502",
                  "displayName": "Restructuring"
                },
                {
                  "value": "5701",
                  "displayName": "Mega"
                },
                {
                  "value": "5702",
                  "displayName": ">50 staff"
                },
                {
                  "value": "5703",
                  "displayName": "Large"
                },
                {
                  "value": "5704",
                  "displayName": "26-50 staff"
                },
                {
                  "value": "5705",
                  "displayName": "Medium"
                },
                {
                  "value": "5706",
                  "displayName": "10-25 staff"
                },
                {
                  "value": "5707",
                  "displayName": "Small"
                },
                {
                  "value": "5708",
                  "displayName": "<10 staff"
                },
                {
                  "value": "5901",
                  "displayName": "Multi-Functions"
                },
                {
                  "value": "5902",
                  "displayName": "Leveraged Buyouts"
                },
                {
                  "value": "5903",
                  "displayName": "Mezzanine Capital"
                },
                {
                  "value": "5904",
                  "displayName": "Venture Capital"
                },
                {
                  "value": "5905",
                  "displayName": "Expansion Capital"
                },
                {
                  "value": "5906",
                  "displayName": "Distressed Securities"
                },
                {
                  "value": "6002",
                  "displayName": "Housing Loans"
                },
                {
                  "value": "6003",
                  "displayName": "Insurance"
                },
                {
                  "value": "6004",
                  "displayName": "Unit Trusts"
                },
                {
                  "value": "6005",
                  "displayName": "Treasury Product"
                },
                {
                  "value": "6006",
                  "displayName": "Auto Finance"
                },
                {
                  "value": "6007",
                  "displayName": "Fixed Deposits"
                },
                {
                  "value": "6008",
                  "displayName": "Bonds"
                },
                {
                  "value": "6101",
                  "displayName": "Organization Wide"
                },
                {
                  "value": "6107",
                  "displayName": "Enterprise Banking - Medium Enterprise"
                },
                {
                  "value": "6108",
                  "displayName": "Digital - Website"
                },
                {
                  "value": "6109",
                  "displayName": "Digital - Mobile"
                },
                {
                  "value": "6110",
                  "displayName": "Digital - Multi-Platforms"
                },
                {
                  "value": "6113",
                  "displayName": "Credit Cards"
                },
                {
                  "value": "6119",
                  "displayName": "Corporate Finance"
                },
                {
                  "value": "6128",
                  "displayName": "Credit Card"
                },
                {
                  "value": "6129",
                  "displayName": "Cash Management"
                },
                {
                  "value": "6303",
                  "displayName": "Digital"
                },
                {
                  "value": "6403",
                  "displayName": "Affluent"
                },
                {
                  "value": "6405",
                  "displayName": "Ultra High Net Worth"
                },
                {
                  "value": "6406",
                  "displayName": "Wholesale/Institutional"
                },
                {
                  "value": "6501",
                  "displayName": "Ultra-Net-Worth"
                },
                {
                  "value": "6502",
                  "displayName": "High-Net-Worth"
                },
                {
                  "value": "6601",
                  "displayName": "UNHW"
                },
                {
                  "value": "6602",
                  "displayName": "HNW"
                },
                {
                  "value": "6705",
                  "displayName": "Retail - Branch"
                },
                {
                  "value": "6706",
                  "displayName": "Retail - Telesales"
                },
                {
                  "value": "6707",
                  "displayName": "Retail - Mobile"
                },
                {
                  "value": "6801",
                  "displayName": "Upscale"
                },
                {
                  "value": "6802",
                  "displayName": "Midscale"
                },
                {
                  "value": "6803",
                  "displayName": "Economy"
                },
                {
                  "value": "6901",
                  "displayName": "USD $500M - $1B"
                },
                {
                  "value": "6902",
                  "displayName": "USD $1B - $2B"
                },
                {
                  "value": "6903",
                  "displayName": "USD $2B - $5B"
                },
                {
                  "value": "6904",
                  "displayName": "USD $5M - $1B"
                },
                {
                  "value": "9999",
                  "displayName": "Not applicable"
                }
              ]
            }
          },
          {
            "code": "LIBSPEC_FLAG2",
            "dataType": "string",
            "questionType": "dropdown",
            "hidden": false,
            "validations": [],
            "options": {
              "items": [
                {
                  "value": "1601",
                  "displayName": "Branch"
                },
                {
                  "value": "1602",
                  "displayName": "Telesales"
                },
                {
                  "value": "2202",
                  "displayName": "Institutional"
                },
                {
                  "value": "2306",
                  "displayName": "Equities"
                },
                {
                  "value": "2902",
                  "displayName": "Consumer Banking"
                },
                {
                  "value": "2903",
                  "displayName": "Premier Banking"
                },
                {
                  "value": "3305",
                  "displayName": "Fixed Income"
                },
                {
                  "value": "3306",
                  "displayName": "Alternatives"
                },
                {
                  "value": "3308",
                  "displayName": "Foreign Exchange"
                },
                {
                  "value": "3309",
                  "displayName": "Index Funds/Passive Investments"
                },
                {
                  "value": "3310",
                  "displayName": "Infrastructure/Project Finance"
                },
                {
                  "value": "3311",
                  "displayName": "Mixed Assets/Asset Allocation"
                },
                {
                  "value": "3313",
                  "displayName": "Mortgages"
                },
                {
                  "value": "3314",
                  "displayName": "Private Debt"
                },
                {
                  "value": "3315",
                  "displayName": "Property"
                },
                {
                  "value": "3316",
                  "displayName": "Private Equity"
                },
                {
                  "value": "4018",
                  "displayName": "Cards"
                },
                {
                  "value": "4402",
                  "displayName": "Multi-Products"
                },
                {
                  "value": "4403",
                  "displayName": "Agency"
                },
                {
                  "value": "4406",
                  "displayName": "Equities Cash - US"
                },
                {
                  "value": "4407",
                  "displayName": "Equities Cash - Canadian"
                },
                {
                  "value": "4408",
                  "displayName": "Equities Cash - Outside Canada"
                },
                {
                  "value": "4409",
                  "displayName": "Equities Cash - International"
                },
                {
                  "value": "4410",
                  "displayName": "Commodities"
                },
                {
                  "value": "4411",
                  "displayName": "Corporates/Credit"
                },
                {
                  "value": "4413",
                  "displayName": "Derivatives"
                },
                {
                  "value": "4414",
                  "displayName": "Emerging Markets"
                },
                {
                  "value": "4417",
                  "displayName": "Futures & Options"
                },
                {
                  "value": "4418",
                  "displayName": "Interest Rates"
                },
                {
                  "value": "4420",
                  "displayName": "Municipals/Sovereigns"
                },
                {
                  "value": "4421",
                  "displayName": "Prime Brokerage"
                },
                {
                  "value": "4422",
                  "displayName": "Repo"
                },
                {
                  "value": "4423",
                  "displayName": "Securitized Products"
                },
                {
                  "value": "4424",
                  "displayName": "Treasury Products"
                },
                {
                  "value": "6003",
                  "displayName": "Insurance"
                },
                {
                  "value": "6005",
                  "displayName": "Treasury Product"
                },
                {
                  "value": "7003",
                  "displayName": "Mobile"
                },
                {
                  "value": "7101",
                  "displayName": "Channel Strategy"
                },
                {
                  "value": "7102",
                  "displayName": "Distribution"
                },
                {
                  "value": "7301",
                  "displayName": "Economist"
                },
                {
                  "value": "7302",
                  "displayName": "Policy"
                },
                {
                  "value": "7303",
                  "displayName": "Quantitative"
                },
                {
                  "value": "7304",
                  "displayName": "Strategy"
                },
                {
                  "value": "7417",
                  "displayName": "Money Markets"
                },
                {
                  "value": "7422",
                  "displayName": "Program"
                },
                {
                  "value": "7502",
                  "displayName": "Agriculture"
                },
                {
                  "value": "7503",
                  "displayName": "Charity/Non-Profit"
                },
                {
                  "value": "7504",
                  "displayName": "Consumer Goods"
                },
                {
                  "value": "7507",
                  "displayName": "Financial Institutions"
                },
                {
                  "value": "7508",
                  "displayName": "Energy/Utilities"
                },
                {
                  "value": "7511",
                  "displayName": "Financial Sponsors"
                },
                {
                  "value": "7514",
                  "displayName": "Futures"
                },
                {
                  "value": "7515",
                  "displayName": "Healthcare/Pharma/Biotech"
                },
                {
                  "value": "7517",
                  "displayName": "Investment Products"
                },
                {
                  "value": "7518",
                  "displayName": "Manufacturing"
                },
                {
                  "value": "7520",
                  "displayName": "General Corporates"
                },
                {
                  "value": "7522",
                  "displayName": "Technology/Media/Telecommunications"
                },
                {
                  "value": "7523",
                  "displayName": "Secured Lending"
                },
                {
                  "value": "7524",
                  "displayName": "Swaps & Derivatives"
                },
                {
                  "value": "7526",
                  "displayName": "Unsecured Lending"
                },
                {
                  "value": "7527",
                  "displayName": "Transportation"
                },
                {
                  "value": "7606",
                  "displayName": "Emerging Market"
                },
                {
                  "value": "7628",
                  "displayName": "Small/Mid-Cap"
                },
                {
                  "value": "7701",
                  "displayName": "On-Shore"
                },
                {
                  "value": "7702",
                  "displayName": "Off-Shore"
                },
                {
                  "value": "9999",
                  "displayName": "Not applicable"
                }
              ]
            },
            "mappedColumnName": "LIBSPEC_FLAG2"
          },
          {
            "code": "LIBSPEC_FLAG3",
            "dataType": "string",
            "questionType": "dropdown",
            "hidden": false,
            "validations": [],
            "options": {
              "items": [
                {
                  "value": "7701",
                  "displayName": "On-Shore"
                },
                {
                  "value": "7702",
                  "displayName": "Off-Shore"
                },
                {
                  "value": "8001",
                  "displayName": "Business Development"
                },
                {
                  "value": "8002",
                  "displayName": "Relationship Management"
                },
                {
                  "value": "9999",
                  "displayName": "Not applicable"
                }
              ]
            },
            "mappedColumnName": "LIBSPEC_FLAG3"
          },
          {
            "code": "YOUR_TITLE",
            "dataType": "string",
            "questionType": "text",
            "hidden": false,
            "validations": [],
            "mappedColumnName": "Job title within your organization"
          },
          {
            "code": "YOUR_CODE",
            "dataType": "string",
            "questionType": "text",
            "hidden": false,
            "validations": [],
            "mappedColumnName": "Internal job code"
          },
          {
            "code": "YOUR_LEVEL",
            "dataType": "string",
            "questionType": "text",
            "hidden": false,
            "validations": [],
            "mappedColumnName": "YOUR_LEVEL"
          },
          {
            "code": "YOUR_GRADE",
            "dataType": "string",
            "questionType": "text",
            "hidden": false,
            "validations": [],
            "mappedColumnName": "YOUR_GRADE"
          },
          {
            "code": "EMP_026",
            "dataType": "string",
            "questionType": "text",
            "hidden": false,
            "validations": [],
            "mappedColumnName": "EMP_026"
          },
          {
            "code": "POS_CLASS",
            "dataType": "int",
            "questionType": "integer",
            "hidden": false,
            "validations": [],
            "mappedColumnName": "POS_CLASS"
          },
          {
            "code": "EMP_032",
            "dataType": "double",
            "questionType": "double",
            "hidden": false,
            "validations": [],
            "mappedColumnName": "EMP_032"
          },
          {
            "code": "EMP_034",
            "dataType": "string",
            "questionType": "dropdown",
            "hidden": false,
            "validations": [],
            "options": {
              "items": [
                {
                  "value": "1",
                  "displayName": "Less than $250K"
                },
                {
                  "value": "2",
                  "displayName": "$250K < $500K"
                },
                {
                  "value": "3",
                  "displayName": "$500K < $1MM"
                },
                {
                  "value": "4",
                  "displayName": "$1MM and above"
                },
                {
                  "value": "NA",
                  "displayName": "Not applicable"
                }
              ]
            },
            "mappedColumnName": "EMP_034"
          },
          {
            "code": "EMP_036",
            "dataType": "string",
            "questionType": "dropdown",
            "hidden": false,
            "validations": [],
            "options": {
              "items": [
                {
                  "value": "10",
                  "displayName": "Global"
                },
                {
                  "value": "20",
                  "displayName": "Multiple regions"
                },
                {
                  "value": "30",
                  "displayName": "Regional"
                },
                {
                  "value": "50",
                  "displayName": "Multiple countries"
                },
                {
                  "value": "70",
                  "displayName": "One country"
                },
                {
                  "value": "80",
                  "displayName": "District within a country"
                },
                {
                  "value": "NA",
                  "displayName": "Not applicable"
                }
              ]
            },
            "mappedColumnName": "EMP_036"
          },
          {
            "code": "EMP_037",
            "dataType": "int",
            "questionType": "integer",
            "hidden": false,
            "validations": [],
            "mappedColumnName": "EMP_037"
          },
          {
            "code": "EMP_038",
            "dataType": "int",
            "questionType": "integer",
            "hidden": false,
            "validations": [],
            "mappedColumnName": "EMP_038"
          },
          {
            "code": "EMP_039",
            "dataType": "int",
            "questionType": "integer",
            "hidden": false,
            "validations": [],
            "mappedColumnName": "EMP_039"
          },
          {
            "code": "EMP_043",
            "dataType": "string",
            "questionType": "dropdown",
            "hidden": false,
            "validations": [],
            "options": {
              "items": [
                {
                  "value": "Y",
                  "displayName": "Yes"
                },
                {
                  "value": "N",
                  "displayName": "No"
                },
                {
                  "value": "1",
                  "displayName": "New Hire"
                },
                {
                  "value": "2",
                  "displayName": "Same Position"
                },
                {
                  "value": "3",
                  "displayName": "Promoted"
                },
                {
                  "value": "4",
                  "displayName": "Demoted"
                },
                {
                  "value": "5",
                  "displayName": "Lateral Move"
                },
                {
                  "value": "NA",
                  "displayName": "Not applicable"
                }
              ]
            },
            "mappedColumnName": "EMP_043"
          },
          {
            "code": "EMP_044",
            "dataType": "string",
            "questionType": "dropdown",
            "hidden": false,
            "validations": [],
            "options": {
              "items": [
                {
                  "value": "F",
                  "displayName": "Female"
                },
                {
                  "value": "M",
                  "displayName": "Male"
                },
                {
                  "value": "NB",
                  "displayName": "Non-binary"
                },
                {
                  "value": "NA",
                  "displayName": "Not applicable"
                }
              ]
            },
            "mappedColumnName": "EMP_044"
          },
          {
            "code": "EMP_049",
            "dataType": "string",
            "questionType": "text",
            "hidden": false,
            "validations": [],
            "mappedColumnName": "EMP_049"
          },
          {
            "code": "EMP_054",
            "dataType": "string",
            "questionType": "dropdown",
            "hidden": false,
            "validations": [],
            "options": {
              "items": [
                {
                  "value": "1",
                  "displayName": "Personal lines"
                },
                {
                  "value": "2",
                  "displayName": "Commercial lines"
                },
                {
                  "value": "3",
                  "displayName": "Multiple personal & commercial lines"
                },
                {
                  "value": "4",
                  "displayName": "Industry based lines"
                },
                {
                  "value": "5",
                  "displayName": "Specialty lines"
                },
                {
                  "value": "6",
                  "displayName": "Other"
                },
                {
                  "value": "NA",
                  "displayName": "Not applicable"
                }
              ]
            },
            "mappedColumnName": "EMP_054"
          },
          {
            "code": "EMP_055",
            "dataType": "string",
            "questionType": "dropdown",
            "hidden": false,
            "validations": [],
            "options": {
              "items": [
                {
                  "value": "2",
                  "displayName": "Auto"
                },
                {
                  "value": "1",
                  "displayName": "Home"
                },
                {
                  "value": "3",
                  "displayName": "Commercial Property"
                },
                {
                  "value": "4",
                  "displayName": "Multiple"
                },
                {
                  "value": "5",
                  "displayName": "Other"
                },
                {
                  "value": "NA",
                  "displayName": "Not applicable"
                }
              ]
            },
            "mappedColumnName": "EMP_055"
          },
          {
            "code": "EMP_061",
            "dataType": "string",
            "questionType": "dropdown",
            "hidden": false,
            "validations": [],
            "options": {
              "items": [
                {
                  "value": "Y",
                  "displayName": "Yes"
                },
                {
                  "value": "N",
                  "displayName": "No"
                },
                {
                  "value": "NA",
                  "displayName": "Not applicable"
                }
              ]
            },
            "mappedColumnName": "EMP_061"
          },
          {
            "code": "EMP_096",
            "dataType": "string",
            "questionType": "dropdown",
            "hidden": false,
            "validations": [],
            "options": {
              "items": [
                {
                  "value": "Y",
                  "displayName": "Yes"
                },
                {
                  "value": "N",
                  "displayName": "No"
                },
                {
                  "value": "NA",
                  "displayName": "Not applicable"
                }
              ]
            },
            "mappedColumnName": "EMP_096"
          },
          {
            "code": "EMP_099",
            "dataType": "string",
            "questionType": "dropdown",
            "hidden": false,
            "validations": [],
            "options": {
              "items": [
                {
                  "value": "1",
                  "displayName": "Exceeded expectations"
                },
                {
                  "value": "2",
                  "displayName": "Met expectations"
                },
                {
                  "value": "3",
                  "displayName": "Below expectations"
                },
                {
                  "value": "NA",
                  "displayName": "Not applicable"
                }
              ]
            },
            "mappedColumnName": "EMP_099"
          },
          {
            "code": "EMP_100",
            "dataType": "string",
            "questionType": "dropdown",
            "hidden": false,
            "validations": [],
            "options": {
              "items": [
                {
                  "value": "1",
                  "displayName": "Less"
                },
                {
                  "value": "2",
                  "displayName": "Equal"
                },
                {
                  "value": "3",
                  "displayName": "More"
                },
                {
                  "value": "NA",
                  "displayName": "Not applicable"
                }
              ]
            },
            "mappedColumnName": "EMP_100"
          },
          {
            "code": "EMP_116",
            "dataType": "string",
            "questionType": "dropdown",
            "hidden": false,
            "validations": [],
            "options": {
              "items": [
                {
                  "value": "1",
                  "displayName": "Retail"
                },
                {
                  "value": "2",
                  "displayName": "Float management"
                },
                {
                  "value": "3",
                  "displayName": "Private banking"
                },
                {
                  "value": "4",
                  "displayName": "Corporate trust"
                },
                {
                  "value": "5",
                  "displayName": "Institutional trust"
                },
                {
                  "value": "6",
                  "displayName": "Personal trust operations"
                },
                {
                  "value": "7",
                  "displayName": "Wholesale lending"
                },
                {
                  "value": "8",
                  "displayName": "ACH"
                },
                {
                  "value": "9",
                  "displayName": "Wire transfer"
                },
                {
                  "value": "10",
                  "displayName": "Mortgage servicing - foreclosure/Bankruptcy"
                },
                {
                  "value": "11",
                  "displayName": "Mortgage servicing - escrow/Real estate tax services"
                },
                {
                  "value": "12",
                  "displayName": "Mortgage servicing - lien release/Post closing"
                },
                {
                  "value": "13",
                  "displayName": "Mortgage retail - centralized/distributed production"
                },
                {
                  "value": "14",
                  "displayName": "Mortgage servicing - Real estate owned (REO)"
                },
                {
                  "value": "15",
                  "displayName": "Mortgage servicing - Cash management"
                },
                {
                  "value": "16",
                  "displayName": "Mortgage servicing - sales & acquisitions"
                },
                {
                  "value": "17",
                  "displayName": "Mortgage - wholesale - centralized"
                },
                {
                  "value": "18",
                  "displayName": "Mortgage - wholesale - subprime - centralized"
                },
                {
                  "value": "19",
                  "displayName": "Mortgage - wholesale - branch"
                },
                {
                  "value": "20",
                  "displayName": "Business banking"
                },
                {
                  "value": "21",
                  "displayName": "Consumer lending"
                },
                {
                  "value": "22",
                  "displayName": "Commercial lending and middle market lending"
                },
                {
                  "value": "23",
                  "displayName": "Wholesale banking"
                },
                {
                  "value": "24",
                  "displayName": "Wholesale lock box"
                },
                {
                  "value": "25",
                  "displayName": "Retail lock box"
                },
                {
                  "value": "NA",
                  "displayName": "Not applicable"
                }
              ]
            },
            "mappedColumnName": "EMP_116"
          },
          {
            "code": "EMP_117",
            "dataType": "string",
            "questionType": "dropdown",
            "hidden": false,
            "validations": [],
            "options": {
              "items": [
                {
                  "value": "E",
                  "displayName": "Exempt"
                },
                {
                  "value": "N",
                  "displayName": "Nonexempt"
                },
                {
                  "value": "NA",
                  "displayName": "Not applicable"
                }
              ]
            },
            "mappedColumnName": "EMP_117"
          },
          {
            "code": "EMP_118",
            "dataType": "string",
            "questionType": "dropdown",
            "hidden": false,
            "validations": [],
            "options": {
              "items": [
                {
                  "value": "1",
                  "displayName": "Consumer lending"
                },
                {
                  "value": "2",
                  "displayName": "Mortgage"
                },
                {
                  "value": "NA",
                  "displayName": "Not applicable"
                }
              ]
            },
            "mappedColumnName": "EMP_118"
          },
          {
            "code": "EMP_119",
            "dataType": "string",
            "questionType": "dropdown",
            "hidden": false,
            "validations": [],
            "options": {
              "items": [
                {
                  "value": "1",
                  "displayName": "Traditional direct consumer finance"
                },
                {
                  "value": "2",
                  "displayName": "Traditional indirect consumer finance"
                },
                {
                  "value": "3",
                  "displayName": "Auto finance and leasing"
                },
                {
                  "value": "4",
                  "displayName": "Credit card"
                },
                {
                  "value": "5",
                  "displayName": "Home equity/real estate"
                },
                {
                  "value": "NA",
                  "displayName": "Not applicable"
                }
              ]
            },
            "mappedColumnName": "EMP_119"
          },
          {
            "code": "EMP_122",
            "dataType": "string",
            "questionType": "dropdown",
            "hidden": false,
            "validations": [],
            "options": {
              "items": [
                {
                  "value": "A",
                  "displayName": "Annual"
                },
                {
                  "value": "H",
                  "displayName": "Hourly"
                },
                {
                  "value": "NA",
                  "displayName": "Not applicable"
                }
              ]
            },
            "mappedColumnName": "EMP_122"
          },
          {
            "code": "EMP_123",
            "dataType": "double",
            "questionType": "double",
            "hidden": false,
            "validations": [],
            "mappedColumnName": "EMP_123"
          },
          {
            "code": "HOURLY_RATE",
            "dataType": "double",
            "questionType": "double",
            "hidden": false,
            "validations": [],
            "mappedColumnName": "HOURLY_RATE"
          },
          {
            "code": "EMP_129",
            "dataType": "double",
            "questionType": "double",
            "hidden": false,
            "validations": [
              {
                "_id": "5a95587d4727b800178be0a0",
                "validationType": "expression",
                "errorType": "ERROR",
                "expression": "ISBLANK(this.EMP_125) AND ISBLANK(this.EMP_129) AND ISBLANK(this.EMP_130) AND ISBLANK(this.HOURLY_RATE);",
                "parameter": "",
                "mda": "",
                "category": "file_acceptance",
                "dependentColumns": []
              }
            ],
            "mappedColumnName": "Annual base salary (equivalent to full-time employment)"
          },
          {
            "code": "EMP_134",
            "dataType": "double",
            "questionType": "double",
            "hidden": false,
            "validations": [],
            "mappedColumnName": "EMP_134"
          },
          {
            "code": "EMP_136",
            "dataType": "double",
            "questionType": "double",
            "hidden": false,
            "validations": [],
            "mappedColumnName": "EMP_136"
          },
          {
            "code": "EMP_233",
            "dataType": "string",
            "questionType": "dropdown",
            "hidden": false,
            "validations": [],
            "options": {
              "items": [
                {
                  "value": "Y",
                  "displayName": "Yes"
                },
                {
                  "value": "N",
                  "displayName": "No"
                },
                {
                  "value": "NA",
                  "displayName": "Not applicable"
                }
              ]
            },
            "mappedColumnName": "EMP_233"
          },
          {
            "code": "EMP_239",
            "dataType": "double",
            "questionType": "percentage",
            "hidden": false,
            "validations": [],
            "mappedColumnName": "EMP_239"
          },
          {
            "code": "EMP_236",
            "dataType": "double",
            "questionType": "percentage",
            "hidden": false,
            "validations": [],
            "mappedColumnName": "EMP_236"
          },
          {
            "code": "EMP_238",
            "dataType": "double",
            "questionType": "percentage",
            "hidden": false,
            "validations": [],
            "mappedColumnName": "EMP_238"
          },
          {
            "code": "EMP_234",
            "dataType": "double",
            "questionType": "double",
            "hidden": false,
            "validations": [],
            "mappedColumnName": "EMP_234"
          },
          {
            "code": "EMP_273",
            "dataType": "string",
            "questionType": "dropdown",
            "hidden": false,
            "validations": [],
            "options": {
              "items": [
                {
                  "value": "1",
                  "displayName": "Performance goals not achieved"
                },
                {
                  "value": "2",
                  "displayName": "New employee"
                },
                {
                  "value": "3",
                  "displayName": "Payout amount not available"
                },
                {
                  "value": "4",
                  "displayName": "Plan design change"
                },
                {
                  "value": "5",
                  "displayName": "Other"
                },
                {
                  "value": "NA",
                  "displayName": "Not applicable"
                }
              ]
            },
            "mappedColumnName": "EMP_273"
          },
          {
            "code": "EMP_240",
            "dataType": "string",
            "questionType": "dropdown",
            "hidden": false,
            "validations": [],
            "options": {
              "items": [
                {
                  "value": "Y",
                  "displayName": "Yes"
                },
                {
                  "value": "N",
                  "displayName": "No"
                },
                {
                  "value": "NA",
                  "displayName": "Not applicable"
                }
              ]
            },
            "mappedColumnName": "EMP_240"
          },
          {
            "code": "EMP_244",
            "dataType": "double",
            "questionType": "percentage",
            "hidden": false,
            "validations": [],
            "mappedColumnName": "EMP_244"
          },
          {
            "code": "EMP_242",
            "dataType": "double",
            "questionType": "double",
            "hidden": false,
            "validations": [],
            "mappedColumnName": "EMP_242"
          },
          {
            "code": "EMP_114",
            "dataType": "string",
            "questionType": "dropdown",
            "hidden": false,
            "validations": [],
            "options": {
              "items": [
                {
                  "value": "1",
                  "displayName": "Performance goals not achieved"
                },
                {
                  "value": "2",
                  "displayName": "New employee"
                },
                {
                  "value": "3",
                  "displayName": "Payout amount not available"
                },
                {
                  "value": "4",
                  "displayName": "Plan design change"
                },
                {
                  "value": "5",
                  "displayName": "Other"
                },
                {
                  "value": "NA",
                  "displayName": "Not applicable"
                }
              ]
            },
            "mappedColumnName": "EMP_114"
          },
          {
            "code": "EMP_260",
            "dataType": "string",
            "questionType": "dropdown",
            "hidden": false,
            "validations": [],
            "options": {
              "items": [
                {
                  "value": "Y",
                  "displayName": "Yes"
                },
                {
                  "value": "N",
                  "displayName": "No"
                },
                {
                  "value": "NA",
                  "displayName": "Not applicable"
                }
              ]
            },
            "mappedColumnName": "EMP_260"
          },
          {
            "code": "EMP_261",
            "dataType": "double",
            "questionType": "double",
            "hidden": false,
            "validations": [],
            "mappedColumnName": "EMP_261"
          },
          {
            "code": "EMP_278",
            "dataType": "string",
            "questionType": "dropdown",
            "hidden": false,
            "validations": [],
            "options": {
              "items": [
                {
                  "value": "Y",
                  "displayName": "Yes"
                },
                {
                  "value": "N",
                  "displayName": "No"
                },
                {
                  "value": "NA",
                  "displayName": "Not applicable"
                }
              ]
            },
            "mappedColumnName": "EMP_278"
          },
          {
            "code": "EMP_279",
            "dataType": "string",
            "questionType": "text",
            "hidden": false,
            "validations": [],
            "mappedColumnName": "EMP_279"
          },
          {
            "code": "EMP_280",
            "dataType": "string",
            "questionType": "text",
            "hidden": false,
            "validations": [],
            "mappedColumnName": "EMP_280"
          },
          {
            "code": "EMP_281",
            "dataType": "double",
            "questionType": "double",
            "hidden": false,
            "validations": [],
            "mappedColumnName": "EMP_281"
          },
          {
            "code": "EMP_282",
            "dataType": "string",
            "questionType": "text",
            "hidden": false,
            "validations": [],
            "mappedColumnName": "EMP_282"
          },
          {
            "code": "EMP_283",
            "dataType": "double",
            "questionType": "double",
            "hidden": false,
            "validations": [],
            "mappedColumnName": "EMP_283"
          },
          {
            "code": "EMP_284",
            "dataType": "string",
            "questionType": "text",
            "hidden": false,
            "validations": [],
            "mappedColumnName": "EMP_284"
          },
          {
            "code": "EMP_285",
            "dataType": "double",
            "questionType": "double",
            "hidden": false,
            "validations": [],
            "mappedColumnName": "EMP_285"
          },
          {
            "code": "EMP_290",
            "dataType": "string",
            "questionType": "dropdown",
            "hidden": false,
            "validations": [],
            "options": {
              "items": [
                {
                  "value": "Y",
                  "displayName": "Yes"
                },
                {
                  "value": "N",
                  "displayName": "No"
                },
                {
                  "value": "NA",
                  "displayName": "Not applicable"
                }
              ]
            },
            "mappedColumnName": "EMP_290"
          },
          {
            "code": "SYSTEM_EXCLUDE_EMPLOYEE",
            "dataType": "string",
            "questionType": "text",
            "hidden": false,
            "validations": [],
            "mappedColumnName": "SYSTEM_EXCLUDE_EMPLOYEE"
          },
          {
            "code": "CLIENT_EXCLUDE_EMPLOYEE",
            "dataType": "string",
            "questionType": "text",
            "hidden": false,
            "validations": [],
            "mappedColumnName": "CLIENT_EXCLUDE_EMPLOYEE"
          },
          {
            "mappedColumnName": "Monthly base salary (equivalent to full-time employment)",
            "skip": true
          },
          {
            "mappedColumnName": "Number of months paid",
            "skip": true
          }
        ]
      }
    }
  ]
}