{
	"entities": [{
		"sectionStructure": {
			"columns": [{
				"code": "EMP_001",
				"displayLabel": "Entity name ",
				"dataType": "string",
				"questionType": "text",
				"validations": [],
				"mappedColumnName": "EMP_001"
			}, {
				"code": "YOUR_EEID",
				"displayLabel": "Employee Identifier",
				"dataType": "string",
				"questionType": "text",
				"validations": [{
					"parameter": "",
					"expression": "ISBLANK(this.YOUR_EEID);",
					"clientInstructions": "Submit a unique identifier specific to your organization for each incumbent reported. The number must be unique for each incumbent and preferably constant from year to year. Using unique employee identifiers consistently from year to year better identifies trends. It may be alphanumeric up to nine characters.\nDo not submit Social Security numbers, social insurance numbers, tax identification numbers, passport numbers, or any other governmental identification number, or employee/incumbent names, employee/incumbent birthdays or personal addresses, or employee/incumbent personnel numbers. Do not include dashes or other formatting.",
					"errorType": "ERROR",
					"message": "Employee Identifier is blank.",
					"validationType": "expression",
					"_id": "59f1c151f21d8400151f510e",
					"category": "input_data",
					"dependentColumns": []
				}],
				"mappedColumnName": "YOUR_EEID"
			}, {
				"code": "POS_CODE",
				"displayLabel": "Mercer Benchmark Code",
				"dataType": "string",
				"questionType": "text",
				"validations": [],
				"mappedColumnName": "POS_CODE"
			}, {
				"code": "POS_TITLE",
				"displayLabel": "Mercer Position Title",
				"dataType": "string",
				"questionType": "text",
				"validations": [],
				"mappedColumnName": "POS_TITLE"
			}, {
				"code": "LIBSPEC_FLAG1",
				"displayLabel": "Mercer Job Library Specialty Flags \r\nLevel 1 (Applicable for certain jobs only)",
				"dataType": "string",
				"questionType": "dropdown",
				"validations": [],
				"options": {
					"items": [{
						"value": "1",
						"displayName": "< 4 Branches"
					}, {
						"value": "2",
						"displayName": "4 to 8 Branches"
					}, {
						"value": "3",
						"displayName": "9 to 12 Branches"
					}, {
						"value": "4",
						"displayName": "> 12 Branches"
					}, {
						"value": "5",
						"displayName": "Academic/Teaching and Learning"
					}, {
						"value": "6",
						"displayName": "External Engagement"
					}, {
						"value": "7",
						"displayName": "International"
					}, {
						"value": "8",
						"displayName": "Research"
					}, {
						"value": "9",
						"displayName": "Advancement"
					}, {
						"value": "10",
						"displayName": "Indigenous Education"
					}, {
						"value": "11",
						"displayName": "Acquisition Finance"
					}, {
						"value": "12",
						"displayName": "Tax-Driven Financing"
					}, {
						"value": "13",
						"displayName": "Project Advisory"
					}, {
						"value": "14",
						"displayName": "Loan Workouts / Recoveries"
					}, {
						"value": "15",
						"displayName": "Structuring/Advisory"
					}, {
						"value": "16",
						"displayName": "Bakery"
					}, {
						"value": "17",
						"displayName": "Dairy/Frozen Food"
					}, {
						"value": "18",
						"displayName": "Dairy"
					}, {
						"value": "19",
						"displayName": "Frozen Food"
					}, {
						"value": "20",
						"displayName": "Deli/Bakery"
					}, {
						"value": "21",
						"displayName": "Deli"
					}, {
						"value": "22",
						"displayName": "Floral"
					}, {
						"value": "23",
						"displayName": "General Merchandise/Health & Beauty Care"
					}, {
						"value": "24",
						"displayName": "Meat"
					}, {
						"value": "25",
						"displayName": "Produce"
					}, {
						"value": "26",
						"displayName": "Seafood"
					}, {
						"value": "27",
						"displayName": "Biology/Plant"
					}, {
						"value": "28",
						"displayName": "Chemistry"
					}, {
						"value": "29",
						"displayName": "Computer"
					}, {
						"value": "30",
						"displayName": "Earth/Environment"
					}, {
						"value": "31",
						"displayName": "Marine"
					}, {
						"value": "32",
						"displayName": "Material"
					}, {
						"value": "33",
						"displayName": "Medical"
					}, {
						"value": "34",
						"displayName": "Physics"
					}, {
						"value": "35",
						"displayName": "Public Health"
					}, {
						"value": "NA",
						"displayName": "Not Applicable"
					}]
				},
				"mappedColumnName": "LIBSPEC_FLAG1"
			}, {
				"code": "LIBSPEC_FLAG2",
				"displayLabel": "Mercer Job Library Specialty Flags \r\nLevel 2 (Applicable for certain Financial jobs only)",
				"dataType": "string",
				"questionType": "dropdown",
				"validations": [],
				"options": {
					"items": [{
						"value": "1",
						"displayName": "Mobile"
					}, {
						"value": "2",
						"displayName": "Channel Strategy"
					}, {
						"value": "3",
						"displayName": "Distribution"
					}, {
						"value": "4",
						"displayName": "Economist"
					}, {
						"value": "5",
						"displayName": "Policy"
					}, {
						"value": "6",
						"displayName": "Quantitative"
					}, {
						"value": "7",
						"displayName": "Strategy"
					}, {
						"value": "8",
						"displayName": "Money Markets"
					}, {
						"value": "9",
						"displayName": "Program"
					}, {
						"value": "10",
						"displayName": "Agriculture"
					}, {
						"value": "11",
						"displayName": "Charity/Non-Profit"
					}, {
						"value": "12",
						"displayName": "Consumer Goods"
					}, {
						"value": "13",
						"displayName": "Financial Institutions"
					}, {
						"value": "14",
						"displayName": "Energy/Utilities"
					}, {
						"value": "15",
						"displayName": "Financial Sponsors"
					}, {
						"value": "16",
						"displayName": "Futures"
					}, {
						"value": "17",
						"displayName": "Healthcare/Pharma/Biotech"
					}, {
						"value": "NA",
						"displayName": "Not Applicable"
					}]
				},
				"mappedColumnName": "LIBSPEC_FLAG2"
			}, {
				"code": "LIBSPEC_FLAG3",
				"displayLabel": "Mercer Job Library Specialty Flags \r\nLevel 3 (Applicable for certain Financial jobs only)",
				"dataType": "string",
				"questionType": "dropdown",
				"validations": [],
				"options": {
					"items": [{
						"value": "1",
						"displayName": "Business Development"
					}, {
						"value": "2",
						"displayName": "Relationship Management"
					}, {
						"value": "3",
						"displayName": "On-Shore"
					}, {
						"value": "4",
						"displayName": "Off-Shore"
					}, {
						"value": "NA",
						"displayName": "Not Applicable"
					}]
				},
				"mappedColumnName": "LIBSPEC_FLAG3"
			}, {
				"code": "YOUR_TITLE",
				"displayLabel": "Organization Job Title",
				"dataType": "string",
				"questionType": "text",
				"validations": [],
				"mappedColumnName": "YOUR_TITLE"
			}, {
				"code": "YOUR_CODE",
				"displayLabel": "Organization Job Code",
				"dataType": "string",
				"questionType": "text",
				"validations": [],
				"mappedColumnName": "YOUR_CODE"
			}, {
				"code": "YOUR_LEVEL",
				"displayLabel": "Organization Job Level",
				"dataType": "string",
				"questionType": "text",
				"validations": [],
				"mappedColumnName": "YOUR_LEVEL"
			}, {
				"code": "YOUR_GRADE",
				"displayLabel": "Organization Job Grade",
				"dataType": "string",
				"questionType": "text",
				"validations": [],
				"mappedColumnName": "YOUR_GRADE"
			}, {
				"code": "EMP_026",
				"displayLabel": "Organization's  Reports to Position Title",
				"dataType": "string",
				"questionType": "text",
				"validations": [],
				"mappedColumnName": "EMP_026"
			}, {
				"code": "POS_CLASS",
				"displayLabel": "IPE Position Class (current year) (only for IPE users)",
				"dataType": "int",
				"questionType": "integer",
				"validations": [],
				"mappedColumnName": "POS_CLASS"
			}, {
				"code": "EMP_032",
				"displayLabel": "Incumbent Annual Revenue",
				"dataType": "double",
				"questionType": "double",
				"validations": [],
				"mappedColumnName": "EMP_032"
			}, {
				"code": "EMP_034",
				"displayLabel": "Assets Under Management",
				"dataType": "string",
				"questionType": "dropdown",
				"validations": [],
				"options": {
					"items": [{
						"value": "1",
						"displayName": "Less than $250K"
					}, {
						"value": "2",
						"displayName": "$250K < $500K"
					}, {
						"value": "3",
						"displayName": "$500K < $1MM"
					}, {
						"value": "4",
						"displayName": "$1MM and above"
					}, {
						"value": "NA",
						"displayName": "Not applicable"
					}]
				},
				"mappedColumnName": "EMP_034"
			}, {
				"code": "EMP_036",
				"displayLabel": "Geographic Scope of Role",
				"dataType": "string",
				"questionType": "dropdown",
				"validations": [{
					"parameter": "",
					"expression": "ISBLANK(this.EMP_036);",
					"clientInstructions": "Please review and update. Mercer will assume and update based on Position code or update Geographic Scope of Role as \"70 - In country\".",
					"errorType": "ERROR",
					"message": "Geographic scope of role is blank",
					"validationType": "expression",
					"_id": "59f1c20ef21d8400151f510f",
					"category": "input_data",
					"dependentColumns": []
				}],
				"options": {
					"items": [{
						"value": "10",
						"displayName": "Global"
					}, {
						"value": "20",
						"displayName": "Multi Regional"
					}, {
						"value": "30",
						"displayName": "Regional"
					}, {
						"value": "50",
						"displayName": "Multi Country"
					}, {
						"value": "70",
						"displayName": "In Country"
					}, {
						"value": "80",
						"displayName": "District"
					}, {
						"value": "NA",
						"displayName": "Not applicable"
					}]
				},
				"mappedColumnName": "EMP_036"
			}, {
				"code": "EMP_037",
				"displayLabel": "Year of Birth",
				"dataType": "int",
				"questionType": "integer",
				"validations": [{
					"parameter": "",
					"expression": "",
					"clientInstructions": "Please review and update. Mercer will delete invalid values.",
					"errorType": "ERROR",
					"message": "Year of Birth - Please review as the value is outside of the typical range.",
					"validationType": "expression",
					"_id": "5a04224e23212300164a48aa",
					"category": "input_data",
					"dependentColumns": []
				}],
				"mappedColumnName": "EMP_037"
			}, {
				"code": "EMP_038",
				"displayLabel": "Employee Year of Hire",
				"dataType": "int",
				"questionType": "integer",
				"validations": [{
					"parameter": "",
					"expression": " current_year = YEAR(NOW());\n ISNOTBLANK(this.EMP_038) AND !(this.EMP_038 >= (current_year - 61) AND  this.EMP_038 <= (current_year));",
					"clientInstructions": "Range 1958 - 2018.  Mercer will delete invalid values.",
					"errorType": "ERROR",
					"message": "Year of Hire - Please review as the value is outside of the typical range.",
					"validationType": "expression",
					"_id": "5a04228923212300164a48ab",
					"category": "input_data",
					"dependentColumns": []
				}],
				"mappedColumnName": "EMP_038"
			}, {
				"code": "EMP_039",
				"displayLabel": "Year Entered Into Position",
				"dataType": "int",
				"questionType": "integer",
				"validations": [],
				"mappedColumnName": "EMP_039"
			}, {
				"code": "EMP_043",
				"displayLabel": "Same Incumbent 12 Months Prior",
				"dataType": "string",
				"questionType": "dropdown",
				"validations": [],
				"options": {
					"items": [{
						"value": "Y",
						"displayName": "Yes"
					}, {
						"value": "N",
						"displayName": "No"
					}, {
						"value": "NA",
						"displayName": "Not applicable"
					}]
				},
				"mappedColumnName": "EMP_043"
			}, {
				"code": "EMP_044",
				"displayLabel": "Gender",
				"dataType": "string",
				"questionType": "dropdown",
				"validations": [],
				"options": {
					"items": [{
						"value": "F",
						"displayName": "F - Female"
					}, {
						"value": "M",
						"displayName": "M - Male"
					}, {
						"value": "NA",
						"displayName": "Not applicable"
					}]
				},
				"mappedColumnName": "EMP_044"
			}, {
				"code": "EMP_049",
				"displayLabel": "Postal Code (Zip Code) job is located",
				"dataType": "string",
				"questionType": "text",
				"validations": [],
				"mappedColumnName": "EMP_049"
			}, {
				"code": "EMP_054",
				"displayLabel": "Line of Business (P&C Insurance positions only)",
				"dataType": "string",
				"questionType": "dropdown",
				"validations": [],
				"options": {
					"items": [{
						"value": "1",
						"displayName": "Personal Lines"
					}, {
						"value": "2",
						"displayName": "Commercial Lines"
					}, {
						"value": "3",
						"displayName": "Multiple Personal & Commercial Lines"
					}, {
						"value": "4",
						"displayName": "Industry Based Lines"
					}, {
						"value": "5",
						"displayName": "Specialty Lines"
					}, {
						"value": "6",
						"displayName": "Other"
					}, {
						"value": "NA",
						"displayName": "Not applicable"
					}]
				},
				"mappedColumnName": "EMP_054"
			}, {
				"code": "EMP_055",
				"displayLabel": "Market Segment (P&C Insurance positions only)",
				"dataType": "string",
				"questionType": "dropdown",
				"validations": [],
				"options": {
					"items": [{
						"value": "2",
						"displayName": "Auto"
					}, {
						"value": "1",
						"displayName": "Home"
					}, {
						"value": "3",
						"displayName": "Commercial Property"
					}, {
						"value": "4",
						"displayName": "Multiple"
					}, {
						"value": "5",
						"displayName": "Other"
					}, {
						"value": "NA",
						"displayName": "Not applicable"
					}]
				},
				"mappedColumnName": "EMP_055"
			}, {
				"code": "EMP_058A",
				"displayLabel": "SSO/BPO Employee",
				"dataType": "string",
				"questionType": "dropdown",
				"validations": [],
				"options": {
					"items": [{
						"value": "Y",
						"displayName": "Yes"
					}, {
						"value": "N",
						"displayName": "No"
					}, {
						"value": "NA",
						"displayName": "Not applicable"
					}]
				},
				"mappedColumnName": "EMP_058A"
			}, {
				"code": "EMP_061",
				"displayLabel": "Union Status",
				"dataType": "string",
				"questionType": "dropdown",
				"validations": [],
				"options": {
					"items": [{
						"value": "Y",
						"displayName": "Yes"
					}, {
						"value": "N",
						"displayName": "No"
					}, {
						"value": "NA",
						"displayName": "Not applicable"
					}]
				},
				"mappedColumnName": "EMP_061"
			}, {
				"code": "EMP_067",
				"displayLabel": "License Required",
				"dataType": "string",
				"questionType": "dropdown",
				"validations": [],
				"options": {
					"items": [{
						"value": "Y",
						"displayName": "Yes"
					}, {
						"value": "N",
						"displayName": "No"
					}, {
						"value": "NA",
						"displayName": "Not applicable"
					}]
				},
				"mappedColumnName": "EMP_067"
			}, {
				"code": "EMP_096",
				"displayLabel": "Overtime Pay Eligibility",
				"dataType": "string",
				"questionType": "dropdown",
				"validations": [{
					"parameter": "",
					"expression": "ISNOTBLANK(this.EMP_096)\nAND\n(this.EMP_117 == \"N\" OR ISBLANK(this.EMP_117))\nAND\nSUBSTR(this.POS_CODE,12,3) != \"M30\";",
					"clientInstructions": "Please share the status as per FLSA type",
					"errorType": "ERROR",
					"message": "Overtime Pay Eligibility is blank or invalid",
					"validationType": "expression",
					"_id": "5a0423ec23212300164a48ad",
					"category": "input_data",
					"dependentColumns": []
				}],
				"options": {
					"items": [{
						"value": "Y",
						"displayName": "Yes"
					}, {
						"value": "N",
						"displayName": "No"
					}, {
						"value": "NA",
						"displayName": "Not applicable"
					}]
				},
				"mappedColumnName": "EMP_096"
			}, {
				"code": "EMP_097",
				"displayLabel": " Salary Effective Date",
				"dataType": "date",
				"questionType": "date",
				"validations": [],
				"mappedColumnName": "EMP_097"
			}, {
				"code": "EMP_098",
				"displayLabel": "Contact Center Number (Contact Center Module Participants Only) See Guide for Explanation",
				"dataType": "string",
				"questionType": "text",
				"validations": [],
				"mappedColumnName": "EMP_098"
			}, {
				"code": "EMP_099",
				"displayLabel": "Last Performance Rating",
				"dataType": "string",
				"questionType": "dropdown",
				"validations": [],
				"options": {
					"items": [{
						"value": "1",
						"displayName": "Exceed Expectation"
					}, {
						"value": "2",
						"displayName": "Meet Expectation"
					}, {
						"value": "3",
						"displayName": "Below Expectation"
					}, {
						"value": "NA",
						"displayName": "Not applicable"
					}]
				},
				"mappedColumnName": "EMP_099"
			}, {
				"code": "EMP_100",
				"displayLabel": "Quality of Position Match ",
				"dataType": "string",
				"questionType": "dropdown",
				"validations": [],
				"options": {
					"items": [{
						"value": "1",
						"displayName": "Less"
					}, {
						"value": "2",
						"displayName": "Equal"
					}, {
						"value": "3",
						"displayName": "More"
					}, {
						"value": "NA",
						"displayName": "Not applicable"
					}]
				},
				"mappedColumnName": "EMP_100"
			}, {
				"code": "EMP_109",
				"displayLabel": "100% Virtual Agent",
				"dataType": "string",
				"questionType": "dropdown",
				"validations": [],
				"options": {
					"items": [{
						"value": "Y",
						"displayName": "Yes"
					}, {
						"value": "N",
						"displayName": "No"
					}, {
						"value": "NA",
						"displayName": "Not applicable"
					}]
				},
				"mappedColumnName": "EMP_109"
			}, {
				"code": "EMP_114",
				"displayLabel": "Sales Incentive Status for Non-Receivers",
				"dataType": "string",
				"questionType": "dropdown",
				"validations": [{
					"parameter": "",
					"expression": "ISBLANK(this.EMP_114)\nAND\nSUBSTR(this.POS_CODE,1,3) == \"SMP\"\nAND\nthis.EMP_240 == \"Y\"\nAND\nthis.EMP_242 == 0;",
					"clientInstructions": "Select the primary reason why the sales incentive eligible incumbent did not receive a payout amount.  Mercer will leave data as submitted.  However, it may be marked as outlier or excluded from the survey as per data validation standards.",
					"errorType": "ALERT",
					"message": "Sales Incentive Status for Non-Receivers is blank.",
					"validationType": "expression",
					"_id": "5a04247223212300164a48af",
					"category": "input_data",
					"dependentColumns": []
				}],
				"options": {
					"items": [{
						"value": "1",
						"displayName": "Performance goals not achieved"
					}, {
						"value": "2",
						"displayName": "New employee"
					}, {
						"value": "3",
						"displayName": "Payout amount not available"
					}, {
						"value": "4",
						"displayName": "Plan design change"
					}, {
						"value": "5",
						"displayName": "Other"
					}, {
						"value": "NA",
						"displayName": "Not applicable"
					}]
				},
				"mappedColumnName": "EMP_114"
			}, {
				"code": "EMP_116",
				"displayLabel": "Discipline Code (Financial Operations positions only)",
				"dataType": "string",
				"questionType": "dropdown",
				"validations": [],
				"options": {
					"items": [{
						"value": "1",
						"displayName": "Retail"
					}, {
						"value": "2",
						"displayName": "Float Management"
					}, {
						"value": "3",
						"displayName": "Private Banking"
					}, {
						"value": "4",
						"displayName": "Corporate Trust"
					}, {
						"value": "5",
						"displayName": "Institutional Trust"
					}, {
						"value": "6",
						"displayName": "Personal Trust Operations"
					}, {
						"value": "7",
						"displayName": "Wholesale Lending"
					}, {
						"value": "8",
						"displayName": "ACH"
					}, {
						"value": "9",
						"displayName": "Wire Transfer"
					}, {
						"value": "10",
						"displayName": "Mortgage Servicing - Foreclosure/Bankruptcy"
					}, {
						"value": "11",
						"displayName": "Mortgage Servicing - Escrow/Real Estate Tax Services"
					}, {
						"value": "12",
						"displayName": "Mortgage Servicing - Lien Release/Post Closing"
					}, {
						"value": "13",
						"displayName": "Mortgage Retail - Centralized/Distributed Production"
					}, {
						"value": "14",
						"displayName": "Mortgage Servicing - Real Estate Owned (REO)"
					}, {
						"value": "15",
						"displayName": "Mortgage Servicing - Cash Management"
					}, {
						"value": "16",
						"displayName": "Mortgage Servicing - Sales & Acquisitions"
					}, {
						"value": "17",
						"displayName": "Mortgage - Wholesale - Centralized"
					}, {
						"value": "18",
						"displayName": "Mortgage - Wholesale - Subprime - Centralized"
					}, {
						"value": "19",
						"displayName": "Mortgage - Wholesale - Branch"
					}, {
						"value": "20",
						"displayName": "Business Banking"
					}, {
						"value": "21",
						"displayName": "Consumer Lending"
					}, {
						"value": "22",
						"displayName": "Commercial Lending and Middle Market Lending"
					}, {
						"value": "23",
						"displayName": "Wholesale Banking"
					}, {
						"value": "24",
						"displayName": "Wholesale Lock Box"
					}, {
						"value": "25",
						"displayName": "Retail Lock Box"
					}, {
						"value": "NA",
						"displayName": "No Discipline Code is applicable"
					}]
				},
				"mappedColumnName": "EMP_116"
			}, {
				"code": "EMP_117",
				"displayLabel": "FLSA Status",
				"dataType": "string",
				"questionType": "dropdown",
				"validations": [{
					"parameter": "",
					"expression": "ISBLANK(this.EMP_117);",
					"clientInstructions": "Indicate if the position is exempt or nonexempt under the Fair Labor Standards Act.  Mercer will assume Exempt status.",
					"errorType": "ERROR",
					"message": "FLSA status is blank",
					"validationType": "expression",
					"_id": "59f1ccdaf21d8400151f5114",
					"category": "input_data",
					"dependentColumns": []
				}],
				"options": {
					"items": [{
						"value": "E",
						"displayName": "Exempt"
					}, {
						"value": "N",
						"displayName": "Nonexempt"
					}, {
						"value": "NA",
						"displayName": "Not applicable"
					}]
				},
				"mappedColumnName": "EMP_117"
			}, {
				"code": "EMP_118",
				"displayLabel": "Industry Segment (Consumer Finance positions only)",
				"dataType": "string",
				"questionType": "dropdown",
				"validations": [],
				"options": {
					"items": [{
						"value": "1",
						"displayName": "Consumer Lending"
					}, {
						"value": "2",
						"displayName": "Mortgage"
					}, {
						"value": "NA",
						"displayName": "Not applicable"
					}]
				},
				"mappedColumnName": "EMP_118"
			}, {
				"code": "EMP_119",
				"displayLabel": "Sub-Industry Segment (Consumer Finance positions only)",
				"dataType": "string",
				"questionType": "dropdown",
				"validations": [],
				"options": {
					"items": [{
						"value": "1",
						"displayName": "Traditional direct consumer finance"
					}, {
						"value": "2",
						"displayName": "Traditional indirect consumer finance"
					}, {
						"value": "3",
						"displayName": "Auto finance and leasing"
					}, {
						"value": "4",
						"displayName": "Credit card"
					}, {
						"value": "5",
						"displayName": "Home equity / real estate"
					}, {
						"value": "NA",
						"displayName": "Not applicable"
					}]
				},
				"mappedColumnName": "EMP_119"
			}, {
				"code": "EMP_122",
				"displayLabel": "Pay Type",
				"dataType": "string",
				"questionType": "dropdown",
				"validations": [],
				"options": {
					"items": [{
						"value": "A",
						"displayName": "Annual"
					}, {
						"value": "H",
						"displayName": "Hourly"
					}, {
						"value": "NA",
						"displayName": "Not applicable"
					}]
				},
				"mappedColumnName": "EMP_122"
			}, {
				"code": "EMP_123",
				"displayLabel": "Standard Work Week (Hours)",
				"dataType": "double",
				"questionType": "double",
				"validations": [{
					"mda": "clear_value",
					"minError": 30,
					"validationType": "range",
					"_id": "59f1939d1b74370015235855",
					"category": "input_data",
					"dependentColumns": []
				}],
				"mappedColumnName": "EMP_123"
			}, {
				"code": "EMP_129",
				"displayLabel": "Annual Base Salary (Equivalent to Full Time Employment)",
				"dataType": "double",
				"questionType": "double",
				"validations": [{
					"mda": "exclude_row",
					"referenceTableName": "audit_ly_poscode_comp1",
					"validationType": "rangeValidationRefTable",
					"_id": "5a0ed7f0202289001578b6ee",
					"category": "input_data",
					"dependentColumns": []
				}, {
					"_id": "5a1eb50643c22a0015ba934b",
					"validationType": "expression",
					"message": "Annual Base Salary is blank",
					"errorType": "ERROR",
					"clientInstructions": "Please provide Annual Base Salary.  Mercer will delete the record, as this information is integral for survey participation.",
					"expression": "ISBLANK(this.EMP_129) AND ISBLANK(this.EMP_125);",
					"parameter": "",
					"category": "input_data",
					"dependentColumns": []
				}, {
					"parameter": "",
					"expression": "GZ134 < 300;",
					"clientInstructions": "test instruction",
					"errorType": "ERROR",
					"message": "test expression validation11",
					"validationType": "expression",
					"_id": "5a1ec58343c22a0015ba934e",
					"category": "input_data",
					"dependentColumns": []
				}, {
					"_id": "5a1301b25ec2e200154481ba",
					"validationType": "expression",
					"message": "The incumbent role has not changed this year but the annual base has higher variance compared to last year numbers.",
					"errorType": "ALERT",
					"clientInstructions": "Please review Annual Base Salary.",
					"expression": "",
					"parameter": "",
					"category": "input_data",
					"dependentColumns": []
				}],
				"mappedColumnName": "EMP_129"
			}, {
				"code": "EMP_134",
				"displayLabel": "Salary Range Minimum. Do Not Report Broadband Ranges",
				"dataType": "double",
				"questionType": "double",
				"validations": [],
				"mappedColumnName": "EMP_134"
			}, {
				"code": "EMP_136",
				"displayLabel": "Salary Range Maximum. Do Not Report Broadband Ranges",
				"dataType": "double",
				"questionType": "double",
				"validations": [],
				"mappedColumnName": "EMP_136"
			}, {
				"code": "EMP_233",
				"displayLabel": "Short-term Incentive (Variable Bonus) Eligibility",
				"dataType": "string",
				"questionType": "dropdown",
				"validations": [{
					"_id": "5a058e356462600015da0b77",
					"validationType": "eligibility",
					"category": "input_data",
					"dependentColumns": ["EMP_234", "EMP_236"]
				}],
				"options": {
					"items": [{
						"value": "Y",
						"displayName": "Yes"
					}, {
						"value": "N",
						"displayName": "No"
					}, {
						"value": "NA",
						"displayName": "Not applicable"
					}]
				},
				"mappedColumnName": "EMP_233"
			}, {
				"code": "EMP_234",
				"displayLabel": "Short-term Incentive (Variable Bonus) (Actual)",
				"dataType": "double",
				"questionType": "double",
				"validations": [{
					"_id": "5a0432b323212300164a48b7",
					"validationType": "expression",
					"message": "Short-term Incentive (Actual) % is higher in comparison with Annual Base Salary.",
					"errorType": "ALERT",
					"clientInstructions": "Please review and update.  Mercer will leave data as submitted.  However, it may be marked as outlier or excluded from the survey as per data validation standards.",
					"expression": "r1=0;\nvalue1 = 100*(this.EMP_234 / this.EMP_129);\nr2=0;\nIF(SUBSTR(this.POS_CODE,12,1)==\"E\") \n{r2=125;} \nELSE \n {IF(SUBSTR(this.POS_CODE,12,1)== \"M\" OR SUBSTR(this.POS_CODE,12,1) == \"I\" ) \n {r2=50;} \n  ELSE \n {r2=40;} \n} \nr2;\nvalue2=r2;\n\nIF(ISBLANK(this.EMP_234) OR ISBLANK(this.EMP_129) OR ISBLANK(this.POS_CODE)) \n{r1=false;}\nELSE\n {IF(value1>value2)\n {r1=true;}\n ELSE\n {r1=false;} \n}\nr1;",
					"parameter": "",
					"category": "input_data",
					"dependentColumns": []
				}, {
					"parameter": "",
					"expression": "r1=0;\nvalue1 = 100*(this.EMP_234 / this.EMP_129);\nr2=0;\nIF(SUBSTR(this.POS_CODE,12,1)==\"E\") \n{r2=4;} \nELSE \n {IF(SUBSTR(this.POS_CODE,12,1)== \"M\" OR SUBSTR(this.POS_CODE,12,1) == \"I\" ) \n {r2=2;} \n  ELSE \n {r2=1;} \n} \nr2;\nvalue2=r2;\n\nIF(ISBLANK(this.EMP_234) OR ISBLANK(this.EMP_129) OR ISBLANK(this.POS_CODE)) \n{r1=false;}\nELSE\n {IF(value1>=0.3 and value1<value2)\n {r1=true;}\n ELSE\n {r1=false;} \n}\nr1;",
					"clientInstructions": "Please review and update.  Mercer will leave data as submitted.  However, it may be marked as outlier or excluded from the survey as per data validation standards.",
					"errorType": "ALERT",
					"message": "Short-term Incentive (Actual) % is lower in comparison with Annual Base Salary.",
					"validationType": "expression",
					"_id": "5a04334823212300164a48b8",
					"category": "input_data",
					"dependentColumns": []
				}],
				"mappedColumnName": "EMP_234"
			}, {
				"code": "EMP_236",
				"displayLabel": "Short-term Incentive (Target) as Percentage of Base Salary",
				"dataType": "double",
				"questionType": "percentage",
				"validations": [{
					"parameter": "",
					"expression": "this.EMP_236 == this.EMP_244;",
					"clientInstructions": "Please review and update",
					"errorType": "ALERT",
					"message": "Short-term Incentive (Target) values are same as Sales Incentive (Target).  Please review.",
					"validationType": "expression",
					"_id": "5a097c1c60e31c00142a91a4",
					"category": "input_data",
					"dependentColumns": []
				}],
				"mappedColumnName": "EMP_236"
			}, {
				"code": "EMP_238",
				"displayLabel": "Short-term Incentive (Maximum) as Percentage of Base",
				"dataType": "double",
				"questionType": "percentage",
				"validations": [{
					"parameter": "",
					"expression": "r1=0;\nvalue1 = 100*(this.EMP_234 / this.EMP_129);\nvalue2 = 1.1 * this.EMP_238;\n\nIF(ISBLANK(this.EMP_234) OR ISBLANK(this.EMP_238) OR ISBLANK(this.EMP_129)) \n{r1=false;}\nELSE\n{IF(value1>value2)\n{r1=true;}\nELSE\n{r1=false;}}\nr1;",
					"clientInstructions": "Please review and update.  Mercer will leave data as submitted.  However, it may be marked as outlier or excluded from the survey as per data validation standards.",
					"errorType": "ALERT",
					"message": "Short-term Incentive (Actual) values are greater than Short-term Incentive (Maximum).",
					"validationType": "expression",
					"_id": "5a04264f23212300164a48b0",
					"category": "input_data",
					"dependentColumns": []
				}],
				"mappedColumnName": "EMP_238"
			}, {
				"code": "EMP_239",
				"displayLabel": "Short-term Incentive (Threshold) as Percent of Base",
				"dataType": "double",
				"questionType": "percentage",
				"validations": [{
					"parameter": "",
					"expression": "r1=0;\nvalue1 = 100 *(this.EMP_234 / this.EMP_129);\nIF(ISBLANK(this.EMP_234) OR ISBLANK(this.EMP_239) OR ISBLANK(this.EMP_129)) \n{r1=false;}\nELSE\n{IF(ROUND(value1,1) < ROUND(this.EMP_239,1))\n{r1=true;}\nELSE\n{r1=false;} \n}\nr1;",
					"clientInstructions": "Please review and update.  Mercer will leave data as submitted.  However, it may be marked as outlier or excluded from the survey as per data validation standards.",
					"errorType": "ALERT",
					"message": "Short-term Incentive (Actual) as Percent of Base Salary is less than Short-term Incentive (Threshold) as Percent of Base.",
					"validationType": "expression",
					"_id": "5a04267223212300164a48b1",
					"category": "input_data",
					"dependentColumns": []
				}],
				"mappedColumnName": "EMP_239"
			}, {
				"code": "EMP_240",
				"displayLabel": "Sales Incentive Eligibility",
				"dataType": "string",
				"questionType": "dropdown",
				"validations": [],
				"options": {
					"items": [{
						"value": "Y",
						"displayName": "Yes"
					}, {
						"value": "N",
						"displayName": "No"
					}, {
						"value": "NA",
						"displayName": "Not applicable"
					}]
				},
				"mappedColumnName": "EMP_240"
			}, {
				"code": "EMP_242",
				"displayLabel": "Sales Incentive Annual Amount (Actual)",
				"dataType": "double",
				"questionType": "double",
				"validations": [{
					"parameter": "",
					"expression": "r1=0;\nvalue1 = 100*(this.EMP_242/ this.EMP_129);\nvalue2 = 1.01 * this.EMP_247;\n\nIF(ISBLANK(this.EMP_242) OR ISBLANK(this.EMP_247) OR ISBLANK(this.EMP_129)) \n{r1=false;}\nELSE\n{IF(value1>value2)\n{r1=true;}\nELSE\n{r1=false;} \n}\nr1;",
					"clientInstructions": "Please review and update.  Mercer will leave data as submitted.  However, it may be marked as outlier or excluded from the survey as per data validation standards.",
					"errorType": "ALERT",
					"message": "Sales Incentive (Actual) is greater than Sales Incentive (Maximum).",
					"validationType": "expression",
					"_id": "5a0426b423212300164a48b3",
					"category": "input_data",
					"dependentColumns": []
				}, {
					"parameter": "",
					"expression": "r1=0;\nvalue1 = 100*(this.EMP_242 / this.EMP_129);\nIF(ISBLANK(this.EMP_242) OR ISBLANK(this.EMP_244) OR ISBLANK(this.EMP_129)) \n{r1=false;}\nELSE\n{IF(ABS(value1- this.EMP_244)<=0.1)\n{r1=true;}\nELSE\n{r1=false;}\n}\nr1;",
					"clientInstructions": "Please review as it is unusual for Sales Incentive (Actual) to equal Sales Incentive (Target).  Mercer will leave data as submitted.  However, it may be marked as outlier or excluded from the survey as per data validation standards.",
					"errorType": "ALERT",
					"message": "Sales Incentive (Actual) values are same as Sales Incentive (Target).",
					"validationType": "expression",
					"_id": "5a0426b423212300164a48b2",
					"category": "input_data",
					"dependentColumns": []
				}],
				"mappedColumnName": "EMP_242"
			}, {
				"code": "EMP_244",
				"displayLabel": "Sales Incentive (Target) as Percentage of Base",
				"dataType": "double",
				"questionType": "percentage",
				"validations": [{
					"maxAlert": 125,
					"validationType": "range",
					"_id": "59f1943c1b74370015235857",
					"mda": "exclude_row",
					"category": "input_data",
					"dependentColumns": []
				}, {
					"parameter": "",
					"expression": "r1=0;\nvalue1 = 100*(this.EMP_242 / this.EMP_129);\nIF(ISBLANK(this.EMP_242) OR ISBLANK(this.EMP_244) OR ISBLANK(this.EMP_129)) \n{r1=false;}\nELSE\n{IF(ABS(value1- this.EMP_244) <= 0.1)\n{r1=true;}\nELSE\n{r1=false;} \n}\nr1;",
					"clientInstructions": "Sales Incentive (Actual) as % of base values are same as Sales Incentive (Target) as % of base.  Mercer will leave data as submitted.  However, it may be marked as outlier or excluded from the survey as per data validation standards.",
					"errorType": "ALERT",
					"message": "Sales Incentive (Actual) values are same as Sales Incentive (Target).",
					"validationType": "expression",
					"_id": "5a0426e223212300164a48b4",
					"category": "input_data",
					"dependentColumns": []
				}],
				"mappedColumnName": "EMP_244"
			}, {
				"code": "EMP_260",
				"displayLabel": "Profit Sharing Plan Eligibility",
				"dataType": "string",
				"questionType": "dropdown",
				"validations": [],
				"options": {
					"items": [{
						"value": "Y",
						"displayName": "Yes"
					}, {
						"value": "N",
						"displayName": "No"
					}, {
						"value": "NA",
						"displayName": "Not applicable"
					}]
				},
				"mappedColumnName": "EMP_260"
			}, {
				"code": "EMP_261",
				"displayLabel": "Profit Sharing (Actual)",
				"dataType": "double",
				"questionType": "double",
				"validations": [{
					"parameter": "",
					"expression": "",
					"clientInstructions": "",
					"errorType": "ERROR",
					"message": "MK TEST Value is less than minium error value",
					"validationType": "expression",
					"_id": "5a1bd146084bfb00152b84b9",
					"category": "input_data",
					"dependentColumns": []
				}],
				"mappedColumnName": "EMP_261"
			}, {
				"code": "EMP_273",
				"displayLabel": "Short-term Incentive Status for Non-Receivers",
				"dataType": "string",
				"questionType": "dropdown",
				"validations": [],
				"options": {
					"items": [{
						"value": "1",
						"displayName": "Performance goals not achieved"
					}, {
						"value": "2",
						"displayName": "New employee"
					}, {
						"value": "3",
						"displayName": "Payout amount not available"
					}, {
						"value": "4",
						"displayName": "Plan design change"
					}, {
						"value": "5",
						"displayName": "Other"
					}, {
						"value": "NA",
						"displayName": "Not applicable"
					}]
				},
				"mappedColumnName": "EMP_273"
			}, {
				"code": "EMP_278",
				"displayLabel": "Long-term Incentive Eligible",
				"dataType": "string",
				"questionType": "dropdown",
				"validations": [],
				"options": {
					"items": [{
						"value": "Y",
						"displayName": "Yes"
					}, {
						"value": "N",
						"displayName": "No"
					}, {
						"value": "NA",
						"displayName": "Not applicable"
					}]
				},
				"mappedColumnName": "EMP_278"
			}, {
				"code": "EMP_279",
				"displayLabel": "LTI Plan Types Offered. Enter all that apply ",
				"dataType": "string",
				"questionType": "dropdown",
				"validations": [],
				"options": {
					"items": [{
						"value": "11",
						"displayName": "Stock/Share Options"
					}, {
						"value": "12",
						"displayName": "Share Appreciation Rights (SARs)"
					}, {
						"value": "21",
						"displayName": "Restricted Shares/Share Units"
					}, {
						"value": "22",
						"displayName": "Performance Shares/Share Units"
					}, {
						"value": "31",
						"displayName": "Performance Cash Units"
					}, {
						"value": "32",
						"displayName": "Long-term Cash"
					}, {
						"value": "NA",
						"displayName": "Not applicable"
					}]
				},
				"mappedColumnName": "EMP_279"
			}, {
				"code": "EMP_280",
				"displayLabel": "LTI Plan Award #1. Organization LTI Plan Identifier (identifiers provided on the LTI Plans section)",
				"dataType": "string",
				"questionType": "text",
				"validations": [],
				"mappedColumnName": "EMP_280"
			}, {
				"code": "EMP_281",
				"displayLabel": "Number of Granted Options/Shares/Performance Units or value of Granted Cash Award",
				"dataType": "double",
				"questionType": "double",
				"validations": [],
				"mappedColumnName": "EMP_281"
			}, {
				"code": "EMP_282",
				"displayLabel": "LTI Plan Award #2. Organization LTI Plan Identifier (identifiers provided on the LTI Plans section)",
				"dataType": "string",
				"questionType": "text",
				"validations": [{
					"_id": "5a215c519063d10015b56ae7",
					"validationType": "expression",
					"message": "Test_PE-7543",
					"errorType": "ERROR",
					"clientInstructions": "Test Expression 7543 1Dec",
					"expression": "2==2;",
					"parameter": "",
					"category": "input_data",
					"dependentColumns": []
				}],
				"mappedColumnName": "EMP_282"
			}, {
				"code": "EMP_283",
				"displayLabel": "Number of granted Options/ Shares/ Performance Units or value of granted Cash Award",
				"dataType": "double",
				"questionType": "double",
				"validations": [],
				"mappedColumnName": "EMP_283"
			}, {
				"code": "EMP_284",
				"displayLabel": "LTI Plan Award #3. Organization LTI Plan Identifier (identifiers provided on the LTI Plans section)",
				"dataType": "string",
				"questionType": "text",
				"validations": [],
				"mappedColumnName": "EMP_284"
			}, {
				"code": "EMP_285",
				"displayLabel": "Number of granted Options/ Shares/ Performance Units or value of granted Cash Award",
				"dataType": "double",
				"questionType": "double",
				"validations": [],
				"mappedColumnName": "EMP_285"
			}, {
				"code": "EMP_290",
				"displayLabel": "Stock/Share Ownership Guidelines",
				"dataType": "string",
				"questionType": "dropdown",
				"validations": [{
					"_id": "59ef4c80111dbf0015cf2c17",
					"validationType": "expression",
					"message": "Annual Base Salary is blank",
					"errorType": "ERROR",
					"clientInstructions": "Please provide Annual Base Salary.  Mercer will delete the record, as this information is integral for survey participation.",
					"expression": "ISBLANK(this.EMP_129) AND ISBLANK(this.EMP_125);",
					"parameter": "",
					"category": "input_data",
					"dependentColumns": []
				}],
				"options": {
					"items": [{
						"value": "Y",
						"displayName": "Yes"
					}, {
						"value": "N",
						"displayName": "No"
					}, {
						"value": "NA",
						"displayName": "Not applicable"
					}]
				},
				"mappedColumnName": "EMP_290"
			}, {
				"code": "EXCLUDE_EMPLOYEE",
				"displayLabel": "EXCLUDE EMPLOYEE",
				"dataType": "string",
				"questionType": "text",
				"validations": [],
				"mappedColumnName": "EXCLUDE_EMPLOYEE"
			}, {
				"mappedColumnName": "EMP_034",
				"skip": true
			}, {
				"mappedColumnName": "EMP_039",
				"skip": true
			}, {
				"mappedColumnName": "EMP_043",
				"skip": true
			}, {
				"mappedColumnName": "EMP_054",
				"skip": true
			}, {
				"mappedColumnName": "EMP_055",
				"skip": true
			}, {
				"mappedColumnName": "EMP_061",
				"skip": true
			}, {
				"mappedColumnName": "EMP_067",
				"skip": true
			}, {
				"mappedColumnName": "EMP_096",
				"skip": true
			}, {
				"mappedColumnName": "EMP_098",
				"skip": true
			}, {
				"mappedColumnName": "EMP_099",
				"skip": true
			}, {
				"mappedColumnName": "EMP_100",
				"skip": true
			}, {
				"mappedColumnName": "EMP_109",
				"skip": true
			}, {
				"mappedColumnName": "EMP_114",
				"skip": true
			}, {
				"mappedColumnName": "EMP_116",
				"skip": true
			}, {
				"mappedColumnName": "EMP_117",
				"skip": true
			}, {
				"mappedColumnName": "EMP_118",
				"skip": true
			}, {
				"mappedColumnName": "EMP_119",
				"skip": true
			}, {
				"mappedColumnName": "EMP_122",
				"skip": true
			}, {
				"mappedColumnName": "EMP_123",
				"skip": true
			}, {
				"mappedColumnName": "EMP_129",
				"skip": true
			}, {
				"mappedColumnName": "EMP_238",
				"skip": true
			}, {
				"mappedColumnName": "EMP_239",
				"skip": true
			}, {
				"mappedColumnName": "EMP_260",
				"skip": true
			}, {
				"mappedColumnName": "EMP_261",
				"skip": true
			}, {
				"mappedColumnName": "EMP_273",
				"skip": true
			}, {
				"mappedColumnName": "EMP_279",
				"skip": true
			}, {
				"mappedColumnName": "EMP_290",
				"skip": true
			}]
		},
		"otherSectionsData": {
			"LTIPLAN01": "11",
			"LTIPLAN12": "10",
			"LTIPLAN11": "10",
			"LTIPLAN05": "1",
			"LTIPLAN04": "2",
			"LTIPLAN15": "2",
			"LTIPLAN14": "4",
			"LTIPLAN03": {
				"PPROFBC1": "Y",
				"PPROFWC1": "Y",
				"EXEC1": "Y",
				"SUPSPEC1": "Y",
				"PROF1": "Y",
				"HEAD1": "Y",
				"MGMTMID1": "Y",
				"PROFNS1": "Y",
				"PPROF1": "Y",
				"MGMTSM1": "Y",
				"PROFS1": "Y",
				"MGMT1": "Y"
			},
			"LTIPLAN02": "abc_test",
			"LTIPLAN13": "2",
			"LTIPLAN09": "2017-11-22T00:00:00Z",
			"LTIPLAN08": "EUR",
			"LTIPLAN07": "1",
			"LTIPLAN18": "1",
			"LTIPLAN17": "1",
			"LTIPLAN10": "10"
		},
		"contextData": {
			"campaignId": "597b474bfe305700157895c0",
			"companyId": "5a1d1b730b226c00152cda6c",
			"companyName": "TEST_US",
			"sectionId": "EMP_DATA",
			"grpCode": "",
			"cpyCode": "",
			"ctryCode": "US",
			"orgSize": {
				"5a1d1b730b226c00152cda6c": null
			},
			"uniqueIdColumnCode": "YOUR_EEID",
			"industry": {
				"superSector": "OM",
				"sector": "126"
			}
			,
			
			"dateFormat": ["MM/dd/yyyy","dd/MM/yyyy","dd-MM-yyyy","dd.MM.yyyy","yyyy-MM-dd","yyyy/MM/dd","yyyy.MM.dd"],

			"numberFormat": [{

							"pattern": "###,###.###",

							"thousandsSeparator": ",",

							"decimalSeparator": "."

			}]
			
			
		}
	}]
}