timeStamp,elapsed,label,responseCode,threadName,success,bytes,grpThreads,allThreads,Latency,SampleCount,ErrorCount,Hostname,Connect
1519910330844,2880,FileUpload F1_PE-8157_Ignore,200,Thread Group_Prod1 1-1,false,5702,1,1,2878,1,1,INFPU07042,233
1519910335212,741,FileUpload F1_PE-8110_ErrorCell,200,Thread Group_Prod1 1-1,true,1571,1,1,741,1,0,INFPU07042,171
1519910335988,7227,FileUpload F2_PE-8110_ErrorCell_Ignore,422,Thread Group_Prod1 1-1,false,650912,1,1,1466,1,1,INFPU07042,0
1519910346183,1791,FileUpload F3_PE-8110_ErrorCell_Ignore,400,Thread Group_Prod1 1-1,false,385,1,1,1791,1,1,INFPU07042,186
1519910349459,608,FileUpload F4_PE-5678_SequentialWithOtherValidations,200,Thread Group_Prod1 1-1,true,5471,1,1,606,1,0,INFPU07042,184
1519910350098,229,NoFileUpload N1_PE-5678_LOOK_UP_CHECK1,200,Thread Group_Prod1 1-1,false,1072,1,1,229,1,1,INFPU07042,0
1519910350355,198,NoFileUpload N1_PE-5678_SequentialWithOtherValidations,200,Thread Group_Prod1 1-1,true,994,1,1,197,1,0,INFPU07042,0
1519910350583,190,NoFileUpload N2_PE-5678_SequentialWithOtherValidations,200,Thread Group_Prod1 1-1,true,959,1,1,190,1,0,INFPU07042,0
1519910350808,606,"NoFileUpload_Null Validation_crossSectionChecks_LPALL_566 is """"",200,Thread Group_Prod1 1-1,true,6764,1,1,604,1,0,INFPU07042,0
1519910351451,1347,NoFileUpload_Null Validation_crossSectionChecks_LPALL_566 is null,200,Thread Group_Prod1 1-1,true,6760,1,1,1345,1,0,INFPU07042,188
1519910354291,279,"NoFileUpload_Null Validation_crossSectionChecks_LPALL_566 is ""null""",200,Thread Group_Prod1 1-1,true,6903,1,1,277,1,0,INFPU07042,0
1519910354607,1534,"NoFileUpload_Null Validation_crossSectionChecks_LPALL_566 is ""   """,200,Thread Group_Prod1 1-1,true,6767,1,1,1352,1,0,INFPU07042,187
1519910356172,741,NoFileUpload N3_PE-7172MDA,200,Thread Group_Prod1 1-1,true,664,1,1,741,1,0,INFPU07042,184
1519910358419,306,FileUpload F5_PE7172_Fix,200,Thread Group_Prod1 1-1,true,4873,1,1,304,1,0,INFPU07042,0
1519910358754,192,NoFileUpload N4_PE-8032MDA,200,Thread Group_Prod1 1-1,true,664,1,1,192,1,0,INFPU07042,0
1519910358990,411,NoFileUpload N5_PE-8070,200,Thread Group_Prod1 1-1,true,886,1,1,410,1,0,INFPU07042,0
1519910359425,888,NoFileUpload N73_PE5668 T2_Temp,200,Thread Group_Prod1 1-1,true,609,1,1,887,1,0,INFPU07042,177
1519910360339,186,NoFileUpload N74_PE5668 T3_Temp,200,Thread Group_Prod1 1-1,true,758,1,1,186,1,0,INFPU07042,0
1519910360545,185,NoFileUpload N75_PE5668 T4_Temp,200,Thread Group_Prod1 1-1,true,706,1,1,185,1,0,INFPU07042,0
1519910360750,185,NoFileUpload N76_PE5668 T5_Temp,200,Thread Group_Prod1 1-1,true,720,1,1,185,1,0,INFPU07042,0
1519910360959,929,NoFileUpload N78_PE5668 T7_Temp,200,Thread Group_Prod1 1-1,true,705,1,1,929,1,0,INFPU07042,184
1519910363373,192,NoFileUpload N79_PE5668 T8_Temp,200,Thread Group_Prod1 1-1,true,612,1,1,191,1,0,INFPU07042,0
1519910363591,1215,FileUpload F6_PE-7257_US_CSV_Shuffle,200,Thread Group_Prod1 1-1,false,5517,1,1,1213,1,1,INFPU07042,0
1519910364835,1844,FileUpload F7_PE-7257_US_Excel_Shuffle,200,Thread Group_Prod1 1-1,false,5699,1,1,1842,1,1,INFPU07042,187
1519910368204,1348,NoFileUpload N6_PE7978,200,Thread Group_Prod1 1-1,true,6632,1,1,1345,1,0,INFPU07042,186
1519910369587,200,NoFileUpload N7_PE7954,200,Thread Group_Prod1 1-1,true,732,1,1,200,1,0,INFPU07042,0
1519910369817,914,NoFileUpload N77_PE5668 T6,200,Thread Group_Prod1 1-1,true,716,1,1,914,1,0,INFPU07042,183
1519910370756,197,FileUpload F8_PE7999_Ignore since files are identical,422,Thread Group_Prod1 1-1,false,1282,1,1,196,1,1,INFPU07042,0
1519910370975,187,NoFileUpload N8_ PE7795,200,Thread Group_Prod1 1-1,true,722,1,1,187,1,0,INFPU07042,0
1519910371186,224,NoFileUpload N9_PE7046_AU_Comp2,200,Thread Group_Prod1 1-1,true,914,1,1,224,1,0,INFPU07042,0
1519910371435,601,NoFileUpload N10_PE7046_US_Comp1,200,Thread Group_Prod1 1-1,true,910,1,1,601,1,0,INFPU07042,190
1519910373521,201,NoFileUpload N11_PE7046_IN_Comp1,200,Thread Group_Prod1 1-1,true,915,1,1,201,1,0,INFPU07042,0
1519910373749,199,NoFileUpload N12_PE7046_ZA_Comp2,200,Thread Group_Prod1 1-1,true,914,1,1,199,1,0,INFPU07042,0
1519910373976,606,NoFileUpload N13_PE7773_NUM_EMP is 7_Fix,200,Thread Group_Prod1 1-1,false,1099,1,1,606,1,1,INFPU07042,0
1519910374631,1147,NoFileUpload N14_PE7773_NUM_EMP is 8.1_boundry is 8,200,Thread Group_Prod1 1-1,true,1100,1,1,1146,1,0,INFPU07042,186
1519910375807,208,NoFileUpload N15_PE7773_NUM_EMP is 9_boundry is 8,200,Thread Group_Prod1 1-1,true,1099,1,1,208,1,0,INFPU07042,0
1519910376044,288,FileUpload F9_PE5216_ImpactedbyComment,200,Thread Group_Prod1 1-1,true,1345,1,1,287,1,0,INFPU07042,0
1519910376355,589,NoFileUpload N16_PE7044_expression,200,Thread Group_Prod1 1-1,true,674,1,1,589,1,0,INFPU07042,194
1519910378403,394,NoFileUpload N17_PE7044_range,200,Thread Group_Prod1 1-1,true,922,1,1,394,1,0,INFPU07042,0
1519910378866,210,NoFileUpload N18_PE7044_rangeValidationRefTable,200,Thread Group_Prod1 1-1,true,912,1,1,210,1,0,INFPU07042,0
1519910379116,208,NoFileUpload N19_PE7044_rangeValidationRefTable_dimensions,200,Thread Group_Prod1 1-1,true,942,1,1,208,1,0,INFPU07042,0
1519910379349,1659,FileUpload F10_PE5691_1Record_Ignore,400,Thread Group_Prod1 1-1,false,327,1,1,1659,1,1,INFPU07042,192
1519910381030,1546,FileUpload F11_PE5691_1Record_Ignore,400,Thread Group_Prod1 1-1,false,327,1,1,1546,1,1,INFPU07042,192
1519910384060,774,FileUpload F12_PE6027_Ref Table,200,Thread Group_Prod1 1-1,true,2193,1,1,773,1,0,INFPU07042,188
1519910384889,412,FileUpload F13_PE6030,200,Thread Group_Prod1 1-1,true,3289,1,1,411,1,0,INFPU07042,0
1519910385354,197,NoFileUpload N20_PE7033,200,Thread Group_Prod1 1-1,true,910,1,1,197,1,0,INFPU07042,0
1519910385552,586,NoFileUpload N21_PE7314,200,Thread Group_Prod1 1-1,true,771,1,1,586,1,0,INFPU07042,195
1519910386193,1597,FileUpload F14_PE7071_1Record_Shuffle,200,Thread Group_Prod1 1-1,false,5240,1,1,1596,1,1,INFPU07042,0
1519910389280,1973,FileUpload F15_PE7071_1Record,200,Thread Group_Prod1 1-1,false,5800,1,1,1971,1,1,INFPU07042,189
1519910391332,1924,FileUpload F16_PE7071_1Record,200,Thread Group_Prod1 1-1,false,6118,1,1,1922,1,1,INFPU07042,243
1519910394743,1425,FileUpload F17_PE7071_1Record,400,Thread Group_Prod1 1-1,false,365,1,1,1425,1,1,INFPU07042,178
1519910396191,1755,FileUpload F18_PE7611,200,Thread Group_Prod1 1-1,true,1989,1,1,1754,1,0,INFPU07042,186
1519910399414,1736,FileUpload F19_PE7611,200,Thread Group_Prod1 1-1,true,2070,1,1,1735,1,0,INFPU07042,187
1519910401174,1681,FileUpload F20_PE7611,200,Thread Group_Prod1 1-1,true,1913,1,1,1681,1,0,INFPU07042,182
1519910404343,1659,FileUpload F21_PE7611,200,Thread Group_Prod1 1-1,true,1989,1,1,1659,1,0,INFPU07042,179
1519910406016,1664,FileUpload F22_PE7611,200,Thread Group_Prod1 1-1,true,2398,1,1,1664,1,0,INFPU07042,181
1519910409172,3122,FileUpload F23_PE7611,200,Thread Group_Prod1 1-1,true,2275,1,1,3121,1,0,INFPU07042,190
1519910413780,1787,FileUpload F24_PE7611,200,Thread Group_Prod1 1-1,true,2275,1,1,1786,1,0,INFPU07042,189
1519910415594,2144,FileUpload F25_PE7611,200,Thread Group_Prod1 1-1,true,2163,1,1,2144,1,0,INFPU07042,222
1519910419228,1700,FileUpload F26_PE7611,200,Thread Group_Prod1 1-1,true,2164,1,1,1699,1,0,INFPU07042,187
1519910420946,1732,FileUpload F27_PE7611,200,Thread Group_Prod1 1-1,true,2119,1,1,1731,1,0,INFPU07042,188
1519910424169,601,FileUpload F28_6713CSV_SkipLastBlankRow,200,Thread Group_Prod1 1-1,true,1752,1,1,600,1,0,INFPU07042,184
1519910424770,202,FileUpload F29_6713CSV_SkipInitialRow,200,Thread Group_Prod1 1-1,true,1461,1,1,202,1,0,INFPU07042,0
1519910425002,197,FileUpload F30_6713CSV_SkipMiddleBlankRows,200,Thread Group_Prod1 1-1,true,2055,1,1,196,1,0,INFPU07042,0
1519910425225,388,FileUpload F31_6713Excel_SkipInitialRow,200,Thread Group_Prod1 1-1,true,1461,1,1,388,1,0,INFPU07042,0
1519910425637,743,FileUpload F32_6713Excel_SkipLastBlankRow,200,Thread Group_Prod1 1-1,true,1752,1,1,743,1,0,INFPU07042,181
1519910426406,383,FileUpload F33_6713Excel_SkipMiddleRow,200,Thread Group_Prod1 1-1,true,2055,1,1,383,1,0,INFPU07042,0
1519910428274,186,NoFileUpload N22_PE7631_metaData,200,Thread Group_Prod1 1-1,true,609,1,1,186,1,0,INFPU07042,0
1519910428483,189,NoFileUpload N23_PE7631_metaData,200,Thread Group_Prod1 1-1,true,604,1,1,188,1,0,INFPU07042,0
1519910428698,562,NoFileUpload N24_PE7631_Autocorrect,200,Thread Group_Prod1 1-1,false,831,1,1,562,1,1,INFPU07042,186
1519910429288,207,NoFileUpload N25_PE7631,200,Thread Group_Prod1 1-1,false,822,1,1,207,1,1,INFPU07042,0
1519910429519,191,NoFileUpload N26_7045RawJson_NonNumerciData,200,Thread Group_Prod1 1-1,true,851,1,1,191,1,0,INFPU07042,0
1519910429755,191,NoFileUpload N27_7045RawJson_SkipBlankCols,200,Thread Group_Prod1 1-1,true,771,1,1,191,1,0,INFPU07042,0
1519910430005,190,NoFileUpload N28_7045RawJson_SkipNonNumericCols,200,Thread Group_Prod1 1-1,true,680,1,1,190,1,0,INFPU07042,0
1519910430222,565,NoFileUpload N29_7045RawJson_WithDimesion,200,Thread Group_Prod1 1-1,true,853,1,1,565,1,0,INFPU07042,190
1519910430830,195,NoFileUpload N30_7045RawJson_SingleNonBlankValue,200,Thread Group_Prod1 1-1,true,615,1,1,195,1,0,INFPU07042,0
1519910431053,190,NoFileUpload N31_7045RawJson_WithOtherValidation,200,Thread Group_Prod1 1-1,true,908,1,1,190,1,0,INFPU07042,0
1519910431267,275,FileUpload F34_PE7045_7045CSV_SimpleSequentialCheck,200,Thread Group_Prod1 1-1,true,2040,1,1,274,1,0,INFPU07042,0
1519910433023,427,FileUpload F35_PE7045_7045Excel_SimpleSequentialCheck,200,Thread Group_Prod1 1-1,true,2028,1,1,427,1,0,INFPU07042,0
1519910433469,555,FileUpload F36_PE7045_7045CSV_SkipBlankColumn,200,Thread Group_Prod1 1-1,true,1727,1,1,555,1,0,INFPU07042,180
1519910434048,392,FileUpload F37_PE7045_7045EXCEL_SkipBlankColumn,200,Thread Group_Prod1 1-1,true,2070,1,1,391,1,0,INFPU07042,0
1519910434467,195,FileUpload F38_PE7045_7045CSV_SkipNonNumericData,200,Thread Group_Prod1 1-1,true,1628,1,1,195,1,0,INFPU07042,0
1519910434684,391,FileUpload F39_PE7045_7045EXCEL_SkipNonNumericData,200,Thread Group_Prod1 1-1,true,2584,1,1,390,1,0,INFPU07042,0
1519910435104,552,NoFileUpload N32_PE7474_Testcase1,200,Thread Group_Prod1 1-1,true,900,1,1,552,1,0,INFPU07042,182
1519910435681,193,NoFileUpload N33_PE7474_Testcase2,200,Thread Group_Prod1 1-1,true,903,1,1,193,1,0,INFPU07042,0
1519910435901,186,NoFileUpload N34_PE7474_Testcase3,200,Thread Group_Prod1 1-1,true,815,1,1,186,1,0,INFPU07042,0
1519910436102,198,NoFileUpload N35_PE7474_Testcase4,200,Thread Group_Prod1 1-1,true,881,1,1,198,1,0,INFPU07042,0
1519910436322,198,NoFileUpload N36_PE7474_Testcase5,200,Thread Group_Prod1 1-1,true,905,1,1,198,1,0,INFPU07042,0
1519910438000,556,NoFileUpload N37_PE7474_Testcase6,200,Thread Group_Prod1 1-1,true,895,1,1,556,1,0,INFPU07042,183
1519910438589,3719,FileUpload F40_PE7474,200,Thread Group_Prod1 1-1,true,4224,1,1,3719,1,0,INFPU07042,0
1519910443796,740,NoFileUpload N38_PE7689_RefTable,200,Thread Group_Prod1 1-1,true,942,1,1,740,1,0,INFPU07042,184
1519910444561,557,NoFileUpload N39_PE7440_ISBLANK_ImpactedbyComment,200,Thread Group_Prod1 1-1,true,1070,1,1,557,1,0,INFPU07042,0
1519910445143,194,NoFileUpload N40_PE7440_ISNOTBLANK_LENGTH_ImpactedbyComment,200,Thread Group_Prod1 1-1,true,954,1,1,193,1,0,INFPU07042,0
1519910445365,583,FileUpload F41_PE5679_EqualToWithAllBlank_POSCODE=2,200,Thread Group_Prod1 1-1,false,2878,1,1,582,1,1,INFPU07042,177
1519910445973,264,FileUpload F42_PE5679_3 Null string and 1 Blank_POSCODE=2,200,Thread Group_Prod1 1-1,false,3086,1,1,263,1,1,INFPU07042,0
1519910446268,232,FileUpload F43_PE5679_2 Null String and 2 Blank_POSCODE=2,200,Thread Group_Prod1 1-1,true,3288,1,1,231,1,0,INFPU07042,0
1519910447984,240,FileUpload F44_PE5679_1 Null String_1Data_2 Blank_POSCODE=2,200,Thread Group_Prod1 1-1,false,2875,1,1,239,1,1,INFPU07042,0
1519910448255,620,FileUpload F45_PE5679_NoBlanksNoNullAllUnique_POSCODE=2,200,Thread Group_Prod1 1-1,false,3280,1,1,619,1,1,INFPU07042,178
1519910448901,237,FileUpload F46_PE5679_3samedata_1Blank_POSCODE=2,200,Thread Group_Prod1 1-1,false,3079,1,1,237,1,1,INFPU07042,0
1519910449167,235,FileUpload F47_PE5679_POSCODEGreaterThan2,200,Thread Group_Prod1 1-1,false,2881,1,1,234,1,1,INFPU07042,0
1519910449431,226,FileUpload F48_PE5679_POSCODEGreaterThanEqualTo2,200,Thread Group_Prod1 1-1,false,2879,1,1,226,1,1,INFPU07042,0
1519910449685,605,FileUpload F49_PE5679_LessThan,200,Thread Group_Prod1 1-1,false,2879,1,1,605,1,1,INFPU07042,180
1519910450322,233,FileUpload F50_PE5679_LessThanEqualTo1,200,Thread Group_Prod1 1-1,false,2878,1,1,233,1,1,INFPU07042,0
1519910450579,1809,FileUpload F52_PE7724_CSV_ref,200,Thread Group_Prod1 1-1,true,21361,1,1,1627,1,0,INFPU07042,0
1519910453880,2534,FileUpload F52_PE7724_Excel_ValidationMsg,200,Thread Group_Prod1 1-1,false,18269,1,1,2352,1,1,INFPU07042,214
1519910456445,1777,FileUpload F53_PE7056_uploadMultipleFile_TBC for strict or loose_Shuffle,200,Thread Group_Prod1 1-1,false,5155,1,1,1776,1,1,INFPU07042,238
1519910459692,586,NoFileUpload N41_PE7056_validateAggregates_Fix,200,Thread Group_Prod1 1-1,false,807,1,1,586,1,1,INFPU07042,195
1519910460290,196,NoFileUpload N42_7056_performDefaultActions_Correct as per new code,200,Thread Group_Prod1 1-1,true,674,1,1,196,1,0,INFPU07042,0
1519910460515,405,NoFileUpload N43_7056_crossSectionChecks,200,Thread Group_Prod1 1-1,true,1321,1,1,405,1,0,INFPU07042,0
1519910460948,196,NoFileUpload N44_PE7241_EmailValidation -withInvalidAndValidEmailIdInDimension,200,Thread Group_Prod1 1-1,false,860,1,1,196,1,1,INFPU07042,0
1519910461154,554,NoFileUpload N45_PE7241_EmailValidation-withAllInvalidEmailIdInDimension,200,Thread Group_Prod1 1-1,false,891,1,1,553,1,1,INFPU07042,183
1519910463184,187,NoFileUpload N46_PE7241_EmailValidation -withNullStringAndBlankEmailIdInDimension,200,Thread Group_Prod1 1-1,false,856,1,1,187,1,1,INFPU07042,0
1519910463392,188,NoFileUpload N47_PE7241_EmailValidation_withAllBlankEmailIdInDimension,200,Thread Group_Prod1 1-1,false,834,1,1,188,1,1,INFPU07042,0
1519910463604,188,NoFileUpload N48_PE7241_EmailValidation_withAllEmailIdAsNullStringInDimension,200,Thread Group_Prod1 1-1,false,849,1,1,188,1,1,INFPU07042,0
1519910463824,187,NoFileUpload N49_PE7241_EmailValidation_withAllValidEmailIdInDimension,200,Thread Group_Prod1 1-1,false,879,1,1,187,1,1,INFPU07042,0
1519910464036,564,NoFileUpload N50_PE7241_PhoneValidation_withAllBlankPhoneNumberInDimension,200,Thread Group_Prod1 1-1,false,786,1,1,564,1,1,INFPU07042,186
1519910464625,191,NoFileUpload N51_PE7241_PhoneValidation_withAllInvalidPhoneNumberInDimension,200,Thread Group_Prod1 1-1,false,899,1,1,191,1,1,INFPU07042,0
1519910464825,191,NoFileUpload N52_PE7241_PhoneValidation_withAllNullStringAndBlankPhoneNumberInDimension,200,Thread Group_Prod1 1-1,false,803,1,1,191,1,1,INFPU07042,0
1519910465028,191,NoFileUpload N53_PE7241_PhoneValidation_withAllNullStringPhoneNumberInDimension,200,Thread Group_Prod1 1-1,false,837,1,1,191,1,1,INFPU07042,0
1519910465252,192,NoFileUpload N54_PE7241_PhoneValidation_withAllValidPhoneNumberInDimension,200,Thread Group_Prod1 1-1,false,873,1,1,192,1,1,INFPU07042,0
1519910465472,561,NoFileUpload N55_PE7241_PhoneValidation_withValidAndInvalidPhoneNumberInDimension,200,Thread Group_Prod1 1-1,false,873,1,1,561,1,1,INFPU07042,186
1519910466063,190,NoFileUpload N56_PE7241_RequiredValidation__withAllNullStringInDimension,200,Thread Group_Prod1 1-1,false,864,1,1,190,1,1,INFPU07042,0
1519910466272,190,NoFileUpload N57_PE7241_RequiredValidation__withAllValidValuesInDimension,200,Thread Group_Prod1 1-1,false,849,1,1,190,1,1,INFPU07042,0
1519910467940,190,NoFileUpload N58_PE7241_RequiredValidation_withAllblankValuesInDimension ,200,Thread Group_Prod1 1-1,false,862,1,1,190,1,1,INFPU07042,0
1519910468160,191,"NoFileUpload N59_PE7241_RequiredValidation_WithNullString,BlankAndValuesInDimension",200,Thread Group_Prod1 1-1,false,879,1,1,190,1,1,INFPU07042,0
1519910468359,570,NoFileUpload N60_PE7241_RequiredValidation_WithNullStringlAndBlankInDimension,200,Thread Group_Prod1 1-1,false,870,1,1,569,1,1,INFPU07042,188
1519910468956,192,NoFileUpload N61_PE7241_RequiredValidation_WithValidAndInvalidValue,200,Thread Group_Prod1 1-1,false,878,1,1,192,1,1,INFPU07042,0
1519910469171,193,NoFileUpload N62_PE7241_CheckBoxes_UploadMultipleFile,200,Thread Group_Prod1 1-1,true,810,1,1,192,1,0,INFPU07042,0
1519910469393,192,NoFileUpload N63_PE7241_Dimension_CrossSection,200,Thread Group_Prod1 1-1,true,875,1,1,192,1,0,INFPU07042,0
1519910469619,193,NoFileUpload N64_PE7241_MDA_Dimension,200,Thread Group_Prod1 1-1,true,857,1,1,193,1,0,INFPU07042,0
1519910469842,2134,FileUpload F54_PE-7257_AllValidDateAndDoubleValue(Positive scenario),200,Thread Group_Prod1 1-1,true,23858,1,1,1951,1,0,INFPU07042,181
1519910473435,2250,FileUpload F55_PE-7257_AllValidAndInvalidDateAndDoubleValue(Negative scenario),200,Thread Group_Prod1 1-1,true,25917,1,1,2064,1,0,INFPU07042,221
1519910475686,714,NoFileUpload N65_PE7506_crosssection_with multiple combination for LPALL_399A,200,Thread Group_Prod1 1-1,true,1319,1,1,714,1,0,INFPU07042,178
1519910476435,187,NoFileUpload N66_PE7506_crosssection_with 3 Dimensions for LPALL_399A,200,Thread Group_Prod1 1-1,true,1264,1,1,187,1,0,INFPU07042,0
1519910478108,184,"NoFileUpload N67_PE7506_crosssection_13LATAM_01"": ""Y""",200,Thread Group_Prod1 1-1,true,1235,1,1,184,1,0,INFPU07042,0
1519910478319,187,"NoFileUpload N68_PE7506_crosssection_ EE_group_13LATAM_01"": ""N""",200,Thread Group_Prod1 1-1,true,1060,1,1,187,1,0,INFPU07042,0
1519910478533,184,NoFileUpload N69_PE7506_crosssection_when  EE_group_13LATAM is not present,200,Thread Group_Prod1 1-1,true,1032,1,1,183,1,0,INFPU07042,0
1519910478739,716,NoFileUpload N70_PE7506_crosssection_with Dimension for LPALL_399A,200,Thread Group_Prod1 1-1,true,1316,1,1,716,1,0,INFPU07042,177
1519910479491,184,NoFileUpload N71_PE7506_crosssection_with Dimension for LPALL_399A 1 as Y others as N,200,Thread Group_Prod1 1-1,true,1264,1,1,184,1,0,INFPU07042,0
1519910479699,388,FileUpload F56_PE5415_MultiSheetSuccess,200,Thread Group_Prod1 1-1,true,3621,1,1,387,1,0,INFPU07042,0
1519910480119,368,FileUpload F57_PE5415_MultiSheetBadRequest_Ignore,400,Thread Group_Prod1 1-1,false,327,1,1,368,1,1,INFPU07042,0
1519910480488,777,FileUpload F58_PE5415_MultiSheetCorrectRequest,200,Thread Group_Prod1 1-1,true,3494,1,1,776,1,0,INFPU07042,187
1519910481289,382,FileUpload F59_PE5415_Step1SingleSheetBadReq_Ignore,422,Thread Group_Prod1 1-1,false,1282,1,1,382,1,1,INFPU07042,0
1519910483143,397,FileUpload F60_PE5415_Step1SingleSheetCorrectReq,200,Thread Group_Prod1 1-1,true,4665,1,1,396,1,0,INFPU07042,0
1519910483569,547,FileUpload F61_PE5415_Step3MappingCompanyJson,200,Thread Group_Prod1 1-1,true,1611,1,1,546,1,0,INFPU07042,177
1519910484145,371,FileUpload F62_PE5415_Step3MappingCompanyExcel,200,Thread Group_Prod1 1-1,true,1625,1,1,371,1,0,INFPU07042,0
1519910484538,377,FileUpload F63_PE5415_Step3MappingColumnExcel,200,Thread Group_Prod1 1-1,true,4466,1,1,377,1,0,INFPU07042,0
1519910484942,195,FileUpload F64_PE5415_Step3MappingColumnJson,200,Thread Group_Prod1 1-1,true,4418,1,1,194,1,0,INFPU07042,0
1519910485153,788,FileUpload F65_PE5415_Step3MappingColumnJsonWithoutCountry,200,Thread Group_Prod1 1-1,true,2131,1,1,787,1,0,INFPU07042,192
1519910485969,207,FileUpload F66_PE5415_Step3MappingColumnJsonWithCountry,200,Thread Group_Prod1 1-1,true,1611,1,1,206,1,0,INFPU07042,0
1519910486199,2935,FileUpload F67_PE8315_Fix,200,Thread Group_Prod1 1-1,false,36028,1,1,2737,1,1,INFPU07042,0
1519910490624,823,FileUpload F68_PE8037_Fix,200,Thread Group_Prod1 1-1,false,2156,1,1,822,1,1,INFPU07042,183
1519910492935,547,NoFileUpload N72_ PE5668 T1,200,Thread Group_Prod1 1-1,true,702,1,1,547,1,0,INFPU07042,0
1519910493499,314,NoFileUpload N80_PE7989_Req_NonNumericData_withAllwrongcolumn_MDA,200,Thread Group_Prod1 1-1,true,678,1,1,314,1,0,INFPU07042,0
1519910493844,867,NoFileUpload N81_PE7989_Req_NonNumericData_withAllrightcolumn_MDA,200,Thread Group_Prod1 1-1,true,851,1,1,867,1,0,INFPU07042,180
1519910494734,373,NoFileUpload N82_PE7989_Req_NonNumericData_with1wrongcolumn_MDA,200,Thread Group_Prod1 1-1,true,849,1,1,373,1,0,INFPU07042,0
1519910495135,393,NoFileUpload N83_PE7989_uploadMultipleFile,200,Thread Group_Prod1 1-1,true,835,1,1,393,1,0,INFPU07042,0
1519910495553,1030,NoFileUpload N84_400 and 500 Error_crossSectionChecks,200,Thread Group_Prod1 1-1,true,619,1,1,1030,1,0,INFPU07042,181
1519910498070,450,NoFileUpload N85_400 and 500 Error_crossSectionChecks,200,Thread Group_Prod1 1-1,true,648,1,1,450,1,0,INFPU07042,0
1519910498540,1054,NoFileUpload N86_400 and 500 Error_crossSectionChecks,200,Thread Group_Prod1 1-1,true,647,1,1,1054,1,0,INFPU07042,176
1519910499691,426,NoFileUpload N87_400 and 500 Error_crossSectionChecks,200,Thread Group_Prod1 1-1,true,506,1,1,426,1,0,INFPU07042,0
1519910500143,610,NoFileUpload N88_400 and 500 Error_crossSectionChecks,415,Thread Group_Prod1 1-1,false,172,1,1,610,1,1,INFPU07042,183
1519910500774,4,NoFileUpload N89_PE8186_to Add assertion,Non HTTP response code: org.apache.http.NoHttpResponseException,Thread Group_Prod1 1-1,true,2241,1,1,0,1,0,INFPU07042,0
1519910500793,555,NoFileUpload N90_PE8032_SyntaxError1_Fix,200,Thread Group_Prod1 1-1,false,679,1,1,552,1,1,INFPU07042,183
1519910501360,192,NoFileUpload N91_PE8032_SyntaxError2_Fix,200,Thread Group_Prod1 1-1,false,674,1,1,191,1,1,INFPU07042,0
1519910503023,191,NoFileUpload N92_PE8032_InvalidColumn,200,Thread Group_Prod1 1-1,true,758,1,1,190,1,0,INFPU07042,0
1519910503265,187,NoFileUpload N93_PE7771_Exp,200,Thread Group_Prod1 1-1,true,674,1,1,187,1,0,INFPU07042,0
1519910503487,188,NoFileUpload N94_PE7771_Range,200,Thread Group_Prod1 1-1,true,917,1,1,188,1,0,INFPU07042,0
1519910503702,1540,NoFileUpload N94_PE7771_Added Scenario,200,Thread Group_Prod1 1-1,true,6106,1,1,1538,1,0,INFPU07042,188
1519910505270,784,NoFileUpload N95_PE8269 and 8397_CSC_MDA_ClearValue_Fix,200,Thread Group_Prod1 1-1,false,587,1,1,784,1,1,INFPU07042,199
1519910506080,207,NoFileUpload N96_PE8269 and 8397_CSC_OtherThanClearValue,200,Thread Group_Prod1 1-1,true,792,1,1,207,1,0,INFPU07042,0
1519910506304,198,NoFileUpload N97_PE8269 and 8397_UMF_NonMDA,200,Thread Group_Prod1 1-1,true,833,1,1,198,1,0,INFPU07042,0
1519910508002,203,NoFileUpload N98_PE8269 and 8397_PDA_MDA_ClearValue_Fix,200,Thread Group_Prod1 1-1,false,576,1,1,203,1,1,INFPU07042,0
1519910508233,732,NoFileUpload N99_PE8269 and 8397_PDA_OtherThanClearValue,200,Thread Group_Prod1 1-1,true,789,1,1,732,1,0,INFPU07042,183
1519910508990,5735,FileUpload F69_PE8584_Null Issue ,200,Thread Group_Prod1 1-1,false,13166,1,1,5732,1,1,INFPU07042,0
1519910516259,984,FileUpload F70_PE8584,200,Thread Group_Prod1 1-1,true,16948,1,1,809,1,0,INFPU07042,175
1519910518732,273,FileUpload F71_PE8584,200,Thread Group_Prod1 1-1,true,2020,1,1,272,1,0,INFPU07042,0
1519910519033,260,FileUpload F72_PE8584,200,Thread Group_Prod1 1-1,true,2020,1,1,260,1,0,INFPU07042,0
1519910519321,6972,FileUpload F73_PE8584,200,Thread Group_Prod1 1-1,false,13027,1,1,6969,1,1,INFPU07042,200
1519910529252,9794,FileUpload F74_PE8584,200,Thread Group_Prod1 1-1,false,13031,1,1,9791,1,1,INFPU07042,242
1519910543457,2066,FileUpload F75_PE8584,200,Thread Group_Prod1 1-1,false,18889,1,1,1889,1,1,INFPU07042,177
1519910545549,5968,FileUpload F76_PE8584,200,Thread Group_Prod1 1-1,false,140859,1,1,5369,1,1,INFPU07042,230
1519910554464,3223,FileUpload F77_PE8584,200,Thread Group_Prod1 1-1,false,46898,1,1,2860,1,1,INFPU07042,180
1519910559181,837,FileUpload F78_PE8584,200,Thread Group_Prod1 1-1,true,6286,1,1,835,1,0,INFPU07042,185
1519910560045,190,NoFileUpload N100_PE8916,200,Thread Group_Prod1 1-1,false,855,1,1,190,1,1,INFPU07042,0
1519910560260,2715,FileUpload F79_PE8951_P1,200,Thread Group_Prod1 1-1,true,27791,1,1,2526,1,0,INFPU07042,0
1519910564434,3078,FileUpload F80_PE8951_P2,200,Thread Group_Prod1 1-1,true,24081,1,1,2892,1,0,INFPU07042,216
1519910568971,2923,FileUpload F81_PE8951_P3,200,Thread Group_Prod1 1-1,true,24089,1,1,2747,1,0,INFPU07042,175
1519910573353,2872,FileUpload F82_PE8951_P4,200,Thread Group_Prod1 1-1,true,24089,1,1,2683,1,0,INFPU07042,187
1519910576225,2558,FileUpload F83_PE8951_N1,400,Thread Group_Prod1 1-1,true,389,1,1,2558,1,0,INFPU07042,195
1519910580243,2333,FileUpload F84_PE8951_N2,400,Thread Group_Prod1 1-1,true,389,1,1,2333,1,0,INFPU07042,179
1519910584036,2424,FileUpload F85_PE8951_N3,400,Thread Group_Prod1 1-1,true,388,1,1,2423,1,0,INFPU07042,182
1519910587918,2475,FileUpload F86_PE8951_N4,400,Thread Group_Prod1 1-1,true,388,1,1,2475,1,0,INFPU07042,185
1519910590394,3136,FileUpload F88_8976,200,Thread Group_Prod1 1-1,false,1564,1,1,3136,1,1,INFPU07042,182
1519910594991,2899,FileUpload F87_8976,422,Thread Group_Prod1 1-1,true,1187,1,1,2898,1,0,INFPU07042,233
