timeStamp,elapsed,label,responseCode,threadName,success,bytes,grpThreads,allThreads,Latency,SampleCount,ErrorCount,Hostname,Connect
1519824354301,2712,FileUpload F1_PE-8157_Ignore,200,Thread Group_Prod1 1-1,false,6313,1,1,2712,1,1,INFPU07042,276
1519824358496,973,FileUpload F1_PE-8110_ErrorCell,200,Thread Group_Prod1 1-1,true,1571,1,1,973,1,0,INFPU07042,176
1519824359510,2133,FileUpload F2_PE-8110_ErrorCell_Ignore,422,Thread Group_Prod1 1-1,false,650879,1,1,1057,1,1,INFPU07042,0
1519824361675,1765,FileUpload F3_PE-8110_ErrorCell_Ignore,400,Thread Group_Prod1 1-1,false,385,1,1,1765,1,1,INFPU07042,175
1519824364921,540,FileUpload F4_PE-5678_SequentialWithOtherValidations,200,Thread Group_Prod1 1-1,true,5471,1,1,537,1,0,INFPU07042,173
1519824365483,190,NoFileUpload N1_PE-5678_LOOK_UP_CHECK1,200,Thread Group_Prod1 1-1,false,1072,1,1,190,1,1,INFPU07042,0
1519824365693,184,NoFileUpload N1_PE-5678_SequentialWithOtherValidations,200,Thread Group_Prod1 1-1,true,994,1,1,184,1,0,INFPU07042,0
1519824365894,179,NoFileUpload N2_PE-5678_SequentialWithOtherValidations,200,Thread Group_Prod1 1-1,true,959,1,1,179,1,0,INFPU07042,0
1519824366104,596,"NoFileUpload_Null Validation_crossSectionChecks_LPALL_566 is """"",200,Thread Group_Prod1 1-1,true,6764,1,1,594,1,0,INFPU07042,0
1519824366723,1327,NoFileUpload_Null Validation_crossSectionChecks_LPALL_566 is null,200,Thread Group_Prod1 1-1,true,6760,1,1,1325,1,0,INFPU07042,181
1519824369522,262,"NoFileUpload_Null Validation_crossSectionChecks_LPALL_566 is ""null""",200,Thread Group_Prod1 1-1,true,6903,1,1,260,1,0,INFPU07042,0
1519824369817,1293,"NoFileUpload_Null Validation_crossSectionChecks_LPALL_566 is ""   """,200,Thread Group_Prod1 1-1,true,6767,1,1,1290,1,0,INFPU07042,177
1519824371136,182,NoFileUpload N3_PE-7172MDA,200,Thread Group_Prod1 1-1,true,664,1,1,182,1,0,INFPU07042,0
1519824371351,618,FileUpload F5_PE7172_Fix,200,Thread Group_Prod1 1-1,true,4873,1,1,617,1,0,INFPU07042,173
1519824373448,352,NoFileUpload N4_PE-8032MDA,200,Thread Group_Prod1 1-1,true,664,1,1,352,1,0,INFPU07042,0
1519824373829,594,NoFileUpload N5_PE-8070,200,Thread Group_Prod1 1-1,true,881,1,1,594,1,0,INFPU07042,0
1519824374438,911,NoFileUpload N73_PE5668 T2_Temp,200,Thread Group_Prod1 1-1,true,609,1,1,911,1,0,INFPU07042,181
1519824375362,194,NoFileUpload N74_PE5668 T3_Temp,200,Thread Group_Prod1 1-1,true,753,1,1,194,1,0,INFPU07042,0
1519824375573,190,NoFileUpload N75_PE5668 T4_Temp,200,Thread Group_Prod1 1-1,true,706,1,1,190,1,0,INFPU07042,0
1519824375775,190,NoFileUpload N76_PE5668 T5_Temp,200,Thread Group_Prod1 1-1,true,720,1,1,190,1,0,INFPU07042,0
1519824375979,882,NoFileUpload N78_PE5668 T7_Temp,200,Thread Group_Prod1 1-1,true,705,1,1,882,1,0,INFPU07042,176
1519824376879,187,NoFileUpload N79_PE5668 T8_Temp,200,Thread Group_Prod1 1-1,true,607,1,1,187,1,0,INFPU07042,0
1519824378551,998,FileUpload F6_PE-7257_US_CSV_Shuffle,200,Thread Group_Prod1 1-1,false,5517,1,1,995,1,1,INFPU07042,0
1519824379565,1719,FileUpload F7_PE-7257_US_Excel_Shuffle,200,Thread Group_Prod1 1-1,false,5699,1,1,1719,1,1,INFPU07042,176
1519824381337,1281,NoFileUpload N6_PE7978,200,Thread Group_Prod1 1-1,true,6632,1,1,1279,1,0,INFPU07042,178
1519824384095,184,NoFileUpload N7_PE7954,200,Thread Group_Prod1 1-1,true,727,1,1,184,1,0,INFPU07042,0
1519824384292,911,NoFileUpload N77_PE5668 T6,200,Thread Group_Prod1 1-1,true,716,1,1,911,1,0,INFPU07042,182
1519824385228,186,FileUpload F8_PE7999_Ignore since files are identical,422,Thread Group_Prod1 1-1,false,1282,1,1,186,1,1,INFPU07042,0
1519824385430,192,NoFileUpload N8_ PE7795,200,Thread Group_Prod1 1-1,true,722,1,1,191,1,0,INFPU07042,0
1519824385642,206,NoFileUpload N9_PE7046_AU_Comp2,200,Thread Group_Prod1 1-1,true,914,1,1,206,1,0,INFPU07042,0
1519824385868,552,NoFileUpload N10_PE7046_US_Comp1,200,Thread Group_Prod1 1-1,true,910,1,1,552,1,0,INFPU07042,176
1519824386442,185,NoFileUpload N11_PE7046_IN_Comp1,200,Thread Group_Prod1 1-1,true,915,1,1,185,1,0,INFPU07042,0
1519824386650,179,NoFileUpload N12_PE7046_ZA_Comp2,200,Thread Group_Prod1 1-1,true,914,1,1,179,1,0,INFPU07042,0
1519824386837,544,NoFileUpload N13_PE7773_NUM_EMP is 7_Fix,200,Thread Group_Prod1 1-1,false,1099,1,1,544,1,1,INFPU07042,0
1519824388867,1076,NoFileUpload N14_PE7773_NUM_EMP is 8.1_boundry is 8,200,Thread Group_Prod1 1-1,true,1100,1,1,1076,1,0,INFPU07042,176
1519824389959,205,NoFileUpload N15_PE7773_NUM_EMP is 9_boundry is 8,200,Thread Group_Prod1 1-1,true,1099,1,1,205,1,0,INFPU07042,0
1519824390189,242,FileUpload F9_PE5216_ImpactedbyComment,200,Thread Group_Prod1 1-1,true,1345,1,1,242,1,0,INFPU07042,0
1519824390446,559,NoFileUpload N16_PE7044_expression,200,Thread Group_Prod1 1-1,true,674,1,1,559,1,0,INFPU07042,183
1519824391006,371,NoFileUpload N17_PE7044_range,200,Thread Group_Prod1 1-1,true,917,1,1,371,1,0,INFPU07042,0
1519824391426,202,NoFileUpload N18_PE7044_rangeValidationRefTable,200,Thread Group_Prod1 1-1,true,912,1,1,202,1,0,INFPU07042,0
1519824391651,196,NoFileUpload N19_PE7044_rangeValidationRefTable_dimensions,200,Thread Group_Prod1 1-1,true,942,1,1,196,1,0,INFPU07042,0
1519824391879,1507,FileUpload F10_PE5691_1Record_Ignore,400,Thread Group_Prod1 1-1,false,327,1,1,1506,1,1,INFPU07042,180
1519824394869,1449,FileUpload F11_PE5691_1Record_Ignore,400,Thread Group_Prod1 1-1,false,327,1,1,1448,1,1,INFPU07042,175
1519824396334,726,FileUpload F12_PE6027_Ref Table,200,Thread Group_Prod1 1-1,true,2193,1,1,726,1,0,INFPU07042,173
1519824398561,363,FileUpload F13_PE6030,200,Thread Group_Prod1 1-1,true,3289,1,1,362,1,0,INFPU07042,0
1519824398973,213,NoFileUpload N20_PE7033,200,Thread Group_Prod1 1-1,true,910,1,1,213,1,0,INFPU07042,0
1519824399187,178,NoFileUpload N21_PE7314,200,Thread Group_Prod1 1-1,true,771,1,1,178,1,0,INFPU07042,0
1519824399394,1637,FileUpload F14_PE7071_1Record_Shuffle,200,Thread Group_Prod1 1-1,false,5782,1,1,1635,1,1,INFPU07042,173
1519824401051,1818,FileUpload F15_PE7071_1Record,200,Thread Group_Prod1 1-1,true,5780,1,1,1817,1,0,INFPU07042,174
1519824404370,1640,FileUpload F16_PE7071_1Record,200,Thread Group_Prod1 1-1,true,6381,1,1,1638,1,0,INFPU07042,174
1519824406027,1274,FileUpload F17_PE7071_1Record,400,Thread Group_Prod1 1-1,false,360,1,1,1274,1,1,INFPU07042,182
1519824408779,1147,FileUpload F18_PE7611,200,Thread Group_Prod1 1-1,true,1989,1,1,1146,1,0,INFPU07042,0
1519824409955,1666,FileUpload F19_PE7611,200,Thread Group_Prod1 1-1,true,2070,1,1,1665,1,0,INFPU07042,180
1519824411648,1693,FileUpload F20_PE7611,200,Thread Group_Prod1 1-1,true,1913,1,1,1693,1,0,INFPU07042,183
1519824414822,19855,FileUpload F21_PE7611,200,Thread Group_Prod1 1-1,true,1989,1,1,19854,1,0,INFPU07042,176
1519824443451,35506,FileUpload F22_PE7611,200,Thread Group_Prod1 1-1,true,2398,1,1,35505,1,0,INFPU07042,247
1519824493570,1857,FileUpload F23_PE7611,200,Thread Group_Prod1 1-1,true,2275,1,1,1857,1,0,INFPU07042,230
1519824495448,5822,FileUpload F24_PE7611,200,Thread Group_Prod1 1-1,true,2275,1,1,5822,1,0,INFPU07042,183
1519824504203,1687,FileUpload F25_PE7611,200,Thread Group_Prod1 1-1,true,2163,1,1,1687,1,0,INFPU07042,180
1519824505918,1615,FileUpload F26_PE7611,200,Thread Group_Prod1 1-1,true,2164,1,1,1614,1,0,INFPU07042,174
1519824509001,1641,FileUpload F27_PE7611,200,Thread Group_Prod1 1-1,true,2119,1,1,1641,1,0,INFPU07042,175
1519824510665,564,FileUpload F28_6713CSV_SkipLastBlankRow,200,Thread Group_Prod1 1-1,true,1752,1,1,564,1,0,INFPU07042,185
1519824511230,199,FileUpload F29_6713CSV_SkipInitialRow,200,Thread Group_Prod1 1-1,true,1461,1,1,199,1,0,INFPU07042,0
1519824511449,199,FileUpload F30_6713CSV_SkipMiddleBlankRows,200,Thread Group_Prod1 1-1,true,2055,1,1,198,1,0,INFPU07042,0
1519824511704,381,FileUpload F31_6713Excel_SkipInitialRow,200,Thread Group_Prod1 1-1,true,1461,1,1,381,1,0,INFPU07042,0
1519824513562,773,FileUpload F32_6713Excel_SkipLastBlankRow,200,Thread Group_Prod1 1-1,true,1752,1,1,773,1,0,INFPU07042,185
1519824514353,918,FileUpload F33_6713Excel_SkipMiddleRow,200,Thread Group_Prod1 1-1,true,2055,1,1,918,1,0,INFPU07042,0
1519824515281,538,NoFileUpload N22_PE7631_metaData,200,Thread Group_Prod1 1-1,true,604,1,1,538,1,0,INFPU07042,178
1519824515834,183,NoFileUpload N23_PE7631_metaData,200,Thread Group_Prod1 1-1,true,604,1,1,183,1,0,INFPU07042,0
1519824516034,184,NoFileUpload N24_PE7631_Autocorrect,200,Thread Group_Prod1 1-1,true,836,1,1,184,1,0,INFPU07042,0
1519824516238,184,NoFileUpload N25_PE7631,200,Thread Group_Prod1 1-1,true,830,1,1,184,1,0,INFPU07042,0
1519824516447,184,NoFileUpload N26_7045RawJson_NonNumerciData,200,Thread Group_Prod1 1-1,true,846,1,1,183,1,0,INFPU07042,0
1519824516663,182,NoFileUpload N27_7045RawJson_SkipBlankCols,200,Thread Group_Prod1 1-1,true,771,1,1,182,1,0,INFPU07042,0
1519824516860,538,NoFileUpload N28_7045RawJson_SkipNonNumericCols,200,Thread Group_Prod1 1-1,true,675,1,1,538,1,0,INFPU07042,178
1519824518867,182,NoFileUpload N29_7045RawJson_WithDimesion,200,Thread Group_Prod1 1-1,true,853,1,1,182,1,0,INFPU07042,0
1519824519073,182,NoFileUpload N30_7045RawJson_SingleNonBlankValue,200,Thread Group_Prod1 1-1,true,620,1,1,182,1,0,INFPU07042,0
1519824519277,183,NoFileUpload N31_7045RawJson_WithOtherValidation,200,Thread Group_Prod1 1-1,true,903,1,1,183,1,0,INFPU07042,0
1519824519475,199,FileUpload F34_PE7045_7045CSV_SimpleSequentialCheck,200,Thread Group_Prod1 1-1,true,2040,1,1,198,1,0,INFPU07042,0
1519824519692,379,FileUpload F35_PE7045_7045Excel_SimpleSequentialCheck,200,Thread Group_Prod1 1-1,true,2028,1,1,379,1,0,INFPU07042,0
1519824520097,539,FileUpload F36_PE7045_7045CSV_SkipBlankColumn,200,Thread Group_Prod1 1-1,true,1727,1,1,539,1,0,INFPU07042,177
1519824520660,385,FileUpload F37_PE7045_7045EXCEL_SkipBlankColumn,200,Thread Group_Prod1 1-1,true,2070,1,1,381,1,0,INFPU07042,0
1519824521056,189,FileUpload F38_PE7045_7045CSV_SkipNonNumericData,200,Thread Group_Prod1 1-1,true,1628,1,1,188,1,0,INFPU07042,0
1519824521270,381,FileUpload F39_PE7045_7045EXCEL_SkipNonNumericData,200,Thread Group_Prod1 1-1,true,2584,1,1,380,1,0,INFPU07042,0
1519824521670,528,NoFileUpload N32_PE7474_Testcase1,200,Thread Group_Prod1 1-1,true,900,1,1,528,1,0,INFPU07042,175
1519824523675,184,NoFileUpload N33_PE7474_Testcase2,200,Thread Group_Prod1 1-1,true,903,1,1,184,1,0,INFPU07042,0
1519824523875,179,NoFileUpload N34_PE7474_Testcase3,200,Thread Group_Prod1 1-1,true,815,1,1,179,1,0,INFPU07042,0
1519824524078,187,NoFileUpload N35_PE7474_Testcase4,200,Thread Group_Prod1 1-1,true,886,1,1,187,1,0,INFPU07042,0
1519824524286,190,NoFileUpload N36_PE7474_Testcase5,200,Thread Group_Prod1 1-1,true,905,1,1,190,1,0,INFPU07042,0
1519824524502,182,NoFileUpload N37_PE7474_Testcase6,200,Thread Group_Prod1 1-1,true,895,1,1,182,1,0,INFPU07042,0
1519824524710,3254,FileUpload F40_PE7474,200,Thread Group_Prod1 1-1,true,4224,1,1,3254,1,0,INFPU07042,178
1519824529444,738,NoFileUpload N38_PE7689_RefTable,200,Thread Group_Prod1 1-1,true,942,1,1,738,1,0,INFPU07042,183
1519824530201,561,NoFileUpload N39_PE7440_ISBLANK_ImpactedbyComment,200,Thread Group_Prod1 1-1,true,1070,1,1,561,1,0,INFPU07042,0
1519824530790,202,NoFileUpload N40_PE7440_ISNOTBLANK_LENGTH_ImpactedbyComment,200,Thread Group_Prod1 1-1,true,954,1,1,201,1,0,INFPU07042,0
1519824531016,610,FileUpload F41_PE5679_EqualToWithAllBlank_POSCODE=2,200,Thread Group_Prod1 1-1,false,2838,1,1,610,1,1,INFPU07042,186
1519824531644,235,FileUpload F42_PE5679_3 Null string and 1 Blank_POSCODE=2,200,Thread Group_Prod1 1-1,false,2669,1,1,234,1,1,INFPU07042,0
1519824531890,231,FileUpload F43_PE5679_2 Null String and 2 Blank_POSCODE=2,200,Thread Group_Prod1 1-1,true,2871,1,1,230,1,0,INFPU07042,0
1519824533602,243,FileUpload F44_PE5679_1 Null String_1Data_2 Blank_POSCODE=2,200,Thread Group_Prod1 1-1,false,1746,1,1,243,1,1,INFPU07042,0
1519824533860,238,FileUpload F45_PE5679_NoBlanksNoNullAllUnique_POSCODE=2,200,Thread Group_Prod1 1-1,false,3240,1,1,238,1,1,INFPU07042,0
1519824534116,591,FileUpload F46_PE5679_3samedata_1Blank_POSCODE=2,200,Thread Group_Prod1 1-1,false,2662,1,1,590,1,1,INFPU07042,178
1519824534729,235,FileUpload F47_PE5679_POSCODEGreaterThan2,200,Thread Group_Prod1 1-1,false,2841,1,1,235,1,1,INFPU07042,0
1519824534993,234,FileUpload F48_PE5679_POSCODEGreaterThanEqualTo2,200,Thread Group_Prod1 1-1,false,1747,1,1,233,1,1,INFPU07042,0
1519824535242,234,FileUpload F49_PE5679_LessThan,200,Thread Group_Prod1 1-1,false,2461,1,1,233,1,1,INFPU07042,0
1519824535502,235,FileUpload F50_PE5679_LessThanEqualTo1,200,Thread Group_Prod1 1-1,false,2838,1,1,235,1,1,INFPU07042,0
1519824535759,2265,FileUpload F52_PE7724_CSV_ref,200,Thread Group_Prod1 1-1,true,21361,1,1,2089,1,0,INFPU07042,174
1519824539502,2644,FileUpload F52_PE7724_Excel_ValidationMsg,200,Thread Group_Prod1 1-1,false,18269,1,1,2456,1,1,INFPU07042,187
1519824543633,1688,FileUpload F53_PE7056_uploadMultipleFile_TBC for strict or loose_Shuffle,200,Thread Group_Prod1 1-1,false,5155,1,1,1686,1,1,INFPU07042,186
1519824545336,544,NoFileUpload N41_PE7056_validateAggregates_Fix,200,Thread Group_Prod1 1-1,false,807,1,1,544,1,1,INFPU07042,180
1519824545895,184,NoFileUpload N42_7056_performDefaultActions_Correct as per new code,200,Thread Group_Prod1 1-1,true,674,1,1,184,1,0,INFPU07042,0
1519824546104,367,NoFileUpload N43_7056_crossSectionChecks,200,Thread Group_Prod1 1-1,true,1316,1,1,367,1,0,INFPU07042,0
1519824546491,183,NoFileUpload N44_PE7241_EmailValidation -withInvalidAndValidEmailIdInDimension,200,Thread Group_Prod1 1-1,true,858,1,1,183,1,0,INFPU07042,0
1519824546701,186,NoFileUpload N45_PE7241_EmailValidation-withAllInvalidEmailIdInDimension,200,Thread Group_Prod1 1-1,true,884,1,1,186,1,0,INFPU07042,0
1519824548373,539,NoFileUpload N46_PE7241_EmailValidation -withNullStringAndBlankEmailIdInDimension,200,Thread Group_Prod1 1-1,true,853,1,1,539,1,0,INFPU07042,176
1519824548937,183,NoFileUpload N47_PE7241_EmailValidation_withAllBlankEmailIdInDimension,200,Thread Group_Prod1 1-1,true,832,1,1,183,1,0,INFPU07042,0
1519824549144,181,NoFileUpload N48_PE7241_EmailValidation_withAllEmailIdAsNullStringInDimension,200,Thread Group_Prod1 1-1,true,848,1,1,181,1,0,INFPU07042,0
1519824549335,181,NoFileUpload N49_PE7241_EmailValidation_withAllValidEmailIdInDimension,200,Thread Group_Prod1 1-1,true,881,1,1,181,1,0,INFPU07042,0
1519824549542,181,NoFileUpload N50_PE7241_PhoneValidation_withAllBlankPhoneNumberInDimension,200,Thread Group_Prod1 1-1,true,795,1,1,181,1,0,INFPU07042,0
1519824549733,180,NoFileUpload N51_PE7241_PhoneValidation_withAllInvalidPhoneNumberInDimension,200,Thread Group_Prod1 1-1,true,897,1,1,180,1,0,INFPU07042,0
1519824549933,543,NoFileUpload N52_PE7241_PhoneValidation_withAllNullStringAndBlankPhoneNumberInDimension,200,Thread Group_Prod1 1-1,true,813,1,1,543,1,0,INFPU07042,180
1519824550498,185,NoFileUpload N53_PE7241_PhoneValidation_withAllNullStringPhoneNumberInDimension,200,Thread Group_Prod1 1-1,true,836,1,1,184,1,0,INFPU07042,0
1519824550706,184,NoFileUpload N54_PE7241_PhoneValidation_withAllValidPhoneNumberInDimension,200,Thread Group_Prod1 1-1,true,879,1,1,184,1,0,INFPU07042,0
1519824550901,185,NoFileUpload N55_PE7241_PhoneValidation_withValidAndInvalidPhoneNumberInDimension,200,Thread Group_Prod1 1-1,true,872,1,1,183,1,0,INFPU07042,0
1519824551102,184,NoFileUpload N56_PE7241_RequiredValidation__withAllNullStringInDimension,200,Thread Group_Prod1 1-1,true,872,1,1,184,1,0,INFPU07042,0
1519824551305,184,NoFileUpload N57_PE7241_RequiredValidation__withAllValidValuesInDimension,200,Thread Group_Prod1 1-1,true,858,1,1,184,1,0,INFPU07042,0
1519824551511,555,NoFileUpload N58_PE7241_RequiredValidation_withAllblankValuesInDimension ,200,Thread Group_Prod1 1-1,true,869,1,1,554,1,0,INFPU07042,184
1519824553546,188,"NoFileUpload N59_PE7241_RequiredValidation_WithNullString,BlankAndValuesInDimension",200,Thread Group_Prod1 1-1,true,889,1,1,188,1,0,INFPU07042,0
1519824553752,188,NoFileUpload N60_PE7241_RequiredValidation_WithNullStringlAndBlankInDimension,200,Thread Group_Prod1 1-1,true,880,1,1,188,1,0,INFPU07042,0
1519824553961,187,NoFileUpload N61_PE7241_RequiredValidation_WithValidAndInvalidValue,200,Thread Group_Prod1 1-1,true,879,1,1,187,1,0,INFPU07042,0
1519824554170,189,NoFileUpload N62_PE7241_CheckBoxes_UploadMultipleFile,200,Thread Group_Prod1 1-1,true,805,1,1,188,1,0,INFPU07042,0
1519824554369,187,NoFileUpload N63_PE7241_Dimension_CrossSection,200,Thread Group_Prod1 1-1,true,870,1,1,187,1,0,INFPU07042,0
1519824554572,547,NoFileUpload N64_PE7241_MDA_Dimension,200,Thread Group_Prod1 1-1,true,857,1,1,547,1,0,INFPU07042,181
1519824555131,1605,FileUpload F54_PE-7257_AllValidDateAndDoubleValue(Positive scenario),200,Thread Group_Prod1 1-1,true,22950,1,1,1422,1,0,INFPU07042,0
1519824556737,1977,FileUpload F55_PE-7257_AllValidAndInvalidDateAndDoubleValue(Negative scenario),200,Thread Group_Prod1 1-1,true,25917,1,1,1796,1,0,INFPU07042,236
1519824560173,765,NoFileUpload N65_PE7506_crosssection_with multiple combination for LPALL_399A,200,Thread Group_Prod1 1-1,true,1319,1,1,765,1,0,INFPU07042,189
1519824560960,203,NoFileUpload N66_PE7506_crosssection_with 3 Dimensions for LPALL_399A,200,Thread Group_Prod1 1-1,true,1264,1,1,202,1,0,INFPU07042,0
1519824561185,199,"NoFileUpload N67_PE7506_crosssection_13LATAM_01"": ""Y""",200,Thread Group_Prod1 1-1,true,1235,1,1,199,1,0,INFPU07042,0
1519824561403,201,"NoFileUpload N68_PE7506_crosssection_ EE_group_13LATAM_01"": ""N""",200,Thread Group_Prod1 1-1,true,1060,1,1,201,1,0,INFPU07042,0
1519824561627,730,NoFileUpload N69_PE7506_crosssection_when  EE_group_13LATAM is not present,200,Thread Group_Prod1 1-1,true,1032,1,1,730,1,0,INFPU07042,180
1519824563837,193,NoFileUpload N70_PE7506_crosssection_with Dimension for LPALL_399A,200,Thread Group_Prod1 1-1,true,1316,1,1,193,1,0,INFPU07042,0
1519824564050,191,NoFileUpload N71_PE7506_crosssection_with Dimension for LPALL_399A 1 as Y others as N,200,Thread Group_Prod1 1-1,true,1264,1,1,191,1,0,INFPU07042,0
1519824564262,392,FileUpload F56_PE5415_MultiSheetSuccess,200,Thread Group_Prod1 1-1,true,3621,1,1,392,1,0,INFPU07042,0
1519824564670,759,FileUpload F57_PE5415_MultiSheetBadRequest_Ignore,400,Thread Group_Prod1 1-1,false,327,1,1,759,1,1,INFPU07042,188
1519824565429,408,FileUpload F58_PE5415_MultiSheetCorrectRequest,200,Thread Group_Prod1 1-1,true,3494,1,1,407,1,0,INFPU07042,0
1519824565858,385,FileUpload F59_PE5415_Step1SingleSheetBadReq_Ignore,422,Thread Group_Prod1 1-1,false,1282,1,1,385,1,1,INFPU07042,0
1519824566260,724,FileUpload F60_PE5415_Step1SingleSheetCorrectReq,200,Thread Group_Prod1 1-1,true,4665,1,1,723,1,0,INFPU07042,175
1519824568470,190,FileUpload F61_PE5415_Step3MappingCompanyJson,200,Thread Group_Prod1 1-1,true,1611,1,1,190,1,0,INFPU07042,0
1519824568680,371,FileUpload F62_PE5415_Step3MappingCompanyExcel,200,Thread Group_Prod1 1-1,true,1625,1,1,370,1,0,INFPU07042,0
1519824569063,373,FileUpload F63_PE5415_Step3MappingColumnExcel,200,Thread Group_Prod1 1-1,true,4466,1,1,372,1,0,INFPU07042,0
1519824569455,550,FileUpload F64_PE5415_Step3MappingColumnJson,200,Thread Group_Prod1 1-1,true,4418,1,1,549,1,0,INFPU07042,178
1519824570025,202,FileUpload F65_PE5415_Step3MappingColumnJsonWithoutCountry,200,Thread Group_Prod1 1-1,true,2131,1,1,201,1,0,INFPU07042,0
1519824570243,192,FileUpload F66_PE5415_Step3MappingColumnJsonWithCountry,200,Thread Group_Prod1 1-1,true,1611,1,1,192,1,0,INFPU07042,0
1519824570447,2752,FileUpload F67_PE8315_Fix,200,Thread Group_Prod1 1-1,false,34221,1,1,2569,1,1,INFPU07042,0
1519824574679,797,FileUpload F68_PE8037_Fix,200,Thread Group_Prod1 1-1,false,2156,1,1,796,1,1,INFPU07042,177
1519824575498,364,NoFileUpload N72_ PE5668 T1,200,Thread Group_Prod1 1-1,true,702,1,1,364,1,0,INFPU07042,0
1519824575880,181,NoFileUpload N80_PE7989_Req_NonNumericData_withAllwrongcolumn_MDA,200,Thread Group_Prod1 1-1,true,678,1,1,181,1,0,INFPU07042,0
1519824576085,181,NoFileUpload N81_PE7989_Req_NonNumericData_withAllrightcolumn_MDA,200,Thread Group_Prod1 1-1,true,846,1,1,181,1,0,INFPU07042,0
1519824576286,547,NoFileUpload N82_PE7989_Req_NonNumericData_with1wrongcolumn_MDA,200,Thread Group_Prod1 1-1,true,849,1,1,547,1,0,INFPU07042,179
1519824576847,184,NoFileUpload N83_PE7989_uploadMultipleFile,200,Thread Group_Prod1 1-1,true,840,1,1,183,1,0,INFPU07042,0
1519824578505,186,NoFileUpload N84_400 and 500 Error_crossSectionChecks,200,Thread Group_Prod1 1-1,true,619,1,1,186,1,0,INFPU07042,0
1519824578705,184,NoFileUpload N85_400 and 500 Error_crossSectionChecks,200,Thread Group_Prod1 1-1,true,653,1,1,184,1,0,INFPU07042,0
1519824578905,184,NoFileUpload N86_400 and 500 Error_crossSectionChecks,200,Thread Group_Prod1 1-1,true,647,1,1,184,1,0,INFPU07042,0
1519824579104,184,NoFileUpload N87_400 and 500 Error_crossSectionChecks,200,Thread Group_Prod1 1-1,true,506,1,1,184,1,0,INFPU07042,0
1519824579306,352,NoFileUpload N88_400 and 500 Error_crossSectionChecks,Non HTTP response code: java.net.SocketException,Thread Group_Prod1 1-1,false,2560,1,1,0,1,1,INFPU07042,175
1519824579673,713,NoFileUpload N89_PE8186_to Add assertion,200,Thread Group_Prod1 1-1,true,944,1,1,713,1,0,INFPU07042,177
1519824580404,185,NoFileUpload N90_PE8032_SyntaxError1_Fix,200,Thread Group_Prod1 1-1,false,674,1,1,185,1,1,INFPU07042,0
1519824580622,183,NoFileUpload N91_PE8032_SyntaxError2_Fix,200,Thread Group_Prod1 1-1,false,679,1,1,183,1,1,INFPU07042,0
1519824580827,183,NoFileUpload N92_PE8032_InvalidColumn,200,Thread Group_Prod1 1-1,true,758,1,1,183,1,0,INFPU07042,0
1519824581033,182,NoFileUpload N93_PE7771_Exp,200,Thread Group_Prod1 1-1,true,679,1,1,182,1,0,INFPU07042,0
1519824581232,742,NoFileUpload N94_PE7771_Range,200,Thread Group_Prod1 1-1,true,917,1,1,742,1,0,INFPU07042,184
1519824583446,996,NoFileUpload N94_PE7771_Added Scenario,200,Thread Group_Prod1 1-1,true,6106,1,1,996,1,0,INFPU07042,0
1519824584463,750,NoFileUpload N95_PE8269 and 8397_CSC_MDA_ClearValue_Fix,200,Thread Group_Prod1 1-1,false,587,1,1,750,1,1,INFPU07042,185
1519824585234,192,NoFileUpload N96_PE8269 and 8397_CSC_OtherThanClearValue,200,Thread Group_Prod1 1-1,true,797,1,1,191,1,0,INFPU07042,0
1519824585442,192,NoFileUpload N97_PE8269 and 8397_UMF_NonMDA,200,Thread Group_Prod1 1-1,true,833,1,1,192,1,0,INFPU07042,0
1519824585648,192,NoFileUpload N98_PE8269 and 8397_PDA_MDA_ClearValue_Fix,200,Thread Group_Prod1 1-1,false,576,1,1,191,1,1,INFPU07042,0
1519824585855,193,NoFileUpload N99_PE8269 and 8397_PDA_OtherThanClearValue,200,Thread Group_Prod1 1-1,true,794,1,1,193,1,0,INFPU07042,0
1519824586070,5920,FileUpload F69_PE8584_Null Issue ,200,Thread Group_Prod1 1-1,true,14518,1,1,5917,1,0,INFPU07042,184
1519824594939,1078,FileUpload F70_PE8584,200,Thread Group_Prod1 1-1,true,16948,1,1,890,1,0,INFPU07042,188
1519824596045,259,FileUpload F71_PE8584,200,Thread Group_Prod1 1-1,true,2020,1,1,259,1,0,INFPU07042,0
1519824596325,260,FileUpload F72_PE8584,200,Thread Group_Prod1 1-1,true,2020,1,1,260,1,0,INFPU07042,0
1519824596603,6484,FileUpload F73_PE8584,200,Thread Group_Prod1 1-1,true,14379,1,1,6480,1,0,INFPU07042,177
1519824606031,9411,FileUpload F74_PE8584,200,Thread Group_Prod1 1-1,true,14383,1,1,9407,1,0,INFPU07042,177
1519824619842,2144,FileUpload F75_PE8584,200,Thread Group_Prod1 1-1,false,18913,1,1,1956,1,1,INFPU07042,187
1519824623469,5930,FileUpload F76_PE8584,200,Thread Group_Prod1 1-1,false,174718,1,1,5224,1,1,INFPU07042,176
1519824630906,3783,FileUpload F77_PE8584,200,Thread Group_Prod1 1-1,false,56596,1,1,3423,1,1,INFPU07042,235
1519824636159,816,FileUpload F78_PE8584,200,Thread Group_Prod1 1-1,true,6286,1,1,815,1,0,INFPU07042,177
1519824638445,180,NoFileUpload N100_PE8916,200,Thread Group_Prod1 1-1,false,855,1,1,180,1,1,INFPU07042,0
1519824638641,2316,FileUpload F79_PE8951_P1,200,Thread Group_Prod1 1-1,true,34583,1,1,2135,1,0,INFPU07042,0
1519824640957,2985,FileUpload F80_PE8951_P2,200,Thread Group_Prod1 1-1,true,30836,1,1,2802,1,0,INFPU07042,179
1519824645401,2938,FileUpload F81_PE8951_P3,200,Thread Group_Prod1 1-1,true,30836,1,1,2760,1,0,INFPU07042,174
1519824649799,2796,FileUpload F82_PE8951_P4,200,Thread Group_Prod1 1-1,true,30836,1,1,2613,1,0,INFPU07042,179
1519824654054,2515,FileUpload F83_PE8951_N1,400,Thread Group_Prod1 1-1,true,389,1,1,2515,1,0,INFPU07042,178
1519824656570,2212,FileUpload F84_PE8951_N2,400,Thread Group_Prod1 1-1,true,389,1,1,2212,1,0,INFPU07042,185
1519824660242,2368,FileUpload F85_PE8951_N3,400,Thread Group_Prod1 1-1,true,388,1,1,2368,1,0,INFPU07042,181
1519824664069,2110,FileUpload F86_PE8951_N4,400,Thread Group_Prod1 1-1,true,388,1,1,2110,1,0,INFPU07042,178
