timeStamp,elapsed,label,responseCode,threadName,success,bytes,grpThreads,allThreads,Latency,SampleCount,ErrorCount,Hostname,Connect
1519999679530,3707,FileUpload F1_PE-8157_Ignore,200,Thread Group_Prod1 1-1,false,6260,1,1,3668,1,1,INFPU07042,476
1519999684834,976,FileUpload F1_PE-8110_ErrorCell,200,Thread Group_Prod1 1-1,true,1571,1,1,976,1,0,INFPU07042,197
1519999685827,6853,FileUpload F2_PE-8110_ErrorCell_Ignore,422,Thread Group_Prod1 1-1,false,650879,1,1,1344,1,1,INFPU07042,0
1519999695795,3129,FileUpload F3_PE-8110_ErrorCell_Ignore,400,Thread Group_Prod1 1-1,false,385,1,1,3129,1,1,INFPU07042,712
1519999700392,883,FileUpload F4_PE-5678_SequentialWithOtherValidations,200,Thread Group_Prod1 1-1,true,5471,1,1,880,1,0,INFPU07042,273
1519999701284,384,NoFileUpload N1_PE-5678_LOOK_UP_CHECK1,200,Thread Group_Prod1 1-1,false,1072,1,1,384,1,1,INFPU07042,0
1519999701677,458,NoFileUpload N1_PE-5678_SequentialWithOtherValidations,200,Thread Group_Prod1 1-1,true,994,1,1,453,1,0,INFPU07042,0
1519999702146,824,NoFileUpload N2_PE-5678_SequentialWithOtherValidations,200,Thread Group_Prod1 1-1,true,959,1,1,824,1,0,INFPU07042,362
1519999702986,1239,"NoFileUpload_Null Validation_crossSectionChecks_LPALL_566 is """"",200,Thread Group_Prod1 1-1,true,6764,1,1,1223,1,0,INFPU07042,0
1519999705694,1640,NoFileUpload_Null Validation_crossSectionChecks_LPALL_566 is null,200,Thread Group_Prod1 1-1,true,6760,1,1,1627,1,0,INFPU07042,222
1519999707348,2062,"NoFileUpload_Null Validation_crossSectionChecks_LPALL_566 is ""null""",200,Thread Group_Prod1 1-1,true,6903,1,1,2036,1,0,INFPU07042,215
1519999710881,2261,"NoFileUpload_Null Validation_crossSectionChecks_LPALL_566 is ""   """,200,Thread Group_Prod1 1-1,true,6767,1,1,2245,1,0,INFPU07042,447
1519999714610,999,NoFileUpload N3_PE-7172MDA,200,Thread Group_Prod1 1-1,true,664,1,1,999,1,0,INFPU07042,213
1519999715628,418,FileUpload F5_PE7172_Fix,200,Thread Group_Prod1 1-1,true,4873,1,1,390,1,0,INFPU07042,0
1519999716063,885,NoFileUpload N4_PE-8032MDA,200,Thread Group_Prod1 1-1,true,664,1,1,885,1,0,INFPU07042,215
1519999716985,854,NoFileUpload N5_PE-8070,200,Thread Group_Prod1 1-1,true,881,1,1,853,1,0,INFPU07042,0
1519999717864,1231,NoFileUpload N73_PE5668 T2_Temp,200,Thread Group_Prod1 1-1,true,609,1,1,1231,1,0,INFPU07042,200
1519999720576,361,NoFileUpload N74_PE5668 T3_Temp,200,Thread Group_Prod1 1-1,true,753,1,1,357,1,0,INFPU07042,0
1519999720944,1401,NoFileUpload N75_PE5668 T4_Temp,200,Thread Group_Prod1 1-1,true,706,1,1,1401,1,0,INFPU07042,295
1519999722367,1254,NoFileUpload N76_PE5668 T5_Temp,200,Thread Group_Prod1 1-1,true,720,1,1,1254,1,0,INFPU07042,245
1519999725103,401,NoFileUpload N78_PE5668 T7_Temp,200,Thread Group_Prod1 1-1,true,705,1,1,401,1,0,INFPU07042,0
1519999725526,1053,NoFileUpload N79_PE5668 T8_Temp,200,Thread Group_Prod1 1-1,true,607,1,1,1053,1,0,INFPU07042,202
1519999726594,1094,FileUpload F6_PE-7257_US_CSV_Shuffle,200,Thread Group_Prod1 1-1,false,4349,1,1,1091,1,1,INFPU07042,0
1519999727718,2065,FileUpload F7_PE-7257_US_Excel_Shuffle,200,Thread Group_Prod1 1-1,false,4532,1,1,2042,1,1,INFPU07042,205
1519999731298,2012,NoFileUpload N6_PE7978,200,Thread Group_Prod1 1-1,true,6632,1,1,1996,1,0,INFPU07042,320
1519999734793,498,NoFileUpload N7_PE7954,200,Thread Group_Prod1 1-1,true,727,1,1,495,1,0,INFPU07042,202
1519999735364,654,NoFileUpload N77_PE5668 T6,200,Thread Group_Prod1 1-1,true,721,1,1,654,1,0,INFPU07042,0
1519999736036,235,FileUpload F8_PE7999_Ignore since files are identical,422,Thread Group_Prod1 1-1,false,1282,1,1,234,1,1,INFPU07042,0
1519999736289,1097,NoFileUpload N8_ PE7795,200,Thread Group_Prod1 1-1,true,717,1,1,1097,1,0,INFPU07042,211
1519999737408,248,NoFileUpload N9_PE7046_AU_Comp2,200,Thread Group_Prod1 1-1,true,914,1,1,247,1,0,INFPU07042,0
1519999737690,237,NoFileUpload N10_PE7046_US_Comp1,200,Thread Group_Prod1 1-1,true,910,1,1,236,1,0,INFPU07042,0
1519999737944,635,NoFileUpload N11_PE7046_IN_Comp1,200,Thread Group_Prod1 1-1,true,910,1,1,635,1,0,INFPU07042,205
1519999740056,321,NoFileUpload N12_PE7046_ZA_Comp2,200,Thread Group_Prod1 1-1,true,914,1,1,314,1,0,INFPU07042,0
1519999740393,959,NoFileUpload N13_PE7773_NUM_EMP is 7_Fix,200,Thread Group_Prod1 1-1,false,1099,1,1,955,1,1,INFPU07042,0
1519999741369,1881,NoFileUpload N14_PE7773_NUM_EMP is 8.1_boundry is 8,200,Thread Group_Prod1 1-1,true,1100,1,1,1881,1,0,INFPU07042,515
1519999744730,1299,NoFileUpload N15_PE7773_NUM_EMP is 9_boundry is 8,200,Thread Group_Prod1 1-1,true,1099,1,1,1299,1,0,INFPU07042,162
1519999746050,305,FileUpload F9_PE5216_ImpactedbyComment,200,Thread Group_Prod1 1-1,true,1345,1,1,305,1,0,INFPU07042,0
1519999746371,529,NoFileUpload N16_PE7044_expression,200,Thread Group_Prod1 1-1,true,679,1,1,529,1,0,INFPU07042,169
1519999746900,389,NoFileUpload N17_PE7044_range,200,Thread Group_Prod1 1-1,true,917,1,1,389,1,0,INFPU07042,0
1519999747349,210,NoFileUpload N18_PE7044_rangeValidationRefTable,200,Thread Group_Prod1 1-1,true,912,1,1,210,1,0,INFPU07042,0
1519999747607,213,NoFileUpload N19_PE7044_rangeValidationRefTable_dimensions,200,Thread Group_Prod1 1-1,true,942,1,1,213,1,0,INFPU07042,0
1519999747839,1769,FileUpload F10_PE5691_1Record_Ignore,400,Thread Group_Prod1 1-1,false,327,1,1,1768,1,1,INFPU07042,218
1519999751085,1865,FileUpload F11_PE5691_1Record_Ignore,400,Thread Group_Prod1 1-1,false,327,1,1,1865,1,1,INFPU07042,220
1519999752963,1982,FileUpload F12_PE6027_Ref Table,200,Thread Group_Prod1 1-1,true,2193,1,1,1975,1,0,INFPU07042,201
1519999756440,816,FileUpload F13_PE6030,200,Thread Group_Prod1 1-1,true,3289,1,1,814,1,0,INFPU07042,201
1519999757284,203,NoFileUpload N20_PE7033,200,Thread Group_Prod1 1-1,true,910,1,1,203,1,0,INFPU07042,0
1519999757487,205,NoFileUpload N21_PE7314,200,Thread Group_Prod1 1-1,true,771,1,1,205,1,0,INFPU07042,0
1519999757720,1668,FileUpload F14_PE7071_1Record_Shuffle,200,Thread Group_Prod1 1-1,false,4188,1,1,1528,1,1,INFPU07042,0
1519999760856,3168,FileUpload F15_PE7071_1Record,200,Thread Group_Prod1 1-1,false,4749,1,1,3152,1,1,INFPU07042,188
1519999765512,1787,FileUpload F16_PE7071_1Record,200,Thread Group_Prod1 1-1,false,4188,1,1,1771,1,1,INFPU07042,182
1519999767328,1735,FileUpload F17_PE7071_1Record,400,Thread Group_Prod1 1-1,false,365,1,1,1735,1,1,INFPU07042,196
1519999770564,2316,FileUpload F18_PE7611,200,Thread Group_Prod1 1-1,true,1989,1,1,2308,1,0,INFPU07042,302
1519999772889,1898,FileUpload F19_PE7611,200,Thread Group_Prod1 1-1,false,1790,1,1,1898,1,1,INFPU07042,385
1519999776268,1595,FileUpload F20_PE7611,200,Thread Group_Prod1 1-1,true,1913,1,1,1595,1,0,INFPU07042,170
1519999777872,1640,FileUpload F21_PE7611,200,Thread Group_Prod1 1-1,true,1989,1,1,1630,1,0,INFPU07042,163
1519999780987,1838,FileUpload F22_PE7611,200,Thread Group_Prod1 1-1,false,2118,1,1,1838,1,1,INFPU07042,261
1519999782848,1734,FileUpload F23_PE7611,200,Thread Group_Prod1 1-1,false,1995,1,1,1734,1,1,INFPU07042,177
1519999786117,1662,FileUpload F24_PE7611,200,Thread Group_Prod1 1-1,false,1995,1,1,1662,1,1,INFPU07042,178
1519999787799,1600,FileUpload F25_PE7611,200,Thread Group_Prod1 1-1,false,1883,1,1,1592,1,1,INFPU07042,164
1519999790927,2013,FileUpload F26_PE7611,200,Thread Group_Prod1 1-1,false,1884,1,1,2006,1,1,INFPU07042,254
1519999792994,1568,FileUpload F27_PE7611,200,Thread Group_Prod1 1-1,true,2119,1,1,1568,1,0,INFPU07042,160
1519999796103,531,FileUpload F28_6713CSV_SkipLastBlankRow,200,Thread Group_Prod1 1-1,true,1752,1,1,531,1,0,INFPU07042,185
1519999796634,195,FileUpload F29_6713CSV_SkipInitialRow,200,Thread Group_Prod1 1-1,true,1461,1,1,195,1,0,INFPU07042,0
1519999796902,198,FileUpload F30_6713CSV_SkipMiddleBlankRows,200,Thread Group_Prod1 1-1,true,2055,1,1,197,1,0,INFPU07042,0
1519999797122,371,FileUpload F31_6713Excel_SkipInitialRow,200,Thread Group_Prod1 1-1,true,1461,1,1,371,1,0,INFPU07042,0
1519999797552,706,FileUpload F32_6713Excel_SkipLastBlankRow,200,Thread Group_Prod1 1-1,true,1752,1,1,706,1,0,INFPU07042,164
1519999799734,361,FileUpload F33_6713Excel_SkipMiddleRow,200,Thread Group_Prod1 1-1,true,2055,1,1,361,1,0,INFPU07042,0
1519999800140,191,NoFileUpload N22_PE7631_metaData,200,Thread Group_Prod1 1-1,true,604,1,1,191,1,0,INFPU07042,0
1519999800351,196,NoFileUpload N23_PE7631_metaData,200,Thread Group_Prod1 1-1,true,604,1,1,196,1,0,INFPU07042,0
1519999800561,669,NoFileUpload N24_PE7631_Autocorrect,200,Thread Group_Prod1 1-1,true,836,1,1,666,1,0,INFPU07042,226
1519999801245,264,NoFileUpload N25_PE7631,200,Thread Group_Prod1 1-1,true,830,1,1,262,1,0,INFPU07042,0
1519999801516,275,NoFileUpload N26_7045RawJson_NonNumerciData,200,Thread Group_Prod1 1-1,true,846,1,1,273,1,0,INFPU07042,0
1519999801810,268,NoFileUpload N27_7045RawJson_SkipBlankCols,200,Thread Group_Prod1 1-1,true,771,1,1,261,1,0,INFPU07042,0
1519999802097,660,NoFileUpload N28_7045RawJson_SkipNonNumericCols,200,Thread Group_Prod1 1-1,true,675,1,1,659,1,0,INFPU07042,239
1519999802770,209,NoFileUpload N29_7045RawJson_WithDimesion,200,Thread Group_Prod1 1-1,true,853,1,1,209,1,0,INFPU07042,0
1519999803008,198,NoFileUpload N30_7045RawJson_SingleNonBlankValue,200,Thread Group_Prod1 1-1,true,615,1,1,198,1,0,INFPU07042,0
1519999804679,226,NoFileUpload N31_7045RawJson_WithOtherValidation,200,Thread Group_Prod1 1-1,true,903,1,1,226,1,0,INFPU07042,0
1519999804920,235,FileUpload F34_PE7045_7045CSV_SimpleSequentialCheck,200,Thread Group_Prod1 1-1,true,2040,1,1,235,1,0,INFPU07042,0
1519999805169,932,FileUpload F35_PE7045_7045Excel_SimpleSequentialCheck,200,Thread Group_Prod1 1-1,true,2028,1,1,927,1,0,INFPU07042,337
1519999806112,203,FileUpload F36_PE7045_7045CSV_SkipBlankColumn,200,Thread Group_Prod1 1-1,true,1727,1,1,203,1,0,INFPU07042,0
1519999806339,368,FileUpload F37_PE7045_7045EXCEL_SkipBlankColumn,200,Thread Group_Prod1 1-1,true,2070,1,1,367,1,0,INFPU07042,0
1519999806727,545,FileUpload F38_PE7045_7045CSV_SkipNonNumericData,200,Thread Group_Prod1 1-1,true,1628,1,1,539,1,0,INFPU07042,167
1519999807285,400,FileUpload F39_PE7045_7045EXCEL_SkipNonNumericData,200,Thread Group_Prod1 1-1,true,2584,1,1,400,1,0,INFPU07042,0
1519999807698,210,NoFileUpload N32_PE7474_Testcase1,200,Thread Group_Prod1 1-1,true,900,1,1,210,1,0,INFPU07042,0
1519999807924,190,NoFileUpload N33_PE7474_Testcase2,200,Thread Group_Prod1 1-1,true,903,1,1,190,1,0,INFPU07042,0
1519999809584,180,NoFileUpload N34_PE7474_Testcase3,200,Thread Group_Prod1 1-1,true,815,1,1,180,1,0,INFPU07042,0
1519999809778,569,NoFileUpload N35_PE7474_Testcase4,200,Thread Group_Prod1 1-1,true,881,1,1,569,1,0,INFPU07042,194
1519999810356,199,NoFileUpload N36_PE7474_Testcase5,200,Thread Group_Prod1 1-1,true,905,1,1,199,1,0,INFPU07042,0
1519999810568,197,NoFileUpload N37_PE7474_Testcase6,200,Thread Group_Prod1 1-1,true,900,1,1,197,1,0,INFPU07042,0
1519999810792,5106,FileUpload F40_PE7474,200,Thread Group_Prod1 1-1,true,4224,1,1,5085,1,0,INFPU07042,0
1519999817371,597,NoFileUpload N38_PE7689_RefTable,200,Thread Group_Prod1 1-1,true,942,1,1,597,1,0,INFPU07042,204
1519999817981,644,NoFileUpload N39_PE7440_ISBLANK_ImpactedbyComment,200,Thread Group_Prod1 1-1,true,1070,1,1,644,1,0,INFPU07042,0
1519999820095,406,NoFileUpload N40_PE7440_ISNOTBLANK_LENGTH_ImpactedbyComment,200,Thread Group_Prod1 1-1,true,954,1,1,406,1,0,INFPU07042,0
1519999820515,746,FileUpload F41_PE5679_EqualToWithAllBlank_POSCODE=2,200,Thread Group_Prod1 1-1,false,2838,1,1,733,1,1,INFPU07042,215
1519999821280,468,FileUpload F42_PE5679_3 Null string and 1 Blank_POSCODE=2,200,Thread Group_Prod1 1-1,false,2669,1,1,458,1,1,INFPU07042,0
1519999821770,344,FileUpload F43_PE5679_2 Null String and 2 Blank_POSCODE=2,200,Thread Group_Prod1 1-1,true,2871,1,1,330,1,0,INFPU07042,0
1519999822138,1042,FileUpload F44_PE5679_1 Null String_1Data_2 Blank_POSCODE=2,200,Thread Group_Prod1 1-1,false,1746,1,1,1042,1,1,INFPU07042,287
1519999824659,273,FileUpload F45_PE5679_NoBlanksNoNullAllUnique_POSCODE=2,200,Thread Group_Prod1 1-1,false,3240,1,1,271,1,1,INFPU07042,0
1519999824955,234,FileUpload F46_PE5679_3samedata_1Blank_POSCODE=2,200,Thread Group_Prod1 1-1,false,2662,1,1,232,1,1,INFPU07042,0
1519999825203,635,FileUpload F47_PE5679_POSCODEGreaterThan2,200,Thread Group_Prod1 1-1,false,2841,1,1,630,1,1,INFPU07042,240
1519999825854,298,FileUpload F48_PE5679_POSCODEGreaterThanEqualTo2,200,Thread Group_Prod1 1-1,false,1747,1,1,298,1,1,INFPU07042,0
1519999826171,238,FileUpload F49_PE5679_LessThan,200,Thread Group_Prod1 1-1,false,2461,1,1,238,1,1,INFPU07042,0
1519999826434,244,FileUpload F50_PE5679_LessThanEqualTo1,200,Thread Group_Prod1 1-1,false,2838,1,1,244,1,1,INFPU07042,0
1519999826694,2302,FileUpload F52_PE7724_CSV_ref,200,Thread Group_Prod1 1-1,true,21361,1,1,2115,1,0,INFPU07042,168
1519999830469,2781,FileUpload F52_PE7724_Excel_ValidationMsg,200,Thread Group_Prod1 1-1,false,18269,1,1,2573,1,1,INFPU07042,164
1519999834729,2344,FileUpload F53_PE7056_uploadMultipleFile_TBC for strict or loose_Shuffle,200,Thread Group_Prod1 1-1,false,4196,1,1,2321,1,1,INFPU07042,305
1519999837095,1858,NoFileUpload N41_PE7056_validateAggregates_Fix,200,Thread Group_Prod1 1-1,false,807,1,1,1858,1,1,INFPU07042,657
1519999840423,735,NoFileUpload N42_7056_performDefaultActions_Correct as per new code,200,Thread Group_Prod1 1-1,true,674,1,1,735,1,0,INFPU07042,189
1519999841179,1640,NoFileUpload N43_7056_crossSectionChecks,200,Thread Group_Prod1 1-1,true,1316,1,1,1633,1,0,INFPU07042,0
1519999842833,1377,NoFileUpload N44_PE7241_EmailValidation -withInvalidAndValidEmailIdInDimension,200,Thread Group_Prod1 1-1,true,858,1,1,1377,1,0,INFPU07042,504
1519999845680,284,NoFileUpload N45_PE7241_EmailValidation-withAllInvalidEmailIdInDimension,200,Thread Group_Prod1 1-1,true,884,1,1,282,1,0,INFPU07042,0
1519999845991,604,NoFileUpload N46_PE7241_EmailValidation -withNullStringAndBlankEmailIdInDimension,200,Thread Group_Prod1 1-1,true,853,1,1,601,1,0,INFPU07042,268
1519999846614,265,NoFileUpload N47_PE7241_EmailValidation_withAllBlankEmailIdInDimension,200,Thread Group_Prod1 1-1,true,832,1,1,263,1,0,INFPU07042,0
1519999846897,276,NoFileUpload N48_PE7241_EmailValidation_withAllEmailIdAsNullStringInDimension,200,Thread Group_Prod1 1-1,true,853,1,1,250,1,0,INFPU07042,0
1519999847189,262,NoFileUpload N49_PE7241_EmailValidation_withAllValidEmailIdInDimension,200,Thread Group_Prod1 1-1,true,876,1,1,259,1,0,INFPU07042,0
1519999847469,551,NoFileUpload N50_PE7241_PhoneValidation_withAllBlankPhoneNumberInDimension,200,Thread Group_Prod1 1-1,true,795,1,1,551,1,0,INFPU07042,256
1519999849486,261,NoFileUpload N51_PE7241_PhoneValidation_withAllInvalidPhoneNumberInDimension,200,Thread Group_Prod1 1-1,true,897,1,1,258,1,0,INFPU07042,0
1519999849768,241,NoFileUpload N52_PE7241_PhoneValidation_withAllNullStringAndBlankPhoneNumberInDimension,200,Thread Group_Prod1 1-1,true,813,1,1,241,1,0,INFPU07042,0
1519999850033,195,NoFileUpload N53_PE7241_PhoneValidation_withAllNullStringPhoneNumberInDimension,200,Thread Group_Prod1 1-1,true,836,1,1,195,1,0,INFPU07042,0
1519999850247,249,NoFileUpload N54_PE7241_PhoneValidation_withAllValidPhoneNumberInDimension,200,Thread Group_Prod1 1-1,true,879,1,1,245,1,0,INFPU07042,0
1519999850514,473,NoFileUpload N55_PE7241_PhoneValidation_withValidAndInvalidPhoneNumberInDimension,200,Thread Group_Prod1 1-1,true,872,1,1,468,1,0,INFPU07042,222
1519999851009,257,NoFileUpload N56_PE7241_RequiredValidation__withAllNullStringInDimension,200,Thread Group_Prod1 1-1,true,872,1,1,253,1,0,INFPU07042,0
1519999851273,232,NoFileUpload N57_PE7241_RequiredValidation__withAllValidValuesInDimension,200,Thread Group_Prod1 1-1,true,858,1,1,229,1,0,INFPU07042,0
1519999851515,234,NoFileUpload N58_PE7241_RequiredValidation_withAllblankValuesInDimension ,200,Thread Group_Prod1 1-1,true,869,1,1,232,1,0,INFPU07042,0
1519999851759,249,"NoFileUpload N59_PE7241_RequiredValidation_WithNullString,BlankAndValuesInDimension",200,Thread Group_Prod1 1-1,true,889,1,1,249,1,0,INFPU07042,0
1519999852026,493,NoFileUpload N60_PE7241_RequiredValidation_WithNullStringlAndBlankInDimension,200,Thread Group_Prod1 1-1,true,875,1,1,492,1,0,INFPU07042,239
1519999852535,265,NoFileUpload N61_PE7241_RequiredValidation_WithValidAndInvalidValue,200,Thread Group_Prod1 1-1,true,879,1,1,265,1,0,INFPU07042,0
1519999852815,229,NoFileUpload N62_PE7241_CheckBoxes_UploadMultipleFile,200,Thread Group_Prod1 1-1,true,805,1,1,224,1,0,INFPU07042,0
1519999854525,254,NoFileUpload N63_PE7241_Dimension_CrossSection,200,Thread Group_Prod1 1-1,true,870,1,1,248,1,0,INFPU07042,0
1519999854792,267,NoFileUpload N64_PE7241_MDA_Dimension,200,Thread Group_Prod1 1-1,true,857,1,1,267,1,0,INFPU07042,0
1519999855079,4587,FileUpload F54_PE-7257_AllValidDateAndDoubleValue(Positive scenario),200,Thread Group_Prod1 1-1,true,19162,1,1,2865,1,0,INFPU07042,236
1519999861126,3649,FileUpload F55_PE-7257_AllValidAndInvalidDateAndDoubleValue(Negative scenario),200,Thread Group_Prod1 1-1,true,18683,1,1,3277,1,0,INFPU07042,769
1519999866233,1520,NoFileUpload N65_PE7506_crosssection_with multiple combination for LPALL_399A,200,Thread Group_Prod1 1-1,true,1319,1,1,1520,1,0,INFPU07042,393
1519999867781,1149,NoFileUpload N66_PE7506_crosssection_with 3 Dimensions for LPALL_399A,200,Thread Group_Prod1 1-1,true,1264,1,1,1146,1,0,INFPU07042,349
1519999870441,305,"NoFileUpload N67_PE7506_crosssection_13LATAM_01"": ""Y""",200,Thread Group_Prod1 1-1,true,1235,1,1,299,1,0,INFPU07042,0
1519999870756,1131,"NoFileUpload N68_PE7506_crosssection_ EE_group_13LATAM_01"": ""N""",200,Thread Group_Prod1 1-1,true,1060,1,1,1130,1,0,INFPU07042,240
1519999871901,313,NoFileUpload N69_PE7506_crosssection_when  EE_group_13LATAM is not present,200,Thread Group_Prod1 1-1,true,1032,1,1,309,1,0,INFPU07042,0
1519999872229,1094,NoFileUpload N70_PE7506_crosssection_with Dimension for LPALL_399A,200,Thread Group_Prod1 1-1,true,1316,1,1,1089,1,0,INFPU07042,263
1519999874793,469,NoFileUpload N71_PE7506_crosssection_with Dimension for LPALL_399A 1 as Y others as N,200,Thread Group_Prod1 1-1,true,1264,1,1,463,1,0,INFPU07042,0
1519999875279,1384,FileUpload F56_PE5415_MultiSheetSuccess,200,Thread Group_Prod1 1-1,true,3621,1,1,1381,1,0,INFPU07042,339
1519999876688,597,FileUpload F57_PE5415_MultiSheetBadRequest_Ignore,400,Thread Group_Prod1 1-1,false,327,1,1,597,1,1,INFPU07042,0
1519999877287,1140,FileUpload F58_PE5415_MultiSheetCorrectRequest,200,Thread Group_Prod1 1-1,true,3494,1,1,1128,1,0,INFPU07042,271
1519999879901,505,FileUpload F59_PE5415_Step1SingleSheetBadReq_Ignore,422,Thread Group_Prod1 1-1,false,1282,1,1,504,1,1,INFPU07042,0
1519999880428,1000,FileUpload F60_PE5415_Step1SingleSheetCorrectReq,200,Thread Group_Prod1 1-1,true,4665,1,1,978,1,0,INFPU07042,222
1519999881458,337,FileUpload F61_PE5415_Step3MappingCompanyJson,200,Thread Group_Prod1 1-1,true,1611,1,1,334,1,0,INFPU07042,0
1519999881823,378,FileUpload F62_PE5415_Step3MappingCompanyExcel,200,Thread Group_Prod1 1-1,true,1625,1,1,378,1,0,INFPU07042,0
1519999882297,1085,FileUpload F63_PE5415_Step3MappingColumnExcel,200,Thread Group_Prod1 1-1,false,2633,1,1,1080,1,1,INFPU07042,237
1519999884860,286,FileUpload F64_PE5415_Step3MappingColumnJson,200,Thread Group_Prod1 1-1,false,2585,1,1,282,1,1,INFPU07042,0
1519999885173,999,FileUpload F65_PE5415_Step3MappingColumnJsonWithoutCountry,200,Thread Group_Prod1 1-1,true,2131,1,1,989,1,0,INFPU07042,234
1519999886196,246,FileUpload F66_PE5415_Step3MappingColumnJsonWithCountry,200,Thread Group_Prod1 1-1,true,1611,1,1,244,1,0,INFPU07042,0
1519999886469,4069,FileUpload F67_PE8315_Fix,200,Thread Group_Prod1 1-1,false,38517,1,1,3467,1,1,INFPU07042,0
1519999892033,858,FileUpload F68_PE8037_Fix,200,Thread Group_Prod1 1-1,false,2156,1,1,849,1,1,INFPU07042,190
1519999892905,459,NoFileUpload N72_ PE5668 T1,200,Thread Group_Prod1 1-1,true,702,1,1,458,1,0,INFPU07042,0
1519999894849,293,NoFileUpload N80_PE7989_Req_NonNumericData_withAllwrongcolumn_MDA,200,Thread Group_Prod1 1-1,true,678,1,1,293,1,0,INFPU07042,0
1519999895166,720,NoFileUpload N81_PE7989_Req_NonNumericData_withAllrightcolumn_MDA,200,Thread Group_Prod1 1-1,true,846,1,1,719,1,0,INFPU07042,230
1519999895915,247,NoFileUpload N82_PE7989_Req_NonNumericData_with1wrongcolumn_MDA,200,Thread Group_Prod1 1-1,true,849,1,1,246,1,0,INFPU07042,0
1519999896193,374,NoFileUpload N83_PE7989_uploadMultipleFile,200,Thread Group_Prod1 1-1,true,835,1,1,374,1,0,INFPU07042,0
1519999896577,246,NoFileUpload N84_400 and 500 Error_crossSectionChecks,200,Thread Group_Prod1 1-1,true,619,1,1,241,1,0,INFPU07042,0
1519999896841,666,NoFileUpload N85_400 and 500 Error_crossSectionChecks,200,Thread Group_Prod1 1-1,true,648,1,1,666,1,0,INFPU07042,210
1519999897531,242,NoFileUpload N86_400 and 500 Error_crossSectionChecks,200,Thread Group_Prod1 1-1,true,647,1,1,239,1,0,INFPU07042,0
1519999897797,255,NoFileUpload N87_400 and 500 Error_crossSectionChecks,200,Thread Group_Prod1 1-1,true,501,1,1,249,1,0,INFPU07042,0
1519999899540,257,NoFileUpload N88_400 and 500 Error_crossSectionChecks,200,Thread Group_Prod1 1-1,true,619,1,1,255,1,0,INFPU07042,0
1519999899816,879,NoFileUpload N89_PE8186_to Add assertion,200,Thread Group_Prod1 1-1,true,944,1,1,879,1,0,INFPU07042,216
1519999900713,298,NoFileUpload N90_PE8032_SyntaxError1_Fix,200,Thread Group_Prod1 1-1,false,674,1,1,298,1,1,INFPU07042,0
1519999901044,253,NoFileUpload N91_PE8032_SyntaxError2_Fix,200,Thread Group_Prod1 1-1,false,674,1,1,249,1,1,INFPU07042,0
1519999901324,728,NoFileUpload N92_PE8032_InvalidColumn,200,Thread Group_Prod1 1-1,true,758,1,1,700,1,0,INFPU07042,222
1519999902086,252,NoFileUpload N93_PE7771_Exp,200,Thread Group_Prod1 1-1,true,674,1,1,251,1,0,INFPU07042,0
1519999902374,266,NoFileUpload N94_PE7771_Range,200,Thread Group_Prod1 1-1,true,917,1,1,262,1,0,INFPU07042,0
1519999902663,1416,NoFileUpload N94_PE7771_Added Scenario,200,Thread Group_Prod1 1-1,true,6106,1,1,1406,1,0,INFPU07042,0
1519999905550,916,NoFileUpload N95_PE8269 and 8397_CSC_MDA_ClearValue_Fix,200,Thread Group_Prod1 1-1,false,582,1,1,914,1,1,INFPU07042,166
1519999906477,709,NoFileUpload N96_PE8269 and 8397_CSC_OtherThanClearValue,200,Thread Group_Prod1 1-1,true,792,1,1,709,1,0,INFPU07042,0
1519999907197,1750,NoFileUpload N97_PE8269 and 8397_UMF_NonMDA,200,Thread Group_Prod1 1-1,true,833,1,1,1749,1,0,INFPU07042,692
1519999910426,1280,NoFileUpload N98_PE8269 and 8397_PDA_MDA_ClearValue_Fix,200,Thread Group_Prod1 1-1,false,576,1,1,1278,1,1,INFPU07042,253
1519999911718,483,NoFileUpload N99_PE8269 and 8397_PDA_OtherThanClearValue,200,Thread Group_Prod1 1-1,true,789,1,1,481,1,0,INFPU07042,0
1519999912209,11368,FileUpload F69_PE8584_Null Issue ,200,Thread Group_Prod1 1-1,true,14518,1,1,10994,1,0,INFPU07042,543
1519999927969,1216,FileUpload F70_PE8584,200,Thread Group_Prod1 1-1,false,16930,1,1,954,1,1,INFPU07042,382
1519999930810,611,FileUpload F71_PE8584,200,Thread Group_Prod1 1-1,true,2020,1,1,603,1,0,INFPU07042,0
1519999931431,1473,FileUpload F72_PE8584,200,Thread Group_Prod1 1-1,true,2020,1,1,1464,1,0,INFPU07042,539
1519999934509,9535,FileUpload F73_PE8584,200,Thread Group_Prod1 1-1,true,14379,1,1,9465,1,0,INFPU07042,404
1519999946973,15790,FileUpload F74_PE8584,200,Thread Group_Prod1 1-1,true,14383,1,1,15716,1,0,INFPU07042,204
1519999970072,4667,FileUpload F75_PE8584,200,Thread Group_Prod1 1-1,true,18913,1,1,4131,1,0,INFPU07042,682
1519999976217,8381,FileUpload F76_PE8584,200,Thread Group_Prod1 1-1,false,174350,1,1,5784,1,1,INFPU07042,210
1519999987535,5366,FileUpload F77_PE8584,200,Thread Group_Prod1 1-1,true,56588,1,1,4609,1,0,INFPU07042,494
1519999995833,1253,FileUpload F78_PE8584,200,Thread Group_Prod1 1-1,true,6286,1,1,1225,1,0,INFPU07042,215
1519999997102,359,NoFileUpload N100_PE8916,200,Thread Group_Prod1 1-1,false,855,1,1,359,1,1,INFPU07042,0
1519999997468,4506,FileUpload F79_PE8951_P1,200,Thread Group_Prod1 1-1,true,34584,1,1,3723,1,0,INFPU07042,333
1520000004892,4655,FileUpload F80_PE8951_P2,200,Thread Group_Prod1 1-1,true,30836,1,1,4216,1,0,INFPU07042,517
1520000011007,4340,FileUpload F81_PE8951_P3,200,Thread Group_Prod1 1-1,true,30836,1,1,3877,1,0,INFPU07042,214
1520000016807,3564,FileUpload F82_PE8951_P4,200,Thread Group_Prod1 1-1,true,30836,1,1,3280,1,0,INFPU07042,214
1520000021831,3792,FileUpload F83_PE8951_N1,400,Thread Group_Prod1 1-1,true,389,1,1,3792,1,0,INFPU07042,202
1520000027082,3221,FileUpload F84_PE8951_N2,400,Thread Group_Prod1 1-1,true,389,1,1,3221,1,0,INFPU07042,361
1520000031762,3649,FileUpload F85_PE8951_N3,400,Thread Group_Prod1 1-1,true,388,1,1,3648,1,0,INFPU07042,205
1520000036871,5189,FileUpload F86_PE8951_N4,400,Thread Group_Prod1 1-1,true,388,1,1,5188,1,0,INFPU07042,612
1520000044978,4420,FileUpload F88_8976,200,Thread Group_Prod1 1-1,false,1564,1,1,4412,1,1,INFPU07042,290
1520000050858,5736,FileUpload F87_8976,422,Thread Group_Prod1 1-1,true,1187,1,1,5735,1,0,INFPU07042,675
1520001010285,1588,FileUpload F63_PE5415_Step3MappingColumnExcel,200,Thread Group_Prod1 1-1,false,4466,1,1,1566,1,1,INFPU07042,530
