{
  "entities": [
    {
      "sectionStructure": {
        "columns": [
          {
            "code": "EMP_001",
            "displayLabel": "Entity name ",
            "dataType": "string",
            "questionType": "text",
            "validations": [],
            "mappedColumnName": "EMP_001"
          },
          {
            "code": "YOUR_EEID",
            "displayLabel": "Employee Identifier",
            "dataType": "string",
            "questionType": "text",
            "validations": [],
            "mappedColumnName": "YOUR_EEID"
          },
          {
            "code": "POS_CODE",
            "displayLabel": "Mercer Benchmark Code",
            "dataType": "string",
            "questionType": "dropdown",
            "validations": [],
            "mappedColumnName": "POS_CODE"
          },
          {
            "code": "POS_TITLE",
            "displayLabel": "Mercer Position Title",
            "dataType": "string",
            "questionType": "dropdown",
            "validations": [],
            "mappedColumnName": "POS_TITLE"
          },
          {
            "code": "YOUR_TITLE",
            "displayLabel": "Organization Job Title",
            "dataType": "string",
            "questionType": "text",
            "validations": [],
            "mappedColumnName": "YOUR_TITLE"
          },
          {
            "code": "YOUR_CODE",
            "displayLabel": "Organization Job Code",
            "dataType": "string",
            "questionType": "text",
            "validations": [],
            "mappedColumnName": "YOUR_CODE"
          },
          {
            "code": "YOUR_LEVEL",
            "displayLabel": "Organization Job Level",
            "dataType": "string",
            "questionType": "text",
            "validations": [],
            "mappedColumnName": "YOUR_LEVEL"
          },
          {
            "code": "YOUR_GRADE",
            "displayLabel": "Organization Job Grade",
            "dataType": "string",
            "questionType": "text",
            "validations": [],
            "mappedColumnName": "YOUR_GRADE"
          },
          {
            "code": "EMP_026",
            "displayLabel": "Organization's  Reports to Position Title",
            "dataType": "string",
            "questionType": "text",
            "validations": [],
            "mappedColumnName": "EMP_026"
          },
          {
            "code": "POS_CLASS",
            "displayLabel": "IPE Position Class (current year) (only for IPE users)",
            "dataType": "int",
            "questionType": "integer",
            "validations": [],
            "mappedColumnName": "POS_CLASS"
          },
          {
            "code": "EMP_032",
            "displayLabel": "Incumbent Annual Revenue",
            "dataType": "double",
            "questionType": "double",
            "validations": [],
            "mappedColumnName": "EMP_032"
          },
          {
            "code": "EMP_034",
            "displayLabel": "Assets Under Management",
            "dataType": "string",
            "questionType": "dropdown",
            "validations": [],
            "options": {
              "items": [
                {
                  "value": "1",
                  "displayName": "Less than $250K"
                },
                {
                  "value": "2",
                  "displayName": "$250K < $500K"
                },
                {
                  "value": "3",
                  "displayName": "$500K < $1MM"
                },
                {
                  "value": "4",
                  "displayName": "$1MM and above"
                },
                {
                  "value": "NA",
                  "displayName": "Not applicable"
                }
              ]
            },
            "mappedColumnName": "EMP_034"
          },
          {
            "code": "EMP_036",
            "displayLabel": "Geographic Scope of Role",
            "dataType": "string",
            "questionType": "dropdown",
            "validations": [],
            "options": {
              "items": [
                {
                  "value": "10",
                  "displayName": "Global"
                },
                {
                  "value": "20",
                  "displayName": "Multi Regional"
                },
                {
                  "value": "30",
                  "displayName": "Regional"
                },
                {
                  "value": "50",
                  "displayName": "Multi Country"
                },
                {
                  "value": "70",
                  "displayName": "In Country"
                },
                {
                  "value": "80",
                  "displayName": "District"
                },
                {
                  "value": "NA",
                  "displayName": "Not applicable"
                }
              ]
            },
            "mappedColumnName": "EMP_036"
          },
          {
            "code": "EMP_037",
            "displayLabel": "Year of Birth",
            "dataType": "int",
            "questionType": "integer",
            "validations": [],
            "mappedColumnName": "EMP_037"
          },
          {
            "code": "EMP_038",
            "displayLabel": "Employee Year of Hire",
            "dataType": "int",
            "questionType": "integer",
            "validations": [],
            "mappedColumnName": "EMP_038"
          },
          {
            "code": "EMP_039",
            "displayLabel": "Year Entered Into Position",
            "dataType": "int",
            "questionType": "integer",
            "validations": [],
            "mappedColumnName": "EMP_039"
          },
          {
            "code": "EMP_043",
            "displayLabel": "Same Incumbent 12 Months Prior",
            "dataType": "string",
            "questionType": "dropdown",
            "validations": [],
            "options": {
              "items": [
                {
                  "value": "Y",
                  "displayName": "Yes"
                },
                {
                  "value": "N",
                  "displayName": "No"
                },
                {
                  "value": "NA",
                  "displayName": "Not applicable"
                }
              ]
            },
            "mappedColumnName": "EMP_043"
          },
          {
            "code": "EMP_044",
            "displayLabel": "Gender",
            "dataType": "string",
            "questionType": "dropdown",
            "validations": [],
            "options": {
              "items": [
                {
                  "value": "F",
                  "displayName": "F - Female"
                },
                {
                  "value": "M",
                  "displayName": "M - Male"
                },
                {
                  "value": "NA",
                  "displayName": "Not applicable"
                }
              ]
            },
            "mappedColumnName": "EMP_044"
          },
          {
            "code": "EMP_049",
            "displayLabel": "Postal Code (Zip Code) job is located",
            "dataType": "string",
            "questionType": "text",
            "validations": [],
            "mappedColumnName": "EMP_049"
          },
          {
            "code": "EMP_054",
            "displayLabel": "Line of Business (P&C Insurance positions only)",
            "dataType": "string",
            "questionType": "dropdown",
            "validations": [],
            "options": {
              "items": [
                {
                  "value": "1",
                  "displayName": "Personal Lines"
                },
                {
                  "value": "2",
                  "displayName": "Commercial Lines"
                },
                {
                  "value": "3",
                  "displayName": "Multiple Personal & Commercial Lines"
                },
                {
                  "value": "4",
                  "displayName": "Industry Based Lines"
                },
                {
                  "value": "5",
                  "displayName": "Specialty Lines"
                },
                {
                  "value": "6",
                  "displayName": "Other"
                },
                {
                  "value": "NA",
                  "displayName": "Not applicable"
                }
              ]
            },
            "mappedColumnName": "EMP_054"
          },
          {
            "code": "EMP_055",
            "displayLabel": "Market Segment (P&C Insurance positions only)",
            "dataType": "string",
            "questionType": "dropdown",
            "validations": [],
            "options": {
              "items": [
                {
                  "value": "2",
                  "displayName": "Auto"
                },
                {
                  "value": "1",
                  "displayName": "Home"
                },
                {
                  "value": "3",
                  "displayName": "Commercial Property"
                },
                {
                  "value": "4",
                  "displayName": "Multiple"
                },
                {
                  "value": "5",
                  "displayName": "Other"
                },
                {
                  "value": "NA",
                  "displayName": "Not applicable"
                }
              ]
            },
            "mappedColumnName": "EMP_055"
          },
          {
            "code": "EMP_058A",
            "displayLabel": "SSO/BPO Employee",
            "dataType": "string",
            "questionType": "dropdown",
            "validations": [],
            "options": {
              "items": [
                {
                  "value": "Y",
                  "displayName": "Yes"
                },
                {
                  "value": "N",
                  "displayName": "No"
                },
                {
                  "value": "NA",
                  "displayName": "Not applicable"
                }
              ]
            },
            "mappedColumnName": "EMP_058A"
          },
          {
            "code": "EMP_061",
            "displayLabel": "Union Status",
            "dataType": "string",
            "questionType": "dropdown",
            "validations": [],
            "options": {
              "items": [
                {
                  "value": "Y",
                  "displayName": "Yes"
                },
                {
                  "value": "N",
                  "displayName": "No"
                },
                {
                  "value": "NA",
                  "displayName": "Not applicable"
                }
              ]
            },
            "mappedColumnName": "EMP_061"
          },
          {
            "code": "EMP_067",
            "displayLabel": "License Required",
            "dataType": "string",
            "questionType": "dropdown",
            "validations": [],
            "options": {
              "items": [
                {
                  "value": "Y",
                  "displayName": "Yes"
                },
                {
                  "value": "N",
                  "displayName": "No"
                },
                {
                  "value": "NA",
                  "displayName": "Not applicable"
                }
              ]
            },
            "mappedColumnName": "EMP_067"
          },
          {
            "code": "EMP_096",
            "displayLabel": "Overtime Pay Eligibility",
            "dataType": "string",
            "questionType": "dropdown",
            "validations": [],
            "options": {
              "items": [
                {
                  "value": "Y",
                  "displayName": "Yes"
                },
                {
                  "value": "N",
                  "displayName": "No"
                },
                {
                  "value": "NA",
                  "displayName": "Not applicable"
                }
              ]
            },
            "mappedColumnName": "EMP_096"
          },
          {
            "code": "EMP_097",
            "displayLabel": " Salary Effective Date",
            "dataType": "date",
            "questionType": "date",
            "validations": [],
            "mappedColumnName": "EMP_097"
          },
          {
            "code": "EMP_098",
            "displayLabel": "Contact Center Number (Contact Centre Module Participants Only) See Guide for Explanation",
            "dataType": "string",
            "questionType": "text",
            "validations": [],
            "mappedColumnName": "EMP_098"
          },
          {
            "code": "EMP_099",
            "displayLabel": "Last Performance Rating",
            "dataType": "string",
            "questionType": "dropdown",
            "validations": [],
            "options": {
              "items": [
                {
                  "value": "1",
                  "displayName": "Exceed Expectation"
                },
                {
                  "value": "2",
                  "displayName": "Meet Expectation"
                },
                {
                  "value": "3",
                  "displayName": "Below Expectation"
                },
                {
                  "value": "NA",
                  "displayName": "Not applicable"
                }
              ]
            },
            "mappedColumnName": "EMP_099"
          },
          {
            "code": "EMP_100",
            "displayLabel": "Quality of Position Match ",
            "dataType": "string",
            "questionType": "dropdown",
            "validations": [],
            "options": {
              "items": [
                {
                  "value": "1",
                  "displayName": "Less"
                },
                {
                  "value": "2",
                  "displayName": "Equal"
                },
                {
                  "value": "3",
                  "displayName": "More"
                },
                {
                  "value": "NA",
                  "displayName": "Not applicable"
                }
              ]
            },
            "mappedColumnName": "EMP_100"
          },
          {
            "code": "EMP_109",
            "displayLabel": "100% Virtual Agent",
            "dataType": "string",
            "questionType": "dropdown",
            "validations": [],
            "options": {
              "items": [
                {
                  "value": "Y",
                  "displayName": "Yes"
                },
                {
                  "value": "N",
                  "displayName": "No"
                },
                {
                  "value": "NA",
                  "displayName": "Not applicable"
                }
              ]
            },
            "mappedColumnName": "EMP_109"
          },
          {
            "code": "EMP_114",
            "displayLabel": "Sales Incentive Status for Non-Receivers",
            "dataType": "string",
            "questionType": "dropdown",
            "validations": [],
            "options": {
              "items": [
                {
                  "value": "1",
                  "displayName": "Performance goals not achieved"
                },
                {
                  "value": "2",
                  "displayName": "New employee"
                },
                {
                  "value": "3",
                  "displayName": "Payout amount not available"
                },
                {
                  "value": "4",
                  "displayName": "Plan design change"
                },
                {
                  "value": "5",
                  "displayName": "Other"
                },
                {
                  "value": "NA",
                  "displayName": "Not applicable"
                }
              ]
            },
            "mappedColumnName": "EMP_114"
          },
          {
            "code": "EMP_116",
            "displayLabel": "Discipline Code (Financial Operations positions only)",
            "dataType": "string",
            "questionType": "dropdown",
            "validations": [],
            "mappedColumnName": "EMP_116"
          },
          {
            "code": "EMP_117",
            "displayLabel": "FLSA Status",
            "dataType": "string",
            "questionType": "dropdown",
            "validations": [],
            "options": {
              "items": [
                {
                  "value": "E",
                  "displayName": "Exempt"
                },
                {
                  "value": "N",
                  "displayName": "Nonexempt"
                },
                {
                  "value": "NA",
                  "displayName": "Not applicable"
                }
              ]
            },
            "mappedColumnName": "EMP_117"
          },
          {
            "code": "EMP_118",
            "displayLabel": "Industry Segment (Consumer Finance positions only)",
            "dataType": "string",
            "questionType": "dropdown",
            "validations": [],
            "options": {
              "items": [
                {
                  "value": "1",
                  "displayName": "Consumer Lending"
                },
                {
                  "value": "2",
                  "displayName": "Mortgage"
                },
                {
                  "value": "NA",
                  "displayName": "Not applicable"
                }
              ]
            },
            "mappedColumnName": "EMP_118"
          },
          {
            "code": "EMP_119",
            "displayLabel": "Sub-Industry Segment (Consumer Finance positions only)",
            "dataType": "string",
            "questionType": "dropdown",
            "validations": [],
            "options": {
              "items": [
                {
                  "value": "1",
                  "displayName": "Traditional direct consumer finance"
                },
                {
                  "value": "2",
                  "displayName": "Traditional indirect consumer finance"
                },
                {
                  "value": "3",
                  "displayName": "Auto finance and leasing"
                },
                {
                  "value": "4",
                  "displayName": "Credit card"
                },
                {
                  "value": "5",
                  "displayName": "Home equity / real estate"
                },
                {
                  "value": "NA",
                  "displayName": "Not applicable"
                }
              ]
            },
            "mappedColumnName": "EMP_119"
          },
          {
            "code": "EMP_122",
            "displayLabel": "Pay Type",
            "dataType": "string",
            "questionType": "dropdown",
            "validations": [],
            "options": {
              "items": [
                {
                  "value": "A",
                  "displayName": "Annual"
                },
                {
                  "value": "H",
                  "displayName": "Hourly"
                },
                {
                  "value": "NA",
                  "displayName": "Not applicable"
                }
              ]
            },
            "mappedColumnName": "EMP_122"
          },
          {
            "code": "EMP_123",
            "displayLabel": "Standard Work Week (Hours)",
            "dataType": "double",
            "questionType": "double",
            "validations": [
              {
                "mda": "exclude_row",
                "message": "",
                "expression": "",
                "minError": 30,
                "validationType": "range",
                "_id": "59e87c99a811920015bcd47c",
                "category": "input_data",
                "dependentColumns": []
              }
            ],
            "mappedColumnName": "EMP_123"
          },
          {
            "code": "EMP_129",
            "displayLabel": "Annual Base Salary (Equivalent to Full Time Employment)",
            "dataType": "double",
            "questionType": "double",
            "validations": [
              {
                "mda": "exclude_row",
                "maxError": 15000,
                "maxAlert": 12000,
                "message": "",
                "expression": "",
                "minError": 7000,
                "minAlert": 10000,
                "validationType": "range",
                "_id": "59e8557f720e6d00158817b7",
                "category": "input_data",
                "dependentColumns": []
              },              
              {
                "parameter": "",
                "expression": "ISBLANK(this.EMP_129) AND ISBLANK(this.EMP_125);",
                "clientInstructions": "Please provide Annual Base Salary",
                "errorType": "ERROR",
                "message": "Annual Base Salary is blank",
                "validationType": "expression",
                "_id": "59e91b14a811920015bcd533",
                "category": "input_data",
                "dependentColumns": []
              }
            ],
            "mappedColumnName": "EMP_129"
          },
          {
            "code": "EMP_134",
            "displayLabel": "Salary Range Minimum. Do Not Report Broadband Ranges",
            "dataType": "double",
            "questionType": "double",
            "validations": [],
            "mappedColumnName": "EMP_134"
          },
          {
            "code": "EMP_136",
            "displayLabel": "Salary Range Maximum. Do Not Report Broadband Ranges",
            "dataType": "double",
            "questionType": "double",
            "validations": [],
            "mappedColumnName": "EMP_136"
          },
          {
            "code": "EMP_233",
            "displayLabel": "Short-term Incentive (Variable Bonus) Eligibility",
            "dataType": "string",
            "questionType": "dropdown",
            "validations": [],
            "options": {
              "items": [
                {
                  "value": "Y",
                  "displayName": "Yes"
                },
                {
                  "value": "N",
                  "displayName": "No"
                },
                {
                  "value": "NA",
                  "displayName": "Not applicable"
                }
              ]
            },
            "mappedColumnName": "EMP_233"
          },
          {
            "code": "EMP_234",
            "displayLabel": "Short-term Incentive (Variable Bonus) (Actual)",
            "dataType": "double",
            "questionType": "double",
            "validations": [
              {
                "parameter": "",
                "expression": "result=false;\nvalue1 = 100*(NVL(this.EMP_234,0) / NVL(this.EMP_129,1));\nmaxRatio=0;\ncareerlevel = SUBSTR(\"this.POS_CODE\",12,1);\nIF(careerlevel==\"E\";) \n\t{maxRatio=4} \nELSE \n\t{IF(careerlevel==\"M\" OR careerlevel==\"I\";) \n\t\t{maxRatio=2;} \n\t\tELSE \n\t\t{maxRatio=1;} \n\t}\n\nIF(ISBLANK(this.EMP_234) OR NVL(this.EMP_129,0)==0 OR ISBLANK(this.POS_CODE);) \n\t{result=false;}\nELSE\n\t{IF(value1>maxRatio;)\n\t\t{result=true;}\n\t\tELSE\n\t\t{result=false;}\n\t}\nresult;",
                "clientInstructions": "Please review and update",
                "errorType": "ALERT",
                "message": "Short-term Incentive (Actual) % is higher in comparison with Annual Base Salary",
                "validationType": "expression",
                "_id": "59e9335ca811920015bcd536",
                "category": "input_data",
                "dependentColumns": []
              },
              {
                "parameter": "",
                "expression": "result=0;\nvalue1 = 100*(NVL(this.EMP_234,0) / NVL(this.EMP_129,1));\nmaxRatio=0;\nIF(SUBSTR(\"this.POS_CODE\",12,1)==\"E\";) \n\t{maxRatio=4;} \n\tELSE\n\t{IF(SUBSTR(\"this.POS_CODE\",12,1)==\"M\" or SUBSTR(\"<<this.POS_CODE>>\",12,1)==\"I\";) \n\t\t{maxRatio=2;} \n\t\tELSE\n\t\t{maxRatio=1;}\n\t};\n\nIF(ISBLANK(this.EMP_234) OR NVL(this.EMP_129,0)==0 OR ISBLANK(\"this.POS_CODE\");) \n\t{result=false;}\nELSE\n\t{IF(value1>=0.3 AND value1<maxRatio;)\n\t\t{result=true;}\n\tELSE\n\t\t{result=false;}\n\t}\nresult;",
                "clientInstructions": "Please review and update",
                "errorType": "ALERT",
                "message": "Short-term Incentive (Actual) % is lower in comparison with Annual Base Salary",
                "validationType": "expression",
                "_id": "59e9335ca811920015bcd535",
                "category": "input_data",
                "dependentColumns": []
              }
            ],
            "mappedColumnName": "EMP_234"
          },
          {
            "code": "EMP_236",
            "displayLabel": "Short-term Incentive (Target) as Percentage of Base Salary",
            "dataType": "double",
            "questionType": "percentage",
            "validations": [],
            "mappedColumnName": "EMP_236"
          },
          {
            "code": "EMP_238",
            "displayLabel": "Short-term Incentive (Maximum) as Percentage of Base",
            "dataType": "double",
            "questionType": "percentage",
            "validations": [
              {
                "parameter": "",
                "expression": "result=false;\nvalue1 = 100*(NVL(this.EMP_234,0) / NVL(this.EMP_129,1));\nvalue2 = 1.1*NVL(this.EMP_238,RAND());\n\nIF(ISBLANK(this.EMP_234) OR ISBLANK(this.EMP_238) OR NVL(this.EMP_129,0)==0;) \n\t{result=false;}\nELSE\n\t{IF(value1>value2;)\n\t\t{result=true;}\n\t\tELSE\n\t\t{result=false;}\n\t}\nresult;",
                "clientInstructions": "Please review and update",
                "errorType": "ALERT",
                "message": "Short-term Incentive (Actual) values are greater than Short-term Incentive (Maximum)",
                "validationType": "expression",
                "_id": "59e93434a811920015bcd537",
                "category": "input_data",
                "dependentColumns": []
              }
            ],
            "mappedColumnName": "EMP_238"
          },
          {
            "code": "EMP_239",
            "displayLabel": "Short-term Incentive (Threshold) as Percent of Base",
            "dataType": "double",
            "questionType": "percentage",
            "validations": [
              {
                "parameter": "",
                "expression": "r1=false;\nvalue1 = 100*(NVL(this.EMP_234,0) / NVL(this.EMP_129,1));\n\nIF(ISBLANK(this.EMP_234) OR ISBLANK(this.EMP_239) OR NVL(this.EMP_129,0)==0;) \n\t{r1=false;}\nELSE\n\t{IF(ROUNDP(value1,1)<ROUNDP(this.EMP_239,1);)\n\t\t{r1=true;}\n\tELSE\n\t\t{r1=false;}\n\t}\nr1;",
                "clientInstructions": "Please review and update",
                "errorType": "ALERT",
                "message": "Short-term Incentive (Actual) as Percent of Base Salary is less than Short-term Incentive (Threshold) as Percent of Base",
                "validationType": "expression",
                "_id": "59e93546a811920015bcd538",
                "category": "input_data",
                "dependentColumns": []
              }
            ],
            "mappedColumnName": "EMP_239"
          },
          {
            "code": "EMP_240",
            "displayLabel": "Sales Incentive Eligibility",
            "dataType": "string",
            "questionType": "dropdown",
            "validations": [],
            "options": {
              "items": [
                {
                  "value": "Y",
                  "displayName": "Yes"
                },
                {
                  "value": "N",
                  "displayName": "No"
                },
                {
                  "value": "NA",
                  "displayName": "Not applicable"
                }
              ]
            },
            "mappedColumnName": "EMP_240"
          },
          {
            "code": "EMP_242",
            "displayLabel": "Sales Incentive Annual Amount (Actual)",
            "dataType": "double",
            "questionType": "double",
            "validations": [
              {
                "parameter": "",
                "expression": "r1=false;\nvalue1 = 100*(NVL(this.EMP_242,0) / NVL(this.EMP_129,1));\n\nIF(ISBLANK(this.EMP_242) OR ISBLANK(this.EMP_244) OR NVL(this.EMP_129,0)==0;) \n\t{r1=false;}\nELSE\n\t{IF(ABS(value1- NVL(this.EMP_244,0))<=0.1;)\n\t\t{r1=true;}\n\t\tELSE\n\t\t{r1=false;}\n\t}\nr1;",
                "clientInstructions": "Please review and update",
                "errorType": "ALERT",
                "message": "Sales Incentive (Actual) is greater than Sales Incentive (Maximum)",
                "validationType": "expression",
                "_id": "59e93693a811920015bcd539",
                "category": "input_data",
                "dependentColumns": []
              },
              {
                "_id": "59e8b768a811920015bcd52d",
                "validationType": "expression",
                "message": "Sales Incentive (Actual) values are same as  Sales Incentive (Target)",
                "errorType": "ALERT",
                "clientInstructions": "Please review and update",
                "expression": "r1=0;\nvalue1 = 100*(NVL(<<this.EMP_242>>,0) / NVL(<<this.EMP_129>>,1));\n\nIF(ISBLANK(<<this.EMP_242>>) OR ISBLANK(<<this.EMP_244>>) OR NVL(<<this.EMP_129>>,0)==0;) \n{r1=false;}\nELSE\n{IF(ABS(value1- NVL(<<this.EMP_244>>,0))<=0.1;)\n{r1=true;}\nELSE\n{r1=false;} r1;}\nr1;",
                "parameter": "",
                "category": "input_data",
                "dependentColumns": []
              }
            ],
            "mappedColumnName": "EMP_242"
          },
          {
            "code": "EMP_244",
            "displayLabel": "Sales Incentive (Target) as Percentage of Base",
            "dataType": "double",
            "questionType": "percentage",
            "validations": [
              {
                "parameter": "",
                "expression": "r1=0;\nvalue1 = 100*(NVL(this.EMP_242,0) / NVL(this.EMP_129,1));\n\nIF(ISBLANK(this.EMP_242) OR ISBLANK(this.EMP_244) OR NVL(this.EMP_129,0)==0;) \n{r1=false;}\nELSE\n\t{IF(ABS(value1- NVL(this.EMP_244,0))<=0.1;)\n\t\t{r1=true;}\n\tELSE\n\t\t{r1=false;}\n\t}\nr1;",
                "clientInstructions": "Please review and update",
                "errorType": "ALERT",
                "message": "Sales Incentive (Actual) values are same as Sales Incentive (Target)",
                "validationType": "expression",
                "_id": "59e936eca811920015bcd53a",
                "category": "input_data",
                "dependentColumns": []
              }
            ],
            "mappedColumnName": "EMP_244"
          },
          {
            "code": "EMP_260",
            "displayLabel": "Profit Sharing Plan Eligibility",
            "dataType": "string",
            "questionType": "dropdown",
            "validations": [],
            "options": {
              "items": [
                {
                  "value": "Y",
                  "displayName": "Yes"
                },
                {
                  "value": "N",
                  "displayName": "No"
                },
                {
                  "value": "NA",
                  "displayName": "Not applicable"
                }
              ]
            },
            "mappedColumnName": "EMP_260"
          },
          {
            "code": "EMP_261",
            "displayLabel": "Profit Sharing (Actual)",
            "dataType": "double",
            "questionType": "double",
            "validations": [],
            "mappedColumnName": "EMP_261"
          },
          {
            "code": "EMP_273",
            "displayLabel": "Short-term Incentive Status for Non-Receivers",
            "dataType": "string",
            "questionType": "dropdown",
            "validations": [],
            "options": {
              "items": [
                {
                  "value": "1",
                  "displayName": "Performance goals not achieved"
                },
                {
                  "value": "2",
                  "displayName": "New employee"
                },
                {
                  "value": "3",
                  "displayName": "Payout amount not available"
                },
                {
                  "value": "4",
                  "displayName": "Plan design change"
                },
                {
                  "value": "5",
                  "displayName": "Other"
                },
                {
                  "value": "NA",
                  "displayName": "Not applicable"
                }
              ]
            },
            "mappedColumnName": "EMP_273"
          },
          {
            "code": "EMP_278",
            "displayLabel": "Long-term Incentive Eligible",
            "dataType": "string",
            "questionType": "dropdown",
            "validations": [],
            "options": {
              "items": [
                {
                  "value": "Y",
                  "displayName": "Yes"
                },
                {
                  "value": "N",
                  "displayName": "No"
                },
                {
                  "value": "NA",
                  "displayName": "Not applicable"
                }
              ]
            },
            "mappedColumnName": "EMP_278"
          },
          {
            "code": "EMP_279",
            "displayLabel": "LTI Plan Types Offered. Enter all that apply ",
            "dataType": "string",
            "questionType": "dropdown",
            "validations": [],
            "options": {
              "items": [
                {
                  "value": "11",
                  "displayName": "Stock/Share Options"
                },
                {
                  "value": "12",
                  "displayName": "Share Appreciation Rights (SARs)"
                },
                {
                  "value": "21",
                  "displayName": "Restricted Shares/Share Units"
                },
                {
                  "value": "22",
                  "displayName": "Performance Shares/Share Units"
                },
                {
                  "value": "31",
                  "displayName": "Performance Cash Units"
                },
                {
                  "value": "32",
                  "displayName": "Long-term Cash"
                },
                {
                  "value": "NA",
                  "displayName": "Not applicable"
                }
              ]
            },
            "mappedColumnName": "EMP_279"
          },
          {
            "code": "EMP_280",
            "displayLabel": "LTI Plan Award #1. Organization LTI Plan Identifier (identifiers provided on the LTI Plans section)",
            "dataType": "string",
            "questionType": "text",
            "validations": [],
            "mappedColumnName": "EMP_280"
          },
          {
            "code": "EMP_281",
            "displayLabel": "Number of Granted Options/Shares/Performance Units or value of Granted Cash Award",
            "dataType": "double",
            "questionType": "double",
            "validations": [],
            "mappedColumnName": "EMP_281"
          },
          {
            "code": "EMP_282",
            "displayLabel": "LTI Plan Award #2. Organization LTI Plan Identifier (identifiers provided on the LTI Plans section)",
            "dataType": "string",
            "questionType": "text",
            "validations": [],
            "mappedColumnName": "EMP_282"
          },
          {
            "code": "EMP_283",
            "displayLabel": "Number of granted Options/ Shares/ Performance Units or value of granted Cash Award",
            "dataType": "double",
            "questionType": "double",
            "validations": [],
            "mappedColumnName": "EMP_283"
          },
          {
            "code": "EMP_284",
            "displayLabel": "LTI Plan Award #3. Organization LTI Plan Identifier (identifiers provided on the LTI Plans section)",
            "dataType": "string",
            "questionType": "text",
            "validations": [],
            "mappedColumnName": "EMP_284"
          },
          {
            "code": "EMP_285",
            "displayLabel": "Number of granted Options/ Shares/ Performance Units or value of granted Cash Award",
            "dataType": "double",
            "questionType": "double",
            "validations": [],
            "mappedColumnName": "EMP_285"
          },
          {
            "code": "EMP_290",
            "displayLabel": "Stock/Share Ownership Guidelines",
            "dataType": "string",
            "questionType": "dropdown",
            "validations": [],
            "options": {
              "items": [
                {
                  "value": "Y",
                  "displayName": "Yes"
                },
                {
                  "value": "N",
                  "displayName": "No"
                },
                {
                  "value": "NA",
                  "displayName": "Not applicable"
                }
              ]
            },
            "mappedColumnName": "EMP_290"
          },
          {
            "mappedColumnName": "EMP_001",
            "skip": true
          },
          {
            "mappedColumnName": "YOUR_EEID",
            "skip": true
          },
          {
            "mappedColumnName": "POS_CODE",
            "skip": true
          },
          {
            "mappedColumnName": "POS_TITLE",
            "skip": true
          },
          {
            "mappedColumnName": "EMP_010",
            "skip": true
          },
          {
            "mappedColumnName": "YOUR_TITLE",
            "skip": true
          },
          {
            "mappedColumnName": "YOUR_CODE",
            "skip": true
          },
          {
            "mappedColumnName": "EMP_020",
            "skip": true
          },
          {
            "mappedColumnName": "EMP_026",
            "skip": true
          },
          {
            "mappedColumnName": "POS_CLASS",
            "skip": true
          },
          {
            "mappedColumnName": "EMP_032",
            "skip": true
          },
          {
            "mappedColumnName": "EMP_034",
            "skip": true
          },
          {
            "mappedColumnName": "EMP_036",
            "skip": true
          },
          {
            "mappedColumnName": "EMP_037",
            "skip": true
          },
          {
            "mappedColumnName": "EMP_038",
            "skip": true
          },
          {
            "mappedColumnName": "EMP_039",
            "skip": true
          },
          {
            "mappedColumnName": "EMP_043",
            "skip": true
          },
          {
            "mappedColumnName": "EMP_044",
            "skip": true
          },
          {
            "mappedColumnName": "EMP_049",
            "skip": true
          },
          {
            "mappedColumnName": "EMP_054",
            "skip": true
          },
          {
            "mappedColumnName": "EMP_055",
            "skip": true
          },
          {
            "mappedColumnName": "EMP_061",
            "skip": true
          },
          {
            "mappedColumnName": "EMP_067",
            "skip": true
          },
          {
            "mappedColumnName": "EMP_069",
            "skip": true
          },
          {
            "mappedColumnName": "EMP_096",
            "skip": true
          },
          {
            "mappedColumnName": "EMP_097",
            "skip": true
          },
          {
            "mappedColumnName": "EMP_098",
            "skip": true
          },
          {
            "mappedColumnName": "EMP_099",
            "skip": true
          },
          {
            "mappedColumnName": "EMP_100",
            "skip": true
          },
          {
            "mappedColumnName": "EMP_109",
            "skip": true
          },
          {
            "mappedColumnName": "EMP_114",
            "skip": true
          },
          {
            "mappedColumnName": "EMP_115",
            "skip": true
          },
          {
            "mappedColumnName": "EMP_116",
            "skip": true
          },
          {
            "mappedColumnName": "EMP_117",
            "skip": true
          },
          {
            "mappedColumnName": "EMP_118",
            "skip": true
          },
          {
            "mappedColumnName": "EMP_119",
            "skip": true
          },
          {
            "mappedColumnName": "EMP_122",
            "skip": true
          },
          {
            "mappedColumnName": "EMP_123",
            "skip": true
          },
          {
            "mappedColumnName": "EMP_129",
            "skip": true
          },
          {
            "mappedColumnName": "EMP_134",
            "skip": true
          },
          {
            "mappedColumnName": "EMP_135",
            "skip": true
          },
          {
            "mappedColumnName": "EMP_136",
            "skip": true
          },
          {
            "mappedColumnName": "EMP_185",
            "skip": true
          },
          {
            "mappedColumnName": "EMP_233",
            "skip": true
          },
          {
            "mappedColumnName": "EMP_234",
            "skip": true
          },
          {
            "mappedColumnName": "EMP_236",
            "skip": true
          },
          {
            "mappedColumnName": "EMP_238",
            "skip": true
          },
          {
            "mappedColumnName": "EMP_239",
            "skip": true
          },
          {
            "mappedColumnName": "EMP_240",
            "skip": true
          },
          {
            "mappedColumnName": "EMP_242",
            "skip": true
          },
          {
            "mappedColumnName": "EMP_244",
            "skip": true
          },
          {
            "mappedColumnName": "EMP_248",
            "skip": true
          },
          {
            "mappedColumnName": "EMP_260",
            "skip": true
          },
          {
            "mappedColumnName": "EMP_261",
            "skip": true
          },
          {
            "mappedColumnName": "EMP_273",
            "skip": true
          },
          {
            "mappedColumnName": "EMP_278",
            "skip": true
          },
          {
            "mappedColumnName": "EMP_279",
            "skip": true
          },
          {
            "mappedColumnName": "EMP_280",
            "skip": true
          },
          {
            "mappedColumnName": "EMP_281",
            "skip": true
          },
          {
            "mappedColumnName": "EMP_282",
            "skip": true
          },
          {
            "mappedColumnName": "EMP_283",
            "skip": true
          },
          {
            "mappedColumnName": "EMP_284",
            "skip": true
          },
          {
            "mappedColumnName": "EMP_285",
            "skip": true
          },
          {
            "mappedColumnName": "EMP_290",
            "skip": true
          },
          {
            "mappedColumnName": "EMP_382",
            "skip": true
          },
          {
            "mappedColumnName": "EMP_388",
            "skip": true
          },
          {
            "mappedColumnName": "EMP_399",
            "skip": true
          }
        ]
      },
      "otherSectionsData": {},
      "contextData": {
        "campaignId": "597b474bfe305700157895c0",
        "companyId": "59e9b3bb22833b0016e58841",
        "companyName": "ABC",
        "sectionId": "EMP_DATA",
        "grpCode": "",
        "cpyCode": "",
        "ctryCode": "US",
        "orgSize": {
          "59e9b3bb22833b0016e58841": null
        },
        "uniqueIdColumnCode": "YOUR_EEID",
        "industry": {
          "superSector": "CG",
          "sector": "101",
          "subSector": "2670"
        }
      }
    }
  ]
}