timeStamp,elapsed,label,responseCode,threadName,success,bytes,grpThreads,allThreads,Latency,SampleCount,ErrorCount,Hostname,Connect
1512560226629,869,NoFileUpload B17_PE7033_PE7314,200,Thread Group_Prod1 1-1,true,879,1,1,868,1,0,INFPU07042,338
1512560227501,778,NoFileUpload B18_PE7033_PE7314,200,Thread Group_Prod1 1-1,false,521,1,1,778,1,1,INFPU07042,0
1512560228280,255,NoFileUpload B17_PE7044_expression,200,Thread Group_Prod1 1-1,true,516,1,1,254,1,0,INFPU07042,0
1512560228536,499,NoFileUpload B17_PE7044_range,200,Thread Group_Prod1 1-1,true,934,1,1,499,1,0,INFPU07042,0
1512560229130,1033,NoFileUpload B17_PE7044_rangeValidationRefTable,200,Thread Group_Prod1 1-1,true,928,1,1,1033,1,0,INFPU07042,253
1512560230217,294,NoFileUpload B17_PE7044_rangeValidationRefTable_dimensions,200,Thread Group_Prod1 1-1,true,967,1,1,293,1,0,INFPU07042,0
1512560230592,331,FileUpload D10_PE5216,200,Thread Group_Prod1 1-1,true,1364,1,1,331,1,0,INFPU07042,0
1512560231010,534,FileUpload D11_PE6030,200,Thread Group_Prod1 1-1,true,3265,1,1,532,1,0,INFPU07042,0
1512560231624,1030,FileUpload D12_PE6027,200,Thread Group_Prod1 1-1,true,2163,1,1,1029,1,0,INFPU07042,247
1512560232733,1418,FileUpload D12_PE7611,200,Thread Group_Prod1 1-1,true,2418,1,1,1417,1,0,INFPU07042,0
1512560234174,2030,FileUpload D12_PE7611,200,Thread Group_Prod1 1-1,true,1621,1,1,2030,1,0,INFPU07042,245
1512560236241,1809,FileUpload D12_PE7611,200,Thread Group_Prod1 1-1,true,1518,1,1,1808,1,0,INFPU07042,246
1512560238079,1281,FileUpload D12_PE7611,200,Thread Group_Prod1 1-1,true,1586,1,1,1280,1,0,INFPU07042,0
1512560239397,1784,FileUpload D12_PE7611,200,Thread Group_Prod1 1-1,true,2033,1,1,1783,1,0,INFPU07042,246
1512560241221,1296,FileUpload D12_PE7611,200,Thread Group_Prod1 1-1,true,1624,1,1,1296,1,0,INFPU07042,0
1512560242565,1826,FileUpload D12_PE7611,200,Thread Group_Prod1 1-1,true,1624,1,1,1826,1,0,INFPU07042,256
1512560244434,1069,FileUpload D12_PE7611,200,Thread Group_Prod1 1-1,true,2042,1,1,1068,1,0,INFPU07042,0
1512560245543,1789,FileUpload D12_PE7611,200,Thread Group_Prod1 1-1,true,1799,1,1,1789,1,0,INFPU07042,249
1512560247372,1302,FileUpload D12_PE7611,200,Thread Group_Prod1 1-1,true,1754,1,1,1301,1,0,INFPU07042,0
1512560248717,2097,FileUpload D13_PE5691_1Record,200,Thread Group_Prod1 1-1,true,3264,1,1,2096,1,0,INFPU07042,247
1512560250845,2032,FileUpload D15_PE5691_1Record,200,Thread Group_Prod1 1-1,true,3264,1,1,2031,1,0,INFPU07042,245
1512560252878,2081,FileUpload D16_PE7071_1Record,200,Thread Group_Prod1 1-1,true,6396,1,1,2080,1,0,INFPU07042,256
1512560254985,2049,FileUpload D17_PE7071_1Record,200,Thread Group_Prod1 1-1,true,6394,1,1,2047,1,0,INFPU07042,248
1512560257114,2123,FileUpload D18_PE7071_1Record,200,Thread Group_Prod1 1-1,true,6995,1,1,2121,1,0,INFPU07042,326
1512560259275,1802,FileUpload D20_PE7071_1Record,200,Thread Group_Prod1 1-1,true,5215,1,1,1798,1,0,INFPU07042,256
