timeStamp,elapsed,label,responseCode,threadName,success,bytes,grpThreads,allThreads,Latency,SampleCount,ErrorCount,Hostname,Connect
1512560361658,1124,NoFileUpload B17_PE7033_PE7314,200,Thread Group_Prod1 1-1,true,879,1,1,1124,1,0,INFPU07042,590
1512560362784,257,NoFileUpload B18_PE7033_PE7314,200,Thread Group_Prod1 1-1,false,521,1,1,256,1,1,INFPU07042,0
1512560363042,258,NoFileUpload B17_PE7044_expression,200,Thread Group_Prod1 1-1,true,516,1,1,258,1,0,INFPU07042,0
1512560363302,264,NoFileUpload B17_PE7044_range,200,Thread Group_Prod1 1-1,true,934,1,1,263,1,0,INFPU07042,0
1512560363647,274,NoFileUpload B17_PE7044_rangeValidationRefTable,200,Thread Group_Prod1 1-1,true,928,1,1,273,1,0,INFPU07042,0
1512560363977,1007,NoFileUpload B17_PE7044_rangeValidationRefTable_dimensions,200,Thread Group_Prod1 1-1,true,967,1,1,1007,1,0,INFPU07042,245
1512560365055,826,FileUpload D10_PE5216,200,Thread Group_Prod1 1-1,true,1364,1,1,825,1,0,INFPU07042,0
1512560365926,913,FileUpload D11_PE6030,200,Thread Group_Prod1 1-1,true,3265,1,1,912,1,0,INFPU07042,0
1512560366918,1075,FileUpload D12_PE6027,200,Thread Group_Prod1 1-1,true,2163,1,1,1075,1,0,INFPU07042,246
1512560368062,3057,FileUpload D12_PE7611,200,Thread Group_Prod1 1-1,true,2418,1,1,3056,1,0,INFPU07042,0
1512560371157,1848,FileUpload D12_PE7611,200,Thread Group_Prod1 1-1,true,1621,1,1,1847,1,0,INFPU07042,249
1512560373034,1345,FileUpload D12_PE7611,200,Thread Group_Prod1 1-1,true,1518,1,1,1344,1,0,INFPU07042,0
1512560374421,1784,FileUpload D12_PE7611,200,Thread Group_Prod1 1-1,true,1586,1,1,1784,1,0,INFPU07042,246
1512560376246,1308,FileUpload D12_PE7611,200,Thread Group_Prod1 1-1,true,2033,1,1,1308,1,0,INFPU07042,0
1512560377591,1769,FileUpload D12_PE7611,200,Thread Group_Prod1 1-1,true,1624,1,1,1769,1,0,INFPU07042,246
1512560379396,1282,FileUpload D12_PE7611,200,Thread Group_Prod1 1-1,true,1624,1,1,1281,1,0,INFPU07042,0
1512560380711,1775,FileUpload D12_PE7611,200,Thread Group_Prod1 1-1,true,2042,1,1,1773,1,0,INFPU07042,246
1512560382524,1032,FileUpload D12_PE7611,200,Thread Group_Prod1 1-1,true,1799,1,1,1032,1,0,INFPU07042,0
1512560383592,3876,FileUpload D12_PE7611,200,Thread Group_Prod1 1-1,true,1754,1,1,3876,1,0,INFPU07042,246
1512560387504,2142,FileUpload D13_PE5691_1Record,200,Thread Group_Prod1 1-1,true,3264,1,1,2141,1,0,INFPU07042,247
1512560389689,2327,FileUpload D15_PE5691_1Record,200,Thread Group_Prod1 1-1,true,3264,1,1,2326,1,0,INFPU07042,250
1512560392017,2176,FileUpload D16_PE7071_1Record,200,Thread Group_Prod1 1-1,true,6396,1,1,2175,1,0,INFPU07042,332
1512560394246,1790,FileUpload D17_PE7071_1Record,200,Thread Group_Prod1 1-1,true,7148,1,1,1786,1,0,INFPU07042,252
1512560396062,1290,FileUpload D18_PE7071_1Record,200,Thread Group_Prod1 1-1,true,6995,1,1,1288,1,0,INFPU07042,0
1512560397386,2067,FileUpload D20_PE7071_1Record,200,Thread Group_Prod1 1-1,true,5215,1,1,2065,1,0,INFPU07042,248
1512563645116,2538,NoFileUpload B17_PE7033_PE7314,200,Thread Group_Prod1 1-1,true,879,1,1,2537,1,0,INFPU07042,328
1512563647659,2393,NoFileUpload B18_PE7033_PE7314,200,Thread Group_Prod1 1-1,false,521,1,1,2393,1,1,INFPU07042,247
1512563650052,2536,NoFileUpload B17_PE7044_expression,200,Thread Group_Prod1 1-1,true,516,1,1,2536,1,0,INFPU07042,257
1512563652588,3576,NoFileUpload B17_PE7044_range,200,Thread Group_Prod1 1-1,true,934,1,1,3576,1,0,INFPU07042,245
1512563656222,3584,NoFileUpload B17_PE7044_rangeValidationRefTable,200,Thread Group_Prod1 1-1,true,928,1,1,3584,1,0,INFPU07042,245
1512563659862,3622,NoFileUpload B17_PE7044_rangeValidationRefTable_dimensions,200,Thread Group_Prod1 1-1,true,967,1,1,3622,1,0,INFPU07042,254
1512563663536,2872,FileUpload D10_PE5216,200,Thread Group_Prod1 1-1,true,1364,1,1,2872,1,0,INFPU07042,261
1512563666487,4335,FileUpload D11_PE6030,200,Thread Group_Prod1 1-1,true,3265,1,1,4333,1,0,INFPU07042,248
1512563670896,3634,FileUpload D12_PE6027,200,Thread Group_Prod1 1-1,true,2163,1,1,3633,1,0,INFPU07042,254
1512563674598,10648,FileUpload D12_PE7611,200,Thread Group_Prod1 1-1,true,2418,1,1,10647,1,0,INFPU07042,246
1512563685268,9078,FileUpload D12_PE7611,200,Thread Group_Prod1 1-1,true,1621,1,1,9077,1,0,INFPU07042,336
1512563694375,9104,FileUpload D12_PE7611,200,Thread Group_Prod1 1-1,true,1518,1,1,9104,1,0,INFPU07042,248
1512563703513,8944,FileUpload D12_PE7611,200,Thread Group_Prod1 1-1,true,1586,1,1,8942,1,0,INFPU07042,249
1512563712488,8419,FileUpload D12_PE7611,200,Thread Group_Prod1 1-1,true,2033,1,1,8419,1,0,INFPU07042,254
1512563720951,8903,FileUpload D12_PE7611,200,Thread Group_Prod1 1-1,true,1624,1,1,8903,1,0,INFPU07042,362
1512563729895,9004,FileUpload D12_PE7611,200,Thread Group_Prod1 1-1,true,1624,1,1,9002,1,0,INFPU07042,256
1512563738935,9364,FileUpload D12_PE7611,200,Thread Group_Prod1 1-1,true,2042,1,1,9364,1,0,INFPU07042,248
1512563748320,9147,FileUpload D12_PE7611,200,Thread Group_Prod1 1-1,true,1799,1,1,9147,1,0,INFPU07042,252
1512563757504,8958,FileUpload D12_PE7611,200,Thread Group_Prod1 1-1,true,1754,1,1,8954,1,0,INFPU07042,318
1512563766499,8803,FileUpload D13_PE5691_1Record,200,Thread Group_Prod1 1-1,true,3264,1,1,8802,1,0,INFPU07042,246
1512563775336,6539,FileUpload D15_PE5691_1Record,200,Thread Group_Prod1 1-1,true,3264,1,1,6538,1,0,INFPU07042,247
1512563781876,5966,FileUpload D16_PE7071_1Record,200,Thread Group_Prod1 1-1,true,6396,1,1,5962,1,0,INFPU07042,247
1512563787880,5748,FileUpload D17_PE7071_1Record,200,Thread Group_Prod1 1-1,true,7148,1,1,5747,1,0,INFPU07042,323
1512563793692,9059,FileUpload D18_PE7071_1Record,200,Thread Group_Prod1 1-1,true,6995,1,1,9057,1,0,INFPU07042,250
1512563802790,9415,FileUpload D20_PE7071_1Record,200,Thread Group_Prod1 1-1,true,5215,1,1,9414,1,0,INFPU07042,246
1512564033382,1082,NoFileUpload B17_PE7033,200,Thread Group_Prod1 1-1,true,879,1,1,1082,1,0,INFPU07042,337
1512564034465,272,NoFileUpload B18_PE7314,500,Thread Group_Prod1 1-1,false,404,1,1,271,1,1,INFPU07042,0
1512564034738,794,NoFileUpload B17_PE7044_expression,200,Thread Group_Prod1 1-1,true,516,1,1,794,1,0,INFPU07042,254
1512564035533,605,NoFileUpload B17_PE7044_range,200,Thread Group_Prod1 1-1,true,934,1,1,596,1,0,INFPU07042,0
1512564036210,275,NoFileUpload B17_PE7044_rangeValidationRefTable,200,Thread Group_Prod1 1-1,true,928,1,1,275,1,0,INFPU07042,0
1512564036536,275,NoFileUpload B17_PE7044_rangeValidationRefTable_dimensions,200,Thread Group_Prod1 1-1,true,967,1,1,275,1,0,INFPU07042,0
1512564036874,753,FileUpload D10_PE5216,200,Thread Group_Prod1 1-1,true,1364,1,1,753,1,0,INFPU07042,246
1512564037703,631,FileUpload D11_PE6030,200,Thread Group_Prod1 1-1,true,3265,1,1,629,1,0,INFPU07042,0
1512564038396,571,FileUpload D12_PE6027,200,Thread Group_Prod1 1-1,true,2163,1,1,570,1,0,INFPU07042,0
1512564039025,2418,FileUpload D12_PE7611,200,Thread Group_Prod1 1-1,true,2418,1,1,2417,1,0,INFPU07042,247
1512564041475,1970,FileUpload D12_PE7611,200,Thread Group_Prod1 1-1,true,1621,1,1,1969,1,0,INFPU07042,251
1512564043475,1307,FileUpload D12_PE7611,200,Thread Group_Prod1 1-1,true,1518,1,1,1307,1,0,INFPU07042,0
1512564044810,2523,FileUpload D12_PE7611,200,Thread Group_Prod1 1-1,true,1586,1,1,2522,1,0,INFPU07042,246
1512564047366,2164,FileUpload D12_PE7611,200,Thread Group_Prod1 1-1,true,2033,1,1,2163,1,0,INFPU07042,257
1512564049550,2349,FileUpload D12_PE7611,200,Thread Group_Prod1 1-1,true,1624,1,1,2347,1,0,INFPU07042,245
1512564051921,2190,FileUpload D12_PE7611,200,Thread Group_Prod1 1-1,true,1624,1,1,2189,1,0,INFPU07042,249
1512564054137,2164,FileUpload D12_PE7611,200,Thread Group_Prod1 1-1,true,2042,1,1,2163,1,0,INFPU07042,250
1512564056335,2020,FileUpload D12_PE7611,200,Thread Group_Prod1 1-1,true,1799,1,1,2020,1,0,INFPU07042,246
1512564058385,2133,FileUpload D12_PE7611,200,Thread Group_Prod1 1-1,true,1754,1,1,2133,1,0,INFPU07042,245
1512564060573,2061,FileUpload D13_PE5691_1Record,200,Thread Group_Prod1 1-1,true,3264,1,1,2060,1,0,INFPU07042,246
1512564062666,2284,FileUpload D15_PE5691_1Record,200,Thread Group_Prod1 1-1,true,3264,1,1,2283,1,0,INFPU07042,246
1512564064950,2231,FileUpload D16_PE7071_1Record,200,Thread Group_Prod1 1-1,true,6396,1,1,2229,1,0,INFPU07042,320
1512564067216,2002,FileUpload D17_PE7071_1Record,200,Thread Group_Prod1 1-1,true,6394,1,1,2001,1,0,INFPU07042,245
1512564069273,2006,FileUpload D18_PE7071_1Record,200,Thread Group_Prod1 1-1,true,6995,1,1,2004,1,0,INFPU07042,248
1512564071314,1785,FileUpload D20_PE7071_1Record,200,Thread Group_Prod1 1-1,true,5215,1,1,1784,1,0,INFPU07042,249
1512564699601,841,NoFileUpload B17_PE7033,200,Thread Group_Prod1 1-1,true,879,1,1,840,1,0,INFPU07042,319
1512564700443,249,NoFileUpload B18_PE7314,500,Thread Group_Prod1 1-1,false,404,1,1,248,1,1,INFPU07042,0
1512564700693,741,NoFileUpload B17_PE7044_expression,200,Thread Group_Prod1 1-1,true,516,1,1,740,1,0,INFPU07042,246
1512564701435,495,NoFileUpload B17_PE7044_range,200,Thread Group_Prod1 1-1,true,934,1,1,494,1,0,INFPU07042,0
1512564702002,265,NoFileUpload B17_PE7044_rangeValidationRefTable,200,Thread Group_Prod1 1-1,true,928,1,1,265,1,0,INFPU07042,0
1512564702304,264,NoFileUpload B17_PE7044_rangeValidationRefTable_dimensions,200,Thread Group_Prod1 1-1,true,967,1,1,264,1,0,INFPU07042,0
1512564702627,264,FileUpload D10_PE5216,200,Thread Group_Prod1 1-1,true,1364,1,1,264,1,0,INFPU07042,0
1512564702950,1029,FileUpload D11_PE6030,200,Thread Group_Prod1 1-1,true,3265,1,1,1029,1,0,INFPU07042,246
1512564704048,522,FileUpload D12_PE6027,200,Thread Group_Prod1 1-1,true,2163,1,1,521,1,0,INFPU07042,0
1512564704642,1288,FileUpload D12_PE7611,200,Thread Group_Prod1 1-1,true,2418,1,1,1288,1,0,INFPU07042,0
1512564705964,2009,FileUpload D12_PE7611,200,Thread Group_Prod1 1-1,true,1621,1,1,2008,1,0,INFPU07042,247
1512564708004,1768,FileUpload D12_PE7611,200,Thread Group_Prod1 1-1,true,1518,1,1,1768,1,0,INFPU07042,246
1512564709805,1273,FileUpload D12_PE7611,200,Thread Group_Prod1 1-1,true,1586,1,1,1273,1,0,INFPU07042,0
1512564711112,1778,FileUpload D12_PE7611,200,Thread Group_Prod1 1-1,true,2033,1,1,1777,1,0,INFPU07042,249
1512564712919,1040,FileUpload D12_PE7611,200,Thread Group_Prod1 1-1,true,1624,1,1,1040,1,0,INFPU07042,0
1512564713982,2004,FileUpload D12_PE7611,200,Thread Group_Prod1 1-1,true,1624,1,1,2004,1,0,INFPU07042,246
1512564716019,1795,FileUpload D12_PE7611,200,Thread Group_Prod1 1-1,true,2042,1,1,1795,1,0,INFPU07042,251
1512564717844,1307,FileUpload D12_PE7611,200,Thread Group_Prod1 1-1,true,1799,1,1,1307,1,0,INFPU07042,0
1512564719189,1762,FileUpload D12_PE7611,200,Thread Group_Prod1 1-1,true,1754,1,1,1762,1,0,INFPU07042,247
1512564720990,1522,FileUpload D13_PE5691_1Record,200,Thread Group_Prod1 1-1,true,3264,1,1,1522,1,0,INFPU07042,0
1512564722554,2330,FileUpload D15_PE5691_1Record,200,Thread Group_Prod1 1-1,true,3264,1,1,2330,1,0,INFPU07042,254
1512564724885,2045,FileUpload D16_PE7071_1Record,200,Thread Group_Prod1 1-1,true,6396,1,1,2044,1,0,INFPU07042,250
1512564726961,2024,FileUpload D17_PE7071_1Record,200,Thread Group_Prod1 1-1,true,6394,1,1,2023,1,0,INFPU07042,248
1512564729023,2014,FileUpload D18_PE7071_1Record,200,Thread Group_Prod1 1-1,true,6995,1,1,2012,1,0,INFPU07042,246
1512564731075,2158,FileUpload D20_PE7071_1Record,200,Thread Group_Prod1 1-1,true,5215,1,1,2156,1,0,INFPU07042,324
1512564739483,762,NoFileUpload B17_PE7033,200,Thread Group_Prod1 1-1,true,879,1,1,762,1,0,INFPU07042,245
1512564740247,250,NoFileUpload B18_PE7314,200,Thread Group_Prod1 1-1,false,521,1,1,250,1,1,INFPU07042,0
1512564740498,250,NoFileUpload B17_PE7044_expression,200,Thread Group_Prod1 1-1,true,516,1,1,249,1,0,INFPU07042,0
1512564740749,253,NoFileUpload B17_PE7044_range,200,Thread Group_Prod1 1-1,true,934,1,1,253,1,0,INFPU07042,0
1512564741079,261,NoFileUpload B17_PE7044_rangeValidationRefTable,200,Thread Group_Prod1 1-1,true,928,1,1,261,1,0,INFPU07042,0
1512564741376,263,NoFileUpload B17_PE7044_rangeValidationRefTable_dimensions,200,Thread Group_Prod1 1-1,true,967,1,1,263,1,0,INFPU07042,0
1512564741714,754,FileUpload D10_PE5216,200,Thread Group_Prod1 1-1,true,1364,1,1,754,1,0,INFPU07042,249
1512564742553,516,FileUpload D11_PE6030,200,Thread Group_Prod1 1-1,true,3265,1,1,515,1,0,INFPU07042,0
1512564743138,530,FileUpload D12_PE6027,200,Thread Group_Prod1 1-1,true,2163,1,1,529,1,0,INFPU07042,0
1512564743736,2045,FileUpload D12_PE7611,200,Thread Group_Prod1 1-1,true,2418,1,1,2044,1,0,INFPU07042,251
1512564745809,2064,FileUpload D12_PE7611,200,Thread Group_Prod1 1-1,true,1621,1,1,2064,1,0,INFPU07042,256
1512564747906,1996,FileUpload D12_PE7611,200,Thread Group_Prod1 1-1,true,1518,1,1,1996,1,0,INFPU07042,247
1512564749926,2073,FileUpload D12_PE7611,200,Thread Group_Prod1 1-1,true,1586,1,1,2072,1,0,INFPU07042,256
1512564752032,1752,FileUpload D12_PE7611,200,Thread Group_Prod1 1-1,true,2033,1,1,1751,1,0,INFPU07042,247
1512564753820,1345,FileUpload D12_PE7611,200,Thread Group_Prod1 1-1,true,1624,1,1,1345,1,0,INFPU07042,0
1512564755194,1776,FileUpload D12_PE7611,200,Thread Group_Prod1 1-1,true,1624,1,1,1775,1,0,INFPU07042,249
1512564756992,1280,FileUpload D12_PE7611,200,Thread Group_Prod1 1-1,true,2042,1,1,1279,1,0,INFPU07042,0
1512564758298,2077,FileUpload D12_PE7611,200,Thread Group_Prod1 1-1,true,1799,1,1,2077,1,0,INFPU07042,258
1512564760410,2007,FileUpload D12_PE7611,200,Thread Group_Prod1 1-1,true,1754,1,1,2007,1,0,INFPU07042,247
1512564762429,2115,FileUpload D13_PE5691_1Record,200,Thread Group_Prod1 1-1,true,3264,1,1,2114,1,0,INFPU07042,323
1512564764581,2066,FileUpload D15_PE5691_1Record,200,Thread Group_Prod1 1-1,true,3264,1,1,2065,1,0,INFPU07042,254
1512564766648,2017,FileUpload D16_PE7071_1Record,200,Thread Group_Prod1 1-1,true,6396,1,1,2015,1,0,INFPU07042,245
1512564768698,1757,FileUpload D17_PE7071_1Record,200,Thread Group_Prod1 1-1,true,6394,1,1,1754,1,0,INFPU07042,246
1512564770509,1277,FileUpload D18_PE7071_1Record,200,Thread Group_Prod1 1-1,true,6995,1,1,1274,1,0,INFPU07042,0
1512564771803,2042,FileUpload D20_PE7071_1Record,200,Thread Group_Prod1 1-1,true,5215,1,1,2041,1,0,INFPU07042,250
1512564882134,894,NoFileUpload B17_PE7033,200,Thread Group_Prod1 1-1,true,879,1,1,894,1,0,INFPU07042,339
1512564883028,263,NoFileUpload B18_PE7314,200,Thread Group_Prod1 1-1,true,521,1,1,263,1,0,INFPU07042,0
1512564883310,263,NoFileUpload B17_PE7044_expression,200,Thread Group_Prod1 1-1,true,516,1,1,262,1,0,INFPU07042,0
1512564883574,262,NoFileUpload B17_PE7044_range,200,Thread Group_Prod1 1-1,true,934,1,1,262,1,0,INFPU07042,0
1512564883915,279,NoFileUpload B17_PE7044_rangeValidationRefTable,200,Thread Group_Prod1 1-1,true,928,1,1,279,1,0,INFPU07042,0
1512564884253,1018,NoFileUpload B17_PE7044_rangeValidationRefTable_dimensions,200,Thread Group_Prod1 1-1,true,967,1,1,1017,1,0,INFPU07042,246
1512564885340,271,FileUpload D10_PE5216,200,Thread Group_Prod1 1-1,true,1364,1,1,271,1,0,INFPU07042,0
1512564885690,567,FileUpload D11_PE6030,200,Thread Group_Prod1 1-1,true,3265,1,1,566,1,0,INFPU07042,0
1512564886322,1018,FileUpload D12_PE6027,200,Thread Group_Prod1 1-1,true,2163,1,1,1017,1,0,INFPU07042,249
1512564887409,1289,FileUpload D12_PE7611,200,Thread Group_Prod1 1-1,true,2418,1,1,1288,1,0,INFPU07042,0
1512564888730,2072,FileUpload D12_PE7611,200,Thread Group_Prod1 1-1,true,1621,1,1,2071,1,0,INFPU07042,250
1512564890832,2030,FileUpload D12_PE7611,200,Thread Group_Prod1 1-1,true,1518,1,1,2029,1,0,INFPU07042,248
1512564892892,1808,FileUpload D12_PE7611,200,Thread Group_Prod1 1-1,true,1586,1,1,1808,1,0,INFPU07042,254
1512564894729,1312,FileUpload D12_PE7611,200,Thread Group_Prod1 1-1,true,2033,1,1,1312,1,0,INFPU07042,0
1512564896081,1757,FileUpload D12_PE7611,200,Thread Group_Prod1 1-1,true,1624,1,1,1757,1,0,INFPU07042,249
1512564897876,1265,FileUpload D12_PE7611,200,Thread Group_Prod1 1-1,true,1624,1,1,1264,1,0,INFPU07042,0
1512564899175,2002,FileUpload D12_PE7611,200,Thread Group_Prod1 1-1,true,2042,1,1,2001,1,0,INFPU07042,246
1512564901208,1994,FileUpload D12_PE7611,200,Thread Group_Prod1 1-1,true,1799,1,1,1994,1,0,INFPU07042,245
1512564903240,1832,FileUpload D12_PE7611,200,Thread Group_Prod1 1-1,true,1754,1,1,1832,1,0,INFPU07042,255
1512564905110,1561,FileUpload D13_PE5691_1Record,200,Thread Group_Prod1 1-1,true,3264,1,1,1560,1,0,INFPU07042,0
1512564906704,2345,FileUpload D15_PE5691_1Record,200,Thread Group_Prod1 1-1,true,3264,1,1,2344,1,0,INFPU07042,258
1512564909050,1756,FileUpload D16_PE7071_1Record,200,Thread Group_Prod1 1-1,true,6396,1,1,1753,1,0,INFPU07042,249
1512564910831,1263,FileUpload D17_PE7071_1Record,200,Thread Group_Prod1 1-1,true,6394,1,1,1261,1,0,INFPU07042,0
1512564912130,2003,FileUpload D18_PE7071_1Record,200,Thread Group_Prod1 1-1,true,6995,1,1,2001,1,0,INFPU07042,245
1512564914170,2083,FileUpload D20_PE7071_1Record,200,Thread Group_Prod1 1-1,true,5215,1,1,2082,1,0,INFPU07042,329
1512567141979,867,NoFileUpload B17_PE7033,200,Thread Group_Prod1 1-1,true,879,1,1,867,1,0,INFPU07042,317
1512567142848,252,NoFileUpload B18_PE7314,200,Thread Group_Prod1 1-1,false,521,1,1,249,1,1,INFPU07042,0
1512567143111,251,NoFileUpload B17_PE7044_expression,200,Thread Group_Prod1 1-1,true,516,1,1,251,1,0,INFPU07042,0
1512567143363,249,NoFileUpload B17_PE7044_range,200,Thread Group_Prod1 1-1,true,934,1,1,248,1,0,INFPU07042,0
1512567143658,267,NoFileUpload B17_PE7044_rangeValidationRefTable,200,Thread Group_Prod1 1-1,true,928,1,1,267,1,0,INFPU07042,0
1512567143969,272,NoFileUpload B17_PE7044_rangeValidationRefTable_dimensions,200,Thread Group_Prod1 1-1,true,967,1,1,272,1,0,INFPU07042,0
1512567144284,744,FileUpload D10_PE5216,200,Thread Group_Prod1 1-1,true,1364,1,1,744,1,0,INFPU07042,245
1512567145082,537,FileUpload D11_PE6030,200,Thread Group_Prod1 1-1,true,3265,1,1,520,1,0,INFPU07042,0
1512567145673,519,FileUpload D12_PE6027,200,Thread Group_Prod1 1-1,true,2163,1,1,519,1,0,INFPU07042,0
1512567146231,1296,FileUpload D12_PE7611,200,Thread Group_Prod1 1-1,true,2418,1,1,1293,1,0,INFPU07042,0
1512567147551,1757,FileUpload D12_PE7611,200,Thread Group_Prod1 1-1,true,1621,1,1,1756,1,0,INFPU07042,246
1512567149333,1257,FileUpload D12_PE7611,200,Thread Group_Prod1 1-1,true,1518,1,1,1257,1,0,INFPU07042,0
1512567150630,2029,FileUpload D12_PE7611,200,Thread Group_Prod1 1-1,true,1586,1,1,2029,1,0,INFPU07042,248
1512567152671,1999,FileUpload D12_PE7611,200,Thread Group_Prod1 1-1,true,2033,1,1,1999,1,0,INFPU07042,248
1512567154691,1787,FileUpload D12_PE7611,200,Thread Group_Prod1 1-1,true,1624,1,1,1787,1,0,INFPU07042,250
1512567156515,1285,FileUpload D12_PE7611,200,Thread Group_Prod1 1-1,true,1624,1,1,1285,1,0,INFPU07042,0
1512567157834,1991,FileUpload D12_PE7611,200,Thread Group_Prod1 1-1,true,2042,1,1,1991,1,0,INFPU07042,245
1512567159870,2088,FileUpload D12_PE7611,200,Thread Group_Prod1 1-1,true,1799,1,1,2087,1,0,INFPU07042,247
1512567161998,2098,FileUpload D12_PE7611,200,Thread Group_Prod1 1-1,true,1754,1,1,2098,1,0,INFPU07042,245
1512567164108,2334,FileUpload D13_PE5691_1Record,200,Thread Group_Prod1 1-1,true,3264,1,1,2334,1,0,INFPU07042,246
1512567166483,2051,FileUpload D15_PE5691_1Record,200,Thread Group_Prod1 1-1,true,3264,1,1,2050,1,0,INFPU07042,248
1512567168534,2084,FileUpload D16_PE7071_1Record,200,Thread Group_Prod1 1-1,true,6396,1,1,2083,1,0,INFPU07042,251
1512567170642,2920,FileUpload D17_PE7071_1Record,200,Thread Group_Prod1 1-1,true,6394,1,1,2918,1,0,INFPU07042,246
1512567173611,2113,FileUpload D18_PE7071_1Record,200,Thread Group_Prod1 1-1,true,6995,1,1,2110,1,0,INFPU07042,314
1512567175759,2060,FileUpload D20_PE7071_1Record,200,Thread Group_Prod1 1-1,true,5215,1,1,2058,1,0,INFPU07042,245
1512568351428,843,NoFileUpload B17_PE7033,200,Thread Group_Prod1 1-1,true,879,1,1,843,1,0,INFPU07042,318
1512568352272,254,NoFileUpload B18_PE7314,200,Thread Group_Prod1 1-1,true,531,1,1,254,1,0,INFPU07042,0
1512568352574,251,NoFileUpload B17_PE7044_expression,200,Thread Group_Prod1 1-1,true,516,1,1,251,1,0,INFPU07042,0
1512568352827,260,NoFileUpload B17_PE7044_range,200,Thread Group_Prod1 1-1,true,934,1,1,260,1,0,INFPU07042,0
1512568353132,270,NoFileUpload B17_PE7044_rangeValidationRefTable,200,Thread Group_Prod1 1-1,true,928,1,1,270,1,0,INFPU07042,0
1512568353450,990,NoFileUpload B17_PE7044_rangeValidationRefTable_dimensions,200,Thread Group_Prod1 1-1,true,967,1,1,990,1,0,INFPU07042,245
1512568354524,256,FileUpload D10_PE5216,200,Thread Group_Prod1 1-1,true,1364,1,1,256,1,0,INFPU07042,0
1512568354851,516,FileUpload D11_PE6030,200,Thread Group_Prod1 1-1,true,3265,1,1,515,1,0,INFPU07042,0
1512568355433,505,FileUpload D12_PE6027,200,Thread Group_Prod1 1-1,true,2163,1,1,505,1,0,INFPU07042,0
1512568356008,1771,FileUpload D12_PE7611,200,Thread Group_Prod1 1-1,true,2418,1,1,1771,1,0,INFPU07042,246
1512568357818,1275,FileUpload D12_PE7611,200,Thread Group_Prod1 1-1,true,1621,1,1,1274,1,0,INFPU07042,0
1512568359105,1811,FileUpload D12_PE7611,200,Thread Group_Prod1 1-1,true,1518,1,1,1810,1,0,INFPU07042,254
1512568360938,1299,FileUpload D12_PE7611,200,Thread Group_Prod1 1-1,true,1586,1,1,1299,1,0,INFPU07042,0
1512568362262,2005,FileUpload D12_PE7611,200,Thread Group_Prod1 1-1,true,2033,1,1,2005,1,0,INFPU07042,246
1512568364304,1996,FileUpload D12_PE7611,200,Thread Group_Prod1 1-1,true,1624,1,1,1995,1,0,INFPU07042,247
1512568366347,1990,FileUpload D12_PE7611,200,Thread Group_Prod1 1-1,true,1624,1,1,1989,1,0,INFPU07042,247
1512568368376,1747,FileUpload D12_PE7611,200,Thread Group_Prod1 1-1,true,2042,1,1,1746,1,0,INFPU07042,246
1512568370160,1262,FileUpload D12_PE7611,200,Thread Group_Prod1 1-1,true,1799,1,1,1262,1,0,INFPU07042,0
1512568371432,1994,FileUpload D12_PE7611,200,Thread Group_Prod1 1-1,true,1754,1,1,1994,1,0,INFPU07042,245
1512568373451,2232,FileUpload D13_PE5691_1Record,200,Thread Group_Prod1 1-1,true,3264,1,1,2231,1,0,INFPU07042,247
1512568375696,2079,FileUpload D15_PE5691_1Record,200,Thread Group_Prod1 1-1,true,3264,1,1,2078,1,0,INFPU07042,256
1512568377776,1992,FileUpload D16_PE7071_1Record,200,Thread Group_Prod1 1-1,true,6396,1,1,1990,1,0,INFPU07042,246
1512568379807,1809,FileUpload D17_PE7071_1Record,200,Thread Group_Prod1 1-1,true,6394,1,1,1808,1,0,INFPU07042,255
1512568381679,1304,FileUpload D18_PE7071_1Record,200,Thread Group_Prod1 1-1,true,6995,1,1,1302,1,0,INFPU07042,0
1512568383026,2061,FileUpload D20_PE7071_1Record,200,Thread Group_Prod1 1-1,true,5215,1,1,2059,1,0,INFPU07042,315
1512568602008,884,NoFileUpload B17_PE7033,200,Thread Group_Prod1 1-1,true,879,1,1,884,1,0,INFPU07042,329
1512568602894,261,NoFileUpload B18_PE7314,200,Thread Group_Prod1 1-1,true,531,1,1,261,1,0,INFPU07042,0
1512568603184,250,NoFileUpload B17_PE7044_expression,200,Thread Group_Prod1 1-1,true,516,1,1,250,1,0,INFPU07042,0
1512568603435,257,NoFileUpload B17_PE7044_range,200,Thread Group_Prod1 1-1,true,934,1,1,257,1,0,INFPU07042,0
1512568603784,371,NoFileUpload B17_PE7044_rangeValidationRefTable,200,Thread Group_Prod1 1-1,true,928,1,1,371,1,0,INFPU07042,0
1512568604212,995,NoFileUpload B17_PE7044_rangeValidationRefTable_dimensions,200,Thread Group_Prod1 1-1,true,967,1,1,995,1,0,INFPU07042,248
1512568605281,246,FileUpload D10_PE5216,404,Thread Group_Prod1 1-1,false,109,1,1,246,1,1,INFPU07042,0
1512568605591,245,FileUpload D11_PE6030,404,Thread Group_Prod1 1-1,false,109,1,1,245,1,1,INFPU07042,0
1512568605891,246,FileUpload D12_PE6027,404,Thread Group_Prod1 1-1,false,109,1,1,246,1,1,INFPU07042,0
1512568606197,737,FileUpload D12_PE7611,404,Thread Group_Prod1 1-1,false,109,1,1,737,1,1,INFPU07042,0
1512568606962,1721,FileUpload D12_PE7611,404,Thread Group_Prod1 1-1,false,109,1,1,1721,1,1,INFPU07042,246
1512568608718,698,FileUpload D12_PE7611,404,Thread Group_Prod1 1-1,false,109,1,1,698,1,1,INFPU07042,0
1512568609426,1543,FileUpload D12_PE7611,404,Thread Group_Prod1 1-1,false,109,1,1,1543,1,1,INFPU07042,250
1512568610997,719,FileUpload D12_PE7611,404,Thread Group_Prod1 1-1,false,109,1,1,719,1,1,INFPU07042,0
1512568611724,1776,FileUpload D12_PE7611,404,Thread Group_Prod1 1-1,false,109,1,1,1776,1,1,INFPU07042,254
1512568613519,739,FileUpload D12_PE7611,404,Thread Group_Prod1 1-1,false,109,1,1,739,1,1,INFPU07042,0
1512568614266,1503,FileUpload D12_PE7611,404,Thread Group_Prod1 1-1,false,109,1,1,1503,1,1,INFPU07042,244
1512568615785,716,FileUpload D12_PE7611,404,Thread Group_Prod1 1-1,false,109,1,1,716,1,1,INFPU07042,0
1512568616528,1512,FileUpload D12_PE7611,404,Thread Group_Prod1 1-1,false,109,1,1,1512,1,1,INFPU07042,246
1512568618070,775,FileUpload D13_PE5691_1Record,404,Thread Group_Prod1 1-1,false,109,1,1,775,1,1,INFPU07042,0
1512568618871,1833,FileUpload D15_PE5691_1Record,404,Thread Group_Prod1 1-1,false,109,1,1,1833,1,1,INFPU07042,257
1512568620704,772,FileUpload D16_PE7071_1Record,404,Thread Group_Prod1 1-1,false,109,1,1,772,1,1,INFPU07042,0
1512568621508,1776,FileUpload D17_PE7071_1Record,404,Thread Group_Prod1 1-1,false,109,1,1,1776,1,1,INFPU07042,255
1512568623319,223,FileUpload D18_PE7071_1Record,Non HTTP response code: java.net.SocketException,Thread Group_Prod1 1-1,false,2811,1,1,0,1,1,INFPU07042,0
1512568634433,829,NoFileUpload B17_PE7033,200,Thread Group_Prod1 1-1,true,879,1,1,829,1,0,INFPU07042,317
1512568635263,252,NoFileUpload B18_PE7314,200,Thread Group_Prod1 1-1,true,531,1,1,251,1,0,INFPU07042,0
1512568635547,251,NoFileUpload B17_PE7044_expression,200,Thread Group_Prod1 1-1,true,516,1,1,250,1,0,INFPU07042,0
1512568635798,252,NoFileUpload B17_PE7044_range,200,Thread Group_Prod1 1-1,true,934,1,1,251,1,0,INFPU07042,0
1512568636132,265,NoFileUpload B17_PE7044_rangeValidationRefTable,200,Thread Group_Prod1 1-1,true,928,1,1,265,1,0,INFPU07042,0
1512568636443,1039,NoFileUpload B17_PE7044_rangeValidationRefTable_dimensions,200,Thread Group_Prod1 1-1,true,967,1,1,1039,1,0,INFPU07042,256
1512568637557,268,FileUpload D10_PE5216,200,Thread Group_Prod1 1-1,true,1364,1,1,268,1,0,INFPU07042,0
1512568637883,546,FileUpload D11_PE6030,200,Thread Group_Prod1 1-1,true,3265,1,1,545,1,0,INFPU07042,0
1512568638502,1007,FileUpload D12_PE6027,200,Thread Group_Prod1 1-1,true,2163,1,1,1007,1,0,INFPU07042,246
1512568639582,1282,FileUpload D12_PE7611,200,Thread Group_Prod1 1-1,true,2418,1,1,1281,1,0,INFPU07042,0
1512568640896,2000,FileUpload D12_PE7611,200,Thread Group_Prod1 1-1,true,1621,1,1,1999,1,0,INFPU07042,245
1512568642933,1762,FileUpload D12_PE7611,200,Thread Group_Prod1 1-1,true,1518,1,1,1762,1,0,INFPU07042,246
1512568644728,1020,FileUpload D12_PE7611,200,Thread Group_Prod1 1-1,true,1586,1,1,1019,1,0,INFPU07042,0
1512568645790,1825,FileUpload D12_PE7611,200,Thread Group_Prod1 1-1,true,2033,1,1,1824,1,0,INFPU07042,257
1512568647648,1096,FileUpload D12_PE7611,200,Thread Group_Prod1 1-1,true,1624,1,1,1096,1,0,INFPU07042,0
1512568648784,1751,FileUpload D12_PE7611,200,Thread Group_Prod1 1-1,true,1624,1,1,1750,1,0,INFPU07042,245
1512568650555,1263,FileUpload D12_PE7611,200,Thread Group_Prod1 1-1,true,2042,1,1,1262,1,0,INFPU07042,0
1512568651865,1859,FileUpload D12_PE7611,200,Thread Group_Prod1 1-1,true,1799,1,1,1858,1,0,INFPU07042,260
1512568653761,1335,FileUpload D12_PE7611,200,Thread Group_Prod1 1-1,true,1754,1,1,1335,1,0,INFPU07042,0
1512568655133,2070,FileUpload D13_PE5691_1Record,200,Thread Group_Prod1 1-1,true,3264,1,1,2070,1,0,INFPU07042,259
1512568657236,2068,FileUpload D15_PE5691_1Record,200,Thread Group_Prod1 1-1,true,3264,1,1,2068,1,0,INFPU07042,255
1512568659305,2074,FileUpload D16_PE7071_1Record,200,Thread Group_Prod1 1-1,true,6396,1,1,2072,1,0,INFPU07042,256
1512568661422,1989,FileUpload D17_PE7071_1Record,200,Thread Group_Prod1 1-1,true,6394,1,1,1987,1,0,INFPU07042,245
1512568663457,1998,FileUpload D18_PE7071_1Record,200,Thread Group_Prod1 1-1,true,6995,1,1,1995,1,0,INFPU07042,245
1512568665500,2061,FileUpload D20_PE7071_1Record,200,Thread Group_Prod1 1-1,true,5215,1,1,2059,1,0,INFPU07042,316
