{
  "entities": [
    {
      "sectionStructure": {
        "columns": [
          {
            "code": "YOUR_EEID",
            "displayLabel": "Employee Identifier",
            "dataType": "int",
            "questionType": "integer",
            "validations": []
          },
          {
            "code": "ANNUAL_BASE",
            "displayLabel": "Organisation Job Title",
            "dataType": "text",
            "questionType": "text",
            "validations": []
          },
          {
            "code": "LPALL_001",
            "displayLabel": "Email address",
            "dataType": "string",
            "questionType": "boolean",
            "validations": [ 
            ]
          },
          {
            "code": "CONSOL_ALLOW",
            "displayLabel": "Phone number",
            "dataType": "string",
            "questionType": "text",
            "validations": [
            ]
          },
		  {
            "code": "POS_CODE",
            "displayLabel": "Employee Identifier",
            "dataType": "int",
            "questionType": "double",
            "validations": [
				{
                "parameter": "",
                "expression": "XUNIQUECOUNT(\"ANNUAL_BASE\",\"POS_CODE > 2\",\"\");" ,
                "clientInstructions": "Please provide Annual Base Salary",
                "errorType": "AUTOCORRECT",
                "message": "Annual Base Salary is blank",
                "validationType": "expression",
                "_id": "59e91b14a811920015bcd533",
                "category": "input_data",
                "dependentColumns": []
              }]
          }
        ]
      },
      "otherSectionsData": {},
      "contextData": {
        "campaignId": "59ca2a66c1e15a565af88407",
        "companyId": "59c3eac0fc22fa6928d09aa4",
        "companyName": "Exadel",
        "sectionId": "pe3707Section",
        "grpCode": "",
        "cpyCode": "",
        "ctryCode": "BY",
        "orgSize": {
          "59c3eac0fc22fa6928d09aa4": null
        },
        "uniqueIdColumnCode": "YOUR_EEID",
        "industry": {
          "superSector": "CG",
          "sector": "101",
          "subSector": "2670"
        }
      }
    }
  ]
}