{
    "data": [
        {
            "city": "city21",
            "COUNTRY_CODE": "COUNTRY_CODE21",
            "YOUR_EEID": "2",
			"CompanyNames":"KFC1",
			"CountryName":"US1"
			
        },
        {
            "city": "city31",
            "COUNTRY_CODE": "COUNTRY_CODE31",
            "YOUR_EEID": "3",
			"CompanyNames":"KFC2",
			"CountryName":"US2"
        },
        {
            "city": "city41",
            "COUNTRY_CODE": "COUNTRY_CODE41",
            "YOUR_EEID": "4",
			"CompanyNames":"KFC3",
			"CountryName":"US3"
        },
		{
            "city": "city51",
            "COUNTRY_CODE": "COUNTRY_CODE51",
            "YOUR_EEID": "5",
			"CompanyNames":"KFC4",
			"CountryName":"US4"
        },
		{
            "city": "city61",
            "COUNTRY_CODE": "COUNTRY_CODE61",
            "YOUR_EEID": "5",
			"CompanyNames":"KFC5",
			"CountryName":"US5"
        },
		{
            "city": "city71",
            "COUNTRY_CODE": "COUNTRY_CODE71",
            "YOUR_EEID": "5",
			"CompanyNames":"KFC6",
			"CountryName":"US6"
        },
		{
            "city": "city81",
            "COUNTRY_CODE": "C8UNTRY_CODE81",
            "YOUR_EEID": "5",
			"CompanyNames":"KFC7",
			"CountryName":"US7"
        },
		{
            "city": "city91",
            "COUNTRY_CODE": "COUNTRY_CODE91",
            "YOUR_EEID": "5",
			"CompanyNames":"KFC8",
			"CountryName":"US8"
        }
    ]
}