{
    "entities": [
        {
            "contextData": {
                "campaignId": "59ca2a66c1e15a565af88407",
                "companyId": "59c3eac0fc22fa6928d09aa4",
                "companyName": "Exadel",
                "sectionId": "pe3707Section",
                "grpCode": "",
                "cpyCode": "",
                "ctryCode": "BY",
                "orgSize": {
                    "59c3eac0fc22fa6928d09aa4": null
                },
                "uniqueIdColumnCode": "YOUR_EEID",
                "industry": {
                    "superSector": "CG",
                    "sector": "101",
                    "subSector": "2670"
                }
            },
            "sections": [
                {
                    "sectionCode": "incumbent_data",
                    "sectionStructure": {
                        "columns": [
                            {
                                "code": "question1",
                                "displayLabel": "Question 1 display label",
                                "dataType": "int",
                                "questionType": "integer",
                                "validations": [
                                    {
                                        "mda": "clear_value",
                                        "maxError": 1000,
                                        "minError": 5,
                                        "maxAlert": 100,
                                        "message": "",
                                        "expression": "",
                                        "minAlert": 10,
                                        "validationType": "range",
                                        "_id": "59df5c44527b5be1ac230224",
                                        "category": "input_data",
                                        "dependentColumns": []
                                    }
                                ]
                            },
                            {
                                "code": "question2",
                                "displayLabel": "Question 2 display label",
                                "dataType": "int",
                                "questionType": "integer",
                                "validations": [
                                    {
                                        "mda": "clear_value",
                                        "maxError": 1000,
                                        "minError": 5,
                                        "maxAlert": 100,
                                        "message": "",
                                        "expression": "",
                                        "minAlert": 10,
                                        "validationType": "range",
                                        "_id": "59df5c44527b5be1ac230224",
                                        "category": "input_data",
                                        "dependentColumns": []
                                    }
                                ]
                            }
                        ]
                    },
                    "data": [
                        {
                            "$$id": "58d0360baa2ae02cc4723431",
                            "YOUR_EEID": "1",
                            "question1": "1",
                            "question2": "6"
                        },
                        {
                            "$$id": "58d03653aa2ae02cc4723432",
                            "YOUR_EEID": "2",
                            "question1": "1",
                            "question2": "6"
                        }
                    ]
                },
                {
                    "sectionCode": "company_data",
                    "sectionStructure": {
                        "columns": [
                            {
                                "code": "question1",
                                "displayLabel": "Question 1 display label",
                                "dataType": "int",
                                "questionType": "integer",
                                "validations": [
                                    {
                                        "mda": "clear_value",
                                        "maxError": 1000,
                                        "minError": 5,
                                        "maxAlert": 100,
                                        "message": "",
                                        "expression": "",
                                        "minAlert": 10,
                                        "validationType": "range",
                                        "_id": "59df5c44527b5be1ac230224",
                                        "category": "input_data",
                                        "dependentColumns": []
                                    }
                                ]
                            },
                            {
                                "code": "question2",
                                "displayLabel": "Question 2 display label",
                                "dataType": "int",
                                "questionType": "integer",
                                "validations": [
                                    {
                                        "mda": "exclude_row",
                                        "maxError": 1000,
                                        "minError": 5,
                                        "maxAlert": 100,
                                        "message": "",
                                        "expression": "",
                                        "minAlert": 10,
                                        "validationType": "range",
                                        "_id": "59df5c44527b5be1ac230224",
                                        "category": "input_data",
                                        "dependentColumns": []
                                    }
                                ]
                            }
                        ]
                    },
                    "data": [
                        {
                            "$$id": "58d0360baa2ae02cc4723431",
                            "YOUR_EEID": "3",
                            "question1": "1",
                            "question2": "6"
                        },
                        {
                            "$$id": "58d03653aa2ae02cc4723432",
                            "YOUR_EEID": "4",
                            "question1": "1",
                            "question2": "6"
                        }
                    ]
                }
            ]
        }
    ]
}